<?xml version="1.0" encoding="utf-8"?>
<svg xmlns="http://www.w3.org/2000/svg" xmlns:xlink="http://www.w3.org/1999/xlink" width="600" height="400" viewBox="0 0 2400 1600">
<defs>
  <clipPath id="clip850">
    <rect x="0" y="0" width="2400" height="1600"/>
  </clipPath>
</defs>
<path clip-path="url(#clip850)" d="
M0 1600 L2400 1600 L2400 0 L0 0  Z
  " fill="#ffffff" fill-rule="evenodd" fill-opacity="1"/>
<defs>
  <clipPath id="clip851">
    <rect x="480" y="0" width="1681" height="1600"/>
  </clipPath>
</defs>
<path clip-path="url(#clip850)" d="
M225.723 1423.18 L2352.76 1423.18 L2352.76 123.472 L225.723 123.472  Z
  " fill="#ffffff" fill-rule="evenodd" fill-opacity="1"/>
<defs>
  <clipPath id="clip852">
    <rect x="225" y="123" width="2128" height="1301"/>
  </clipPath>
</defs>
<polyline clip-path="url(#clip852)" style="stroke:#000000; stroke-width:2; stroke-opacity:0.1; fill:none" points="
  285.922,1423.18 285.922,123.472 
  "/>
<polyline clip-path="url(#clip852)" style="stroke:#000000; stroke-width:2; stroke-opacity:0.1; fill:none" points="
  787.581,1423.18 787.581,123.472 
  "/>
<polyline clip-path="url(#clip852)" style="stroke:#000000; stroke-width:2; stroke-opacity:0.1; fill:none" points="
  1289.24,1423.18 1289.24,123.472 
  "/>
<polyline clip-path="url(#clip852)" style="stroke:#000000; stroke-width:2; stroke-opacity:0.1; fill:none" points="
  1790.9,1423.18 1790.9,123.472 
  "/>
<polyline clip-path="url(#clip852)" style="stroke:#000000; stroke-width:2; stroke-opacity:0.1; fill:none" points="
  2292.56,1423.18 2292.56,123.472 
  "/>
<polyline clip-path="url(#clip852)" style="stroke:#000000; stroke-width:2; stroke-opacity:0.1; fill:none" points="
  225.723,1386.4 2352.76,1386.4 
  "/>
<polyline clip-path="url(#clip852)" style="stroke:#000000; stroke-width:2; stroke-opacity:0.1; fill:none" points="
  225.723,1079.86 2352.76,1079.86 
  "/>
<polyline clip-path="url(#clip852)" style="stroke:#000000; stroke-width:2; stroke-opacity:0.1; fill:none" points="
  225.723,773.326 2352.76,773.326 
  "/>
<polyline clip-path="url(#clip852)" style="stroke:#000000; stroke-width:2; stroke-opacity:0.1; fill:none" points="
  225.723,466.791 2352.76,466.791 
  "/>
<polyline clip-path="url(#clip852)" style="stroke:#000000; stroke-width:2; stroke-opacity:0.1; fill:none" points="
  225.723,160.256 2352.76,160.256 
  "/>
<polyline clip-path="url(#clip850)" style="stroke:#000000; stroke-width:4; stroke-opacity:1; fill:none" points="
  225.723,1423.18 2352.76,1423.18 
  "/>
<polyline clip-path="url(#clip850)" style="stroke:#000000; stroke-width:4; stroke-opacity:1; fill:none" points="
  225.723,1423.18 225.723,123.472 
  "/>
<polyline clip-path="url(#clip850)" style="stroke:#000000; stroke-width:4; stroke-opacity:1; fill:none" points="
  285.922,1423.18 285.922,1407.58 
  "/>
<polyline clip-path="url(#clip850)" style="stroke:#000000; stroke-width:4; stroke-opacity:1; fill:none" points="
  787.581,1423.18 787.581,1407.58 
  "/>
<polyline clip-path="url(#clip850)" style="stroke:#000000; stroke-width:4; stroke-opacity:1; fill:none" points="
  1289.24,1423.18 1289.24,1407.58 
  "/>
<polyline clip-path="url(#clip850)" style="stroke:#000000; stroke-width:4; stroke-opacity:1; fill:none" points="
  1790.9,1423.18 1790.9,1407.58 
  "/>
<polyline clip-path="url(#clip850)" style="stroke:#000000; stroke-width:4; stroke-opacity:1; fill:none" points="
  2292.56,1423.18 2292.56,1407.58 
  "/>
<polyline clip-path="url(#clip850)" style="stroke:#000000; stroke-width:4; stroke-opacity:1; fill:none" points="
  225.723,1386.4 251.247,1386.4 
  "/>
<polyline clip-path="url(#clip850)" style="stroke:#000000; stroke-width:4; stroke-opacity:1; fill:none" points="
  225.723,1079.86 251.247,1079.86 
  "/>
<polyline clip-path="url(#clip850)" style="stroke:#000000; stroke-width:4; stroke-opacity:1; fill:none" points="
  225.723,773.326 251.247,773.326 
  "/>
<polyline clip-path="url(#clip850)" style="stroke:#000000; stroke-width:4; stroke-opacity:1; fill:none" points="
  225.723,466.791 251.247,466.791 
  "/>
<polyline clip-path="url(#clip850)" style="stroke:#000000; stroke-width:4; stroke-opacity:1; fill:none" points="
  225.723,160.256 251.247,160.256 
  "/>
<path clip-path="url(#clip850)" d="M 0 0 M253.931 1445.17 Q250.32 1445.17 248.491 1448.74 Q246.686 1452.28 246.686 1459.41 Q246.686 1466.51 248.491 1470.08 Q250.32 1473.62 253.931 1473.62 Q257.565 1473.62 259.371 1470.08 Q261.2 1466.51 261.2 1459.41 Q261.2 1452.28 259.371 1448.74 Q257.565 1445.17 253.931 1445.17 M253.931 1441.47 Q259.741 1441.47 262.797 1446.07 Q265.876 1450.66 265.876 1459.41 Q265.876 1468.13 262.797 1472.74 Q259.741 1477.32 253.931 1477.32 Q248.121 1477.32 245.042 1472.74 Q241.987 1468.13 241.987 1459.41 Q241.987 1450.66 245.042 1446.07 Q248.121 1441.47 253.931 1441.47 Z" fill="#000000" fill-rule="evenodd" fill-opacity="1" /><path clip-path="url(#clip850)" d="M 0 0 M270.945 1470.77 L275.829 1470.77 L275.829 1476.65 L270.945 1476.65 L270.945 1470.77 Z" fill="#000000" fill-rule="evenodd" fill-opacity="1" /><path clip-path="url(#clip850)" d="M 0 0 M290.899 1445.17 Q287.288 1445.17 285.459 1448.74 Q283.653 1452.28 283.653 1459.41 Q283.653 1466.51 285.459 1470.08 Q287.288 1473.62 290.899 1473.62 Q294.533 1473.62 296.338 1470.08 Q298.167 1466.51 298.167 1459.41 Q298.167 1452.28 296.338 1448.74 Q294.533 1445.17 290.899 1445.17 M290.899 1441.47 Q296.709 1441.47 299.764 1446.07 Q302.843 1450.66 302.843 1459.41 Q302.843 1468.13 299.764 1472.74 Q296.709 1477.32 290.899 1477.32 Q285.088 1477.32 282.01 1472.74 Q278.954 1468.13 278.954 1459.41 Q278.954 1450.66 282.01 1446.07 Q285.088 1441.47 290.899 1441.47 Z" fill="#000000" fill-rule="evenodd" fill-opacity="1" /><path clip-path="url(#clip850)" d="M 0 0 M317.912 1445.17 Q314.301 1445.17 312.473 1448.74 Q310.667 1452.28 310.667 1459.41 Q310.667 1466.51 312.473 1470.08 Q314.301 1473.62 317.912 1473.62 Q321.547 1473.62 323.352 1470.08 Q325.181 1466.51 325.181 1459.41 Q325.181 1452.28 323.352 1448.74 Q321.547 1445.17 317.912 1445.17 M317.912 1441.47 Q323.722 1441.47 326.778 1446.07 Q329.857 1450.66 329.857 1459.41 Q329.857 1468.13 326.778 1472.74 Q323.722 1477.32 317.912 1477.32 Q312.102 1477.32 309.023 1472.74 Q305.968 1468.13 305.968 1459.41 Q305.968 1450.66 309.023 1446.07 Q312.102 1441.47 317.912 1441.47 Z" fill="#000000" fill-rule="evenodd" fill-opacity="1" /><path clip-path="url(#clip850)" d="M 0 0 M756.886 1445.17 Q753.275 1445.17 751.446 1448.74 Q749.641 1452.28 749.641 1459.41 Q749.641 1466.51 751.446 1470.08 Q753.275 1473.62 756.886 1473.62 Q760.52 1473.62 762.326 1470.08 Q764.155 1466.51 764.155 1459.41 Q764.155 1452.28 762.326 1448.74 Q760.52 1445.17 756.886 1445.17 M756.886 1441.47 Q762.696 1441.47 765.752 1446.07 Q768.831 1450.66 768.831 1459.41 Q768.831 1468.13 765.752 1472.74 Q762.696 1477.32 756.886 1477.32 Q751.076 1477.32 747.997 1472.74 Q744.942 1468.13 744.942 1459.41 Q744.942 1450.66 747.997 1446.07 Q751.076 1441.47 756.886 1441.47 Z" fill="#000000" fill-rule="evenodd" fill-opacity="1" /><path clip-path="url(#clip850)" d="M 0 0 M773.9 1470.77 L778.784 1470.77 L778.784 1476.65 L773.9 1476.65 L773.9 1470.77 Z" fill="#000000" fill-rule="evenodd" fill-opacity="1" /><path clip-path="url(#clip850)" d="M 0 0 M787.881 1472.72 L804.201 1472.72 L804.201 1476.65 L782.256 1476.65 L782.256 1472.72 Q784.919 1469.96 789.502 1465.33 Q794.108 1460.68 795.289 1459.34 Q797.534 1456.81 798.414 1455.08 Q799.317 1453.32 799.317 1451.63 Q799.317 1448.87 797.372 1447.14 Q795.451 1445.4 792.349 1445.4 Q790.15 1445.4 787.696 1446.17 Q785.266 1446.93 782.488 1448.48 L782.488 1443.76 Q785.312 1442.62 787.766 1442.05 Q790.219 1441.47 792.256 1441.47 Q797.627 1441.47 800.821 1444.15 Q804.016 1446.84 804.016 1451.33 Q804.016 1453.46 803.205 1455.38 Q802.418 1457.28 800.312 1459.87 Q799.733 1460.54 796.631 1463.76 Q793.53 1466.95 787.881 1472.72 Z" fill="#000000" fill-rule="evenodd" fill-opacity="1" /><path clip-path="url(#clip850)" d="M 0 0 M809.317 1442.09 L827.673 1442.09 L827.673 1446.03 L813.599 1446.03 L813.599 1454.5 Q814.617 1454.15 815.636 1453.99 Q816.654 1453.8 817.673 1453.8 Q823.46 1453.8 826.84 1456.98 Q830.219 1460.15 830.219 1465.56 Q830.219 1471.14 826.747 1474.24 Q823.275 1477.32 816.955 1477.32 Q814.779 1477.32 812.511 1476.95 Q810.266 1476.58 807.858 1475.84 L807.858 1471.14 Q809.942 1472.28 812.164 1472.83 Q814.386 1473.39 816.863 1473.39 Q820.867 1473.39 823.205 1471.28 Q825.543 1469.18 825.543 1465.56 Q825.543 1461.95 823.205 1459.85 Q820.867 1457.74 816.863 1457.74 Q814.988 1457.74 813.113 1458.16 Q811.261 1458.57 809.317 1459.45 L809.317 1442.09 Z" fill="#000000" fill-rule="evenodd" fill-opacity="1" /><path clip-path="url(#clip850)" d="M 0 0 M1257.75 1445.17 Q1254.14 1445.17 1252.31 1448.74 Q1250.5 1452.28 1250.5 1459.41 Q1250.5 1466.51 1252.31 1470.08 Q1254.14 1473.62 1257.75 1473.62 Q1261.38 1473.62 1263.19 1470.08 Q1265.01 1466.51 1265.01 1459.41 Q1265.01 1452.28 1263.19 1448.74 Q1261.38 1445.17 1257.75 1445.17 M1257.75 1441.47 Q1263.56 1441.47 1266.61 1446.07 Q1269.69 1450.66 1269.69 1459.41 Q1269.69 1468.13 1266.61 1472.74 Q1263.56 1477.32 1257.75 1477.32 Q1251.94 1477.32 1248.86 1472.74 Q1245.8 1468.13 1245.8 1459.41 Q1245.8 1450.66 1248.86 1446.07 Q1251.94 1441.47 1257.75 1441.47 Z" fill="#000000" fill-rule="evenodd" fill-opacity="1" /><path clip-path="url(#clip850)" d="M 0 0 M1274.76 1470.77 L1279.64 1470.77 L1279.64 1476.65 L1274.76 1476.65 L1274.76 1470.77 Z" fill="#000000" fill-rule="evenodd" fill-opacity="1" /><path clip-path="url(#clip850)" d="M 0 0 M1284.76 1442.09 L1303.12 1442.09 L1303.12 1446.03 L1289.04 1446.03 L1289.04 1454.5 Q1290.06 1454.15 1291.08 1453.99 Q1292.1 1453.8 1293.12 1453.8 Q1298.9 1453.8 1302.28 1456.98 Q1305.66 1460.15 1305.66 1465.56 Q1305.66 1471.14 1302.19 1474.24 Q1298.72 1477.32 1292.4 1477.32 Q1290.22 1477.32 1287.95 1476.95 Q1285.71 1476.58 1283.3 1475.84 L1283.3 1471.14 Q1285.39 1472.28 1287.61 1472.83 Q1289.83 1473.39 1292.31 1473.39 Q1296.31 1473.39 1298.65 1471.28 Q1300.99 1469.18 1300.99 1465.56 Q1300.99 1461.95 1298.65 1459.85 Q1296.31 1457.74 1292.31 1457.74 Q1290.43 1457.74 1288.56 1458.16 Q1286.7 1458.57 1284.76 1459.45 L1284.76 1442.09 Z" fill="#000000" fill-rule="evenodd" fill-opacity="1" /><path clip-path="url(#clip850)" d="M 0 0 M1320.73 1445.17 Q1317.12 1445.17 1315.29 1448.74 Q1313.49 1452.28 1313.49 1459.41 Q1313.49 1466.51 1315.29 1470.08 Q1317.12 1473.62 1320.73 1473.62 Q1324.37 1473.62 1326.17 1470.08 Q1328 1466.51 1328 1459.41 Q1328 1452.28 1326.17 1448.74 Q1324.37 1445.17 1320.73 1445.17 M1320.73 1441.47 Q1326.54 1441.47 1329.6 1446.07 Q1332.68 1450.66 1332.68 1459.41 Q1332.68 1468.13 1329.6 1472.74 Q1326.54 1477.32 1320.73 1477.32 Q1314.92 1477.32 1311.84 1472.74 Q1308.79 1468.13 1308.79 1459.41 Q1308.79 1450.66 1311.84 1446.07 Q1314.92 1441.47 1320.73 1441.47 Z" fill="#000000" fill-rule="evenodd" fill-opacity="1" /><path clip-path="url(#clip850)" d="M 0 0 M1759.86 1445.17 Q1756.25 1445.17 1754.42 1448.74 Q1752.61 1452.28 1752.61 1459.41 Q1752.61 1466.51 1754.42 1470.08 Q1756.25 1473.62 1759.86 1473.62 Q1763.49 1473.62 1765.3 1470.08 Q1767.13 1466.51 1767.13 1459.41 Q1767.13 1452.28 1765.3 1448.74 Q1763.49 1445.17 1759.86 1445.17 M1759.86 1441.47 Q1765.67 1441.47 1768.72 1446.07 Q1771.8 1450.66 1771.8 1459.41 Q1771.8 1468.13 1768.72 1472.74 Q1765.67 1477.32 1759.86 1477.32 Q1754.05 1477.32 1750.97 1472.74 Q1747.91 1468.13 1747.91 1459.41 Q1747.91 1450.66 1750.97 1446.07 Q1754.05 1441.47 1759.86 1441.47 Z" fill="#000000" fill-rule="evenodd" fill-opacity="1" /><path clip-path="url(#clip850)" d="M 0 0 M1776.87 1470.77 L1781.75 1470.77 L1781.75 1476.65 L1776.87 1476.65 L1776.87 1470.77 Z" fill="#000000" fill-rule="evenodd" fill-opacity="1" /><path clip-path="url(#clip850)" d="M 0 0 M1785.64 1442.09 L1807.87 1442.09 L1807.87 1444.08 L1795.32 1476.65 L1790.44 1476.65 L1802.24 1446.03 L1785.64 1446.03 L1785.64 1442.09 Z" fill="#000000" fill-rule="evenodd" fill-opacity="1" /><path clip-path="url(#clip850)" d="M 0 0 M1812.98 1442.09 L1831.34 1442.09 L1831.34 1446.03 L1817.26 1446.03 L1817.26 1454.5 Q1818.28 1454.15 1819.3 1453.99 Q1820.32 1453.8 1821.34 1453.8 Q1827.12 1453.8 1830.5 1456.98 Q1833.88 1460.15 1833.88 1465.56 Q1833.88 1471.14 1830.41 1474.24 Q1826.94 1477.32 1820.62 1477.32 Q1818.44 1477.32 1816.18 1476.95 Q1813.93 1476.58 1811.52 1475.84 L1811.52 1471.14 Q1813.61 1472.28 1815.83 1472.83 Q1818.05 1473.39 1820.53 1473.39 Q1824.53 1473.39 1826.87 1471.28 Q1829.21 1469.18 1829.21 1465.56 Q1829.21 1461.95 1826.87 1459.85 Q1824.53 1457.74 1820.53 1457.74 Q1818.65 1457.74 1816.78 1458.16 Q1814.93 1458.57 1812.98 1459.45 L1812.98 1442.09 Z" fill="#000000" fill-rule="evenodd" fill-opacity="1" /><path clip-path="url(#clip850)" d="M 0 0 M2250.95 1472.72 L2258.59 1472.72 L2258.59 1446.35 L2250.28 1448.02 L2250.28 1443.76 L2258.54 1442.09 L2263.22 1442.09 L2263.22 1472.72 L2270.86 1472.72 L2270.86 1476.65 L2250.95 1476.65 L2250.95 1472.72 Z" fill="#000000" fill-rule="evenodd" fill-opacity="1" /><path clip-path="url(#clip850)" d="M 0 0 M2275.92 1470.77 L2280.81 1470.77 L2280.81 1476.65 L2275.92 1476.65 L2275.92 1470.77 Z" fill="#000000" fill-rule="evenodd" fill-opacity="1" /><path clip-path="url(#clip850)" d="M 0 0 M2295.88 1445.17 Q2292.27 1445.17 2290.44 1448.74 Q2288.63 1452.28 2288.63 1459.41 Q2288.63 1466.51 2290.44 1470.08 Q2292.27 1473.62 2295.88 1473.62 Q2299.51 1473.62 2301.32 1470.08 Q2303.15 1466.51 2303.15 1459.41 Q2303.15 1452.28 2301.32 1448.74 Q2299.51 1445.17 2295.88 1445.17 M2295.88 1441.47 Q2301.69 1441.47 2304.74 1446.07 Q2307.82 1450.66 2307.82 1459.41 Q2307.82 1468.13 2304.74 1472.74 Q2301.69 1477.32 2295.88 1477.32 Q2290.07 1477.32 2286.99 1472.74 Q2283.93 1468.13 2283.93 1459.41 Q2283.93 1450.66 2286.99 1446.07 Q2290.07 1441.47 2295.88 1441.47 Z" fill="#000000" fill-rule="evenodd" fill-opacity="1" /><path clip-path="url(#clip850)" d="M 0 0 M2322.89 1445.17 Q2319.28 1445.17 2317.45 1448.74 Q2315.65 1452.28 2315.65 1459.41 Q2315.65 1466.51 2317.45 1470.08 Q2319.28 1473.62 2322.89 1473.62 Q2326.53 1473.62 2328.33 1470.08 Q2330.16 1466.51 2330.16 1459.41 Q2330.16 1452.28 2328.33 1448.74 Q2326.53 1445.17 2322.89 1445.17 M2322.89 1441.47 Q2328.7 1441.47 2331.76 1446.07 Q2334.84 1450.66 2334.84 1459.41 Q2334.84 1468.13 2331.76 1472.74 Q2328.7 1477.32 2322.89 1477.32 Q2317.08 1477.32 2314 1472.74 Q2310.95 1468.13 2310.95 1459.41 Q2310.95 1450.66 2314 1446.07 Q2317.08 1441.47 2322.89 1441.47 Z" fill="#000000" fill-rule="evenodd" fill-opacity="1" /><path clip-path="url(#clip850)" d="M 0 0 M126.492 1388.79 L138.968 1388.79 L138.968 1392.59 L126.492 1392.59 L126.492 1388.79 Z" fill="#000000" fill-rule="evenodd" fill-opacity="1" /><path clip-path="url(#clip850)" d="M 0 0 M144.848 1399.74 L152.487 1399.74 L152.487 1373.37 L144.177 1375.04 L144.177 1370.78 L152.441 1369.12 L157.116 1369.12 L157.116 1399.74 L164.755 1399.74 L164.755 1403.68 L144.848 1403.68 L144.848 1399.74 Z" fill="#000000" fill-rule="evenodd" fill-opacity="1" /><path clip-path="url(#clip850)" d="M 0 0 M169.825 1397.8 L174.709 1397.8 L174.709 1403.68 L169.825 1403.68 L169.825 1397.8 Z" fill="#000000" fill-rule="evenodd" fill-opacity="1" /><path clip-path="url(#clip850)" d="M 0 0 M189.778 1372.19 Q186.167 1372.19 184.339 1375.76 Q182.533 1379.3 182.533 1386.43 Q182.533 1393.54 184.339 1397.1 Q186.167 1400.64 189.778 1400.64 Q193.413 1400.64 195.218 1397.1 Q197.047 1393.54 197.047 1386.43 Q197.047 1379.3 195.218 1375.76 Q193.413 1372.19 189.778 1372.19 M189.778 1368.49 Q195.588 1368.49 198.644 1373.1 Q201.723 1377.68 201.723 1386.43 Q201.723 1395.16 198.644 1399.76 Q195.588 1404.35 189.778 1404.35 Q183.968 1404.35 180.889 1399.76 Q177.834 1395.16 177.834 1386.43 Q177.834 1377.68 180.889 1373.1 Q183.968 1368.49 189.778 1368.49 Z" fill="#000000" fill-rule="evenodd" fill-opacity="1" /><path clip-path="url(#clip850)" d="M 0 0 M126.26 1082.26 L138.737 1082.26 L138.737 1086.05 L126.26 1086.05 L126.26 1082.26 Z" fill="#000000" fill-rule="evenodd" fill-opacity="1" /><path clip-path="url(#clip850)" d="M 0 0 M153.806 1065.66 Q150.195 1065.66 148.367 1069.22 Q146.561 1072.77 146.561 1079.9 Q146.561 1087 148.367 1090.57 Q150.195 1094.11 153.806 1094.11 Q157.441 1094.11 159.246 1090.57 Q161.075 1087 161.075 1079.9 Q161.075 1072.77 159.246 1069.22 Q157.441 1065.66 153.806 1065.66 M153.806 1061.96 Q159.616 1061.96 162.672 1066.56 Q165.751 1071.15 165.751 1079.9 Q165.751 1088.62 162.672 1093.23 Q159.616 1097.81 153.806 1097.81 Q147.996 1097.81 144.917 1093.23 Q141.862 1088.62 141.862 1079.9 Q141.862 1071.15 144.917 1066.56 Q147.996 1061.96 153.806 1061.96 Z" fill="#000000" fill-rule="evenodd" fill-opacity="1" /><path clip-path="url(#clip850)" d="M 0 0 M170.82 1091.26 L175.704 1091.26 L175.704 1097.14 L170.82 1097.14 L170.82 1091.26 Z" fill="#000000" fill-rule="evenodd" fill-opacity="1" /><path clip-path="url(#clip850)" d="M 0 0 M180.82 1062.58 L199.176 1062.58 L199.176 1066.52 L185.102 1066.52 L185.102 1074.99 Q186.121 1074.64 187.139 1074.48 Q188.158 1074.29 189.176 1074.29 Q194.963 1074.29 198.343 1077.47 Q201.723 1080.64 201.723 1086.05 Q201.723 1091.63 198.251 1094.73 Q194.778 1097.81 188.459 1097.81 Q186.283 1097.81 184.014 1097.44 Q181.769 1097.07 179.362 1096.33 L179.362 1091.63 Q181.445 1092.77 183.667 1093.32 Q185.889 1093.88 188.366 1093.88 Q192.371 1093.88 194.709 1091.77 Q197.047 1089.66 197.047 1086.05 Q197.047 1082.44 194.709 1080.34 Q192.371 1078.23 188.366 1078.23 Q186.491 1078.23 184.616 1078.65 Q182.764 1079.06 180.82 1079.94 L180.82 1062.58 Z" fill="#000000" fill-rule="evenodd" fill-opacity="1" /><path clip-path="url(#clip850)" d="M 0 0 M152.811 759.125 Q149.2 759.125 147.371 762.689 Q145.566 766.231 145.566 773.361 Q145.566 780.467 147.371 784.032 Q149.2 787.574 152.811 787.574 Q156.445 787.574 158.251 784.032 Q160.079 780.467 160.079 773.361 Q160.079 766.231 158.251 762.689 Q156.445 759.125 152.811 759.125 M152.811 755.421 Q158.621 755.421 161.677 760.027 Q164.755 764.611 164.755 773.361 Q164.755 782.088 161.677 786.694 Q158.621 791.277 152.811 791.277 Q147.001 791.277 143.922 786.694 Q140.867 782.088 140.867 773.361 Q140.867 764.611 143.922 760.027 Q147.001 755.421 152.811 755.421 Z" fill="#000000" fill-rule="evenodd" fill-opacity="1" /><path clip-path="url(#clip850)" d="M 0 0 M169.825 784.726 L174.709 784.726 L174.709 790.606 L169.825 790.606 L169.825 784.726 Z" fill="#000000" fill-rule="evenodd" fill-opacity="1" /><path clip-path="url(#clip850)" d="M 0 0 M189.778 759.125 Q186.167 759.125 184.339 762.689 Q182.533 766.231 182.533 773.361 Q182.533 780.467 184.339 784.032 Q186.167 787.574 189.778 787.574 Q193.413 787.574 195.218 784.032 Q197.047 780.467 197.047 773.361 Q197.047 766.231 195.218 762.689 Q193.413 759.125 189.778 759.125 M189.778 755.421 Q195.588 755.421 198.644 760.027 Q201.723 764.611 201.723 773.361 Q201.723 782.088 198.644 786.694 Q195.588 791.277 189.778 791.277 Q183.968 791.277 180.889 786.694 Q177.834 782.088 177.834 773.361 Q177.834 764.611 180.889 760.027 Q183.968 755.421 189.778 755.421 Z" fill="#000000" fill-rule="evenodd" fill-opacity="1" /><path clip-path="url(#clip850)" d="M 0 0 M153.806 452.59 Q150.195 452.59 148.367 456.155 Q146.561 459.696 146.561 466.826 Q146.561 473.932 148.367 477.497 Q150.195 481.039 153.806 481.039 Q157.441 481.039 159.246 477.497 Q161.075 473.932 161.075 466.826 Q161.075 459.696 159.246 456.155 Q157.441 452.59 153.806 452.59 M153.806 448.886 Q159.616 448.886 162.672 453.493 Q165.751 458.076 165.751 466.826 Q165.751 475.553 162.672 480.159 Q159.616 484.742 153.806 484.742 Q147.996 484.742 144.917 480.159 Q141.862 475.553 141.862 466.826 Q141.862 458.076 144.917 453.493 Q147.996 448.886 153.806 448.886 Z" fill="#000000" fill-rule="evenodd" fill-opacity="1" /><path clip-path="url(#clip850)" d="M 0 0 M170.82 478.192 L175.704 478.192 L175.704 484.071 L170.82 484.071 L170.82 478.192 Z" fill="#000000" fill-rule="evenodd" fill-opacity="1" /><path clip-path="url(#clip850)" d="M 0 0 M180.82 449.511 L199.176 449.511 L199.176 453.446 L185.102 453.446 L185.102 461.918 Q186.121 461.571 187.139 461.409 Q188.158 461.224 189.176 461.224 Q194.963 461.224 198.343 464.395 Q201.723 467.567 201.723 472.983 Q201.723 478.562 198.251 481.664 Q194.778 484.742 188.459 484.742 Q186.283 484.742 184.014 484.372 Q181.769 484.002 179.362 483.261 L179.362 478.562 Q181.445 479.696 183.667 480.252 Q185.889 480.807 188.366 480.807 Q192.371 480.807 194.709 478.701 Q197.047 476.594 197.047 472.983 Q197.047 469.372 194.709 467.266 Q192.371 465.159 188.366 465.159 Q186.491 465.159 184.616 465.576 Q182.764 465.993 180.82 466.872 L180.82 449.511 Z" fill="#000000" fill-rule="evenodd" fill-opacity="1" /><path clip-path="url(#clip850)" d="M 0 0 M144.848 173.601 L152.487 173.601 L152.487 147.236 L144.177 148.902 L144.177 144.643 L152.441 142.976 L157.116 142.976 L157.116 173.601 L164.755 173.601 L164.755 177.536 L144.848 177.536 L144.848 173.601 Z" fill="#000000" fill-rule="evenodd" fill-opacity="1" /><path clip-path="url(#clip850)" d="M 0 0 M169.825 171.657 L174.709 171.657 L174.709 177.536 L169.825 177.536 L169.825 171.657 Z" fill="#000000" fill-rule="evenodd" fill-opacity="1" /><path clip-path="url(#clip850)" d="M 0 0 M189.778 146.055 Q186.167 146.055 184.339 149.62 Q182.533 153.161 182.533 160.291 Q182.533 167.397 184.339 170.962 Q186.167 174.504 189.778 174.504 Q193.413 174.504 195.218 170.962 Q197.047 167.397 197.047 160.291 Q197.047 153.161 195.218 149.62 Q193.413 146.055 189.778 146.055 M189.778 142.351 Q195.588 142.351 198.644 146.958 Q201.723 151.541 201.723 160.291 Q201.723 169.018 198.644 173.624 Q195.588 178.208 189.778 178.208 Q183.968 178.208 180.889 173.624 Q177.834 169.018 177.834 160.291 Q177.834 151.541 180.889 146.958 Q183.968 142.351 189.778 142.351 Z" fill="#000000" fill-rule="evenodd" fill-opacity="1" /><path clip-path="url(#clip850)" d="M 0 0 M848.379 14.0809 L848.379 22.0612 Q843.721 19.8332 839.589 18.7395 Q835.457 17.6457 831.609 17.6457 Q824.925 17.6457 821.279 20.2383 Q817.674 22.8309 817.674 27.611 Q817.674 31.6214 820.064 33.6873 Q822.494 35.7128 829.219 36.9686 L834.161 37.9813 Q843.316 39.7232 847.65 44.1387 Q852.025 48.5136 852.025 55.8863 Q852.025 64.6767 846.111 69.2137 Q840.237 73.7508 828.854 73.7508 Q824.56 73.7508 819.699 72.7785 Q814.878 71.8063 809.693 69.9024 L809.693 61.4765 Q814.676 64.2716 819.456 65.6895 Q824.236 67.1073 828.854 67.1073 Q835.862 67.1073 839.67 64.3527 Q843.478 61.598 843.478 56.4939 Q843.478 52.0379 840.723 49.5264 Q838.009 47.0148 831.771 45.759 L826.788 44.7868 Q817.633 42.9639 813.542 39.075 Q809.45 35.1862 809.45 28.2591 Q809.45 20.2383 815.081 15.6203 Q820.752 11.0023 830.677 11.0023 Q834.93 11.0023 839.346 11.7719 Q843.761 12.5416 848.379 14.0809 Z" fill="#000000" fill-rule="evenodd" fill-opacity="1" /><path clip-path="url(#clip850)" d="M 0 0 M859.843 27.2059 L867.297 27.2059 L867.297 72.576 L859.843 72.576 L859.843 27.2059 M859.843 9.54393 L867.297 9.54393 L867.297 18.9825 L859.843 18.9825 L859.843 9.54393 Z" fill="#000000" fill-rule="evenodd" fill-opacity="1" /><path clip-path="url(#clip850)" d="M 0 0 M904.971 49.3643 Q904.971 41.2625 901.608 36.8065 Q898.287 32.3505 892.251 32.3505 Q886.255 32.3505 882.893 36.8065 Q879.571 41.2625 879.571 49.3643 Q879.571 57.4256 882.893 61.8816 Q886.255 66.3376 892.251 66.3376 Q898.287 66.3376 901.608 61.8816 Q904.971 57.4256 904.971 49.3643 M912.424 66.9452 Q912.424 78.5308 907.28 84.1616 Q902.135 89.8329 891.522 89.8329 Q887.592 89.8329 884.108 89.2252 Q880.625 88.6581 877.343 87.4428 L877.343 80.1917 Q880.625 81.9741 883.825 82.8248 Q887.025 83.6755 890.347 83.6755 Q897.679 83.6755 901.325 79.8271 Q904.971 76.0193 904.971 68.282 L904.971 64.5957 Q902.662 68.6061 899.056 70.5911 Q895.451 72.576 890.428 72.576 Q882.083 72.576 876.979 66.2161 Q871.875 59.8562 871.875 49.3643 Q871.875 38.832 876.979 32.472 Q882.083 26.1121 890.428 26.1121 Q895.451 26.1121 899.056 28.0971 Q902.662 30.082 904.971 34.0924 L904.971 27.2059 L912.424 27.2059 L912.424 66.9452 Z" fill="#000000" fill-rule="evenodd" fill-opacity="1" /><path clip-path="url(#clip850)" d="M 0 0 M957.956 45.1919 L957.956 72.576 L950.503 72.576 L950.503 45.4349 Q950.503 38.994 947.991 35.7938 Q945.48 32.5936 940.456 32.5936 Q934.421 32.5936 930.937 36.4419 Q927.453 40.2903 927.453 46.9338 L927.453 72.576 L919.959 72.576 L919.959 27.2059 L927.453 27.2059 L927.453 34.2544 Q930.127 30.163 933.732 28.1376 Q937.378 26.1121 942.117 26.1121 Q949.936 26.1121 953.946 30.9732 Q957.956 35.7938 957.956 45.1919 Z" fill="#000000" fill-rule="evenodd" fill-opacity="1" /><path clip-path="url(#clip850)" d="M 0 0 M1004.58 48.0275 L1004.58 51.6733 L970.312 51.6733 Q970.798 59.3701 974.93 63.421 Q979.102 67.4314 986.515 67.4314 Q990.809 67.4314 994.82 66.3781 Q998.87 65.3249 1002.84 63.2184 L1002.84 70.267 Q998.83 71.9684 994.617 72.8596 Q990.404 73.7508 986.07 73.7508 Q975.213 73.7508 968.853 67.4314 Q962.534 61.1119 962.534 50.3365 Q962.534 39.1965 968.529 32.6746 Q974.565 26.1121 984.773 26.1121 Q993.928 26.1121 999.235 32.0264 Q1004.58 37.9003 1004.58 48.0275 M997.129 45.84 Q997.048 39.7232 993.685 36.0774 Q990.364 32.4315 984.854 32.4315 Q978.616 32.4315 974.849 35.9558 Q971.122 39.4801 970.555 45.8805 L997.129 45.84 Z" fill="#000000" fill-rule="evenodd" fill-opacity="1" /><path clip-path="url(#clip850)" d="M 0 0 M1042.26 34.0924 L1042.26 9.54393 L1049.71 9.54393 L1049.71 72.576 L1042.26 72.576 L1042.26 65.7705 Q1039.91 69.8214 1036.3 71.8063 Q1032.74 73.7508 1027.71 73.7508 Q1019.49 73.7508 1014.3 67.1883 Q1009.16 60.6258 1009.16 49.9314 Q1009.16 39.2371 1014.3 32.6746 Q1019.49 26.1121 1027.71 26.1121 Q1032.74 26.1121 1036.3 28.0971 Q1039.91 30.0415 1042.26 34.0924 M1016.86 49.9314 Q1016.86 58.1548 1020.22 62.8538 Q1023.62 67.5124 1029.54 67.5124 Q1035.45 67.5124 1038.85 62.8538 Q1042.26 58.1548 1042.26 49.9314 Q1042.26 41.7081 1038.85 37.0496 Q1035.45 32.3505 1029.54 32.3505 Q1023.62 32.3505 1020.22 37.0496 Q1016.86 41.7081 1016.86 49.9314 Z" fill="#000000" fill-rule="evenodd" fill-opacity="1" /><path clip-path="url(#clip850)" d="M 0 0 M1113.75 34.0924 L1113.75 9.54393 L1121.21 9.54393 L1121.21 72.576 L1113.75 72.576 L1113.75 65.7705 Q1111.4 69.8214 1107.8 71.8063 Q1104.23 73.7508 1099.21 73.7508 Q1090.99 73.7508 1085.8 67.1883 Q1080.66 60.6258 1080.66 49.9314 Q1080.66 39.2371 1085.8 32.6746 Q1090.99 26.1121 1099.21 26.1121 Q1104.23 26.1121 1107.8 28.0971 Q1111.4 30.0415 1113.75 34.0924 M1088.35 49.9314 Q1088.35 58.1548 1091.72 62.8538 Q1095.12 67.5124 1101.03 67.5124 Q1106.95 67.5124 1110.35 62.8538 Q1113.75 58.1548 1113.75 49.9314 Q1113.75 41.7081 1110.35 37.0496 Q1106.95 32.3505 1101.03 32.3505 Q1095.12 32.3505 1091.72 37.0496 Q1088.35 41.7081 1088.35 49.9314 Z" fill="#000000" fill-rule="evenodd" fill-opacity="1" /><path clip-path="url(#clip850)" d="M 0 0 M1129.03 27.2059 L1136.48 27.2059 L1136.48 72.576 L1129.03 72.576 L1129.03 27.2059 M1129.03 9.54393 L1136.48 9.54393 L1136.48 18.9825 L1129.03 18.9825 L1129.03 9.54393 Z" fill="#000000" fill-rule="evenodd" fill-opacity="1" /><path clip-path="url(#clip850)" d="M 0 0 M1167.27 9.54393 L1167.27 15.7418 L1160.14 15.7418 Q1156.13 15.7418 1154.55 17.3622 Q1153.01 18.9825 1153.01 23.1955 L1153.01 27.2059 L1165.28 27.2059 L1165.28 32.9987 L1153.01 32.9987 L1153.01 72.576 L1145.51 72.576 L1145.51 32.9987 L1138.38 32.9987 L1138.38 27.2059 L1145.51 27.2059 L1145.51 24.0462 Q1145.51 16.471 1149.04 13.0277 Q1152.56 9.54393 1160.22 9.54393 L1167.27 9.54393 Z" fill="#000000" fill-rule="evenodd" fill-opacity="1" /><path clip-path="url(#clip850)" d="M 0 0 M1198.05 9.54393 L1198.05 15.7418 L1190.92 15.7418 Q1186.91 15.7418 1185.33 17.3622 Q1183.79 18.9825 1183.79 23.1955 L1183.79 27.2059 L1196.07 27.2059 L1196.07 32.9987 L1183.79 32.9987 L1183.79 72.576 L1176.3 72.576 L1176.3 32.9987 L1169.17 32.9987 L1169.17 27.2059 L1176.3 27.2059 L1176.3 24.0462 Q1176.3 16.471 1179.82 13.0277 Q1183.35 9.54393 1191 9.54393 L1198.05 9.54393 Z" fill="#000000" fill-rule="evenodd" fill-opacity="1" /><path clip-path="url(#clip850)" d="M 0 0 M1244.68 48.0275 L1244.68 51.6733 L1210.41 51.6733 Q1210.89 59.3701 1215.03 63.421 Q1219.2 67.4314 1226.61 67.4314 Q1230.91 67.4314 1234.92 66.3781 Q1238.97 65.3249 1242.94 63.2184 L1242.94 70.267 Q1238.93 71.9684 1234.71 72.8596 Q1230.5 73.7508 1226.17 73.7508 Q1215.31 73.7508 1208.95 67.4314 Q1202.63 61.1119 1202.63 50.3365 Q1202.63 39.1965 1208.63 32.6746 Q1214.66 26.1121 1224.87 26.1121 Q1234.03 26.1121 1239.33 32.0264 Q1244.68 37.9003 1244.68 48.0275 M1237.23 45.84 Q1237.14 39.7232 1233.78 36.0774 Q1230.46 32.4315 1224.95 32.4315 Q1218.71 32.4315 1214.95 35.9558 Q1211.22 39.4801 1210.65 45.8805 L1237.23 45.84 Z" fill="#000000" fill-rule="evenodd" fill-opacity="1" /><path clip-path="url(#clip850)" d="M 0 0 M1278.79 34.1734 Q1277.53 33.4443 1276.03 33.1202 Q1274.58 32.7556 1272.79 32.7556 Q1266.47 32.7556 1263.07 36.8875 Q1259.71 40.9789 1259.71 48.6757 L1259.71 72.576 L1252.21 72.576 L1252.21 27.2059 L1259.71 27.2059 L1259.71 34.2544 Q1262.06 30.1225 1265.83 28.1376 Q1269.59 26.1121 1274.98 26.1121 Q1275.75 26.1121 1276.68 26.2337 Q1277.61 26.3147 1278.75 26.5172 L1278.79 34.1734 Z" fill="#000000" fill-rule="evenodd" fill-opacity="1" /><path clip-path="url(#clip850)" d="M 0 0 M1323.59 48.0275 L1323.59 51.6733 L1289.32 51.6733 Q1289.81 59.3701 1293.94 63.421 Q1298.11 67.4314 1305.52 67.4314 Q1309.82 67.4314 1313.83 66.3781 Q1317.88 65.3249 1321.85 63.2184 L1321.85 70.267 Q1317.84 71.9684 1313.63 72.8596 Q1309.41 73.7508 1305.08 73.7508 Q1294.22 73.7508 1287.86 67.4314 Q1281.54 61.1119 1281.54 50.3365 Q1281.54 39.1965 1287.54 32.6746 Q1293.57 26.1121 1303.78 26.1121 Q1312.94 26.1121 1318.24 32.0264 Q1323.59 37.9003 1323.59 48.0275 M1316.14 45.84 Q1316.06 39.7232 1312.69 36.0774 Q1309.37 32.4315 1303.86 32.4315 Q1297.62 32.4315 1293.86 35.9558 Q1290.13 39.4801 1289.56 45.8805 L1316.14 45.84 Z" fill="#000000" fill-rule="evenodd" fill-opacity="1" /><path clip-path="url(#clip850)" d="M 0 0 M1369.12 45.1919 L1369.12 72.576 L1361.67 72.576 L1361.67 45.4349 Q1361.67 38.994 1359.16 35.7938 Q1356.65 32.5936 1351.62 32.5936 Q1345.59 32.5936 1342.1 36.4419 Q1338.62 40.2903 1338.62 46.9338 L1338.62 72.576 L1331.13 72.576 L1331.13 27.2059 L1338.62 27.2059 L1338.62 34.2544 Q1341.29 30.163 1344.9 28.1376 Q1348.54 26.1121 1353.28 26.1121 Q1361.1 26.1121 1365.11 30.9732 Q1369.12 35.7938 1369.12 45.1919 Z" fill="#000000" fill-rule="evenodd" fill-opacity="1" /><path clip-path="url(#clip850)" d="M 0 0 M1409.59 28.9478 L1409.59 35.9153 Q1406.43 34.1734 1403.23 33.3227 Q1400.07 32.4315 1396.83 32.4315 Q1389.58 32.4315 1385.57 37.0496 Q1381.56 41.6271 1381.56 49.9314 Q1381.56 58.2358 1385.57 62.8538 Q1389.58 67.4314 1396.83 67.4314 Q1400.07 67.4314 1403.23 66.5807 Q1406.43 65.6895 1409.59 63.9476 L1409.59 70.8341 Q1406.47 72.2924 1403.11 73.0216 Q1399.79 73.7508 1396.02 73.7508 Q1385.77 73.7508 1379.74 67.3098 Q1373.7 60.8689 1373.7 49.9314 Q1373.7 38.832 1379.78 32.472 Q1385.89 26.1121 1396.51 26.1121 Q1399.95 26.1121 1403.23 26.8413 Q1406.51 27.5299 1409.59 28.9478 Z" fill="#000000" fill-rule="evenodd" fill-opacity="1" /><path clip-path="url(#clip850)" d="M 0 0 M1456.22 48.0275 L1456.22 51.6733 L1421.95 51.6733 Q1422.43 59.3701 1426.56 63.421 Q1430.74 67.4314 1438.15 67.4314 Q1442.44 67.4314 1446.45 66.3781 Q1450.51 65.3249 1454.48 63.2184 L1454.48 70.267 Q1450.47 71.9684 1446.25 72.8596 Q1442.04 73.7508 1437.7 73.7508 Q1426.85 73.7508 1420.49 67.4314 Q1414.17 61.1119 1414.17 50.3365 Q1414.17 39.1965 1420.16 32.6746 Q1426.2 26.1121 1436.41 26.1121 Q1445.56 26.1121 1450.87 32.0264 Q1456.22 37.9003 1456.22 48.0275 M1448.76 45.84 Q1448.68 39.7232 1445.32 36.0774 Q1442 32.4315 1436.49 32.4315 Q1430.25 32.4315 1426.48 35.9558 Q1422.76 39.4801 1422.19 45.8805 L1448.76 45.84 Z" fill="#000000" fill-rule="evenodd" fill-opacity="1" /><path clip-path="url(#clip850)" d="M 0 0 M1513.38 9.54393 L1513.38 15.7418 L1506.25 15.7418 Q1502.24 15.7418 1500.66 17.3622 Q1499.12 18.9825 1499.12 23.1955 L1499.12 27.2059 L1511.39 27.2059 L1511.39 32.9987 L1499.12 32.9987 L1499.12 72.576 L1491.62 72.576 L1491.62 32.9987 L1484.49 32.9987 L1484.49 27.2059 L1491.62 27.2059 L1491.62 24.0462 Q1491.62 16.471 1495.15 13.0277 Q1498.67 9.54393 1506.33 9.54393 L1513.38 9.54393 Z" fill="#000000" fill-rule="evenodd" fill-opacity="1" /><path clip-path="url(#clip850)" d="M 0 0 M1538.78 32.4315 Q1532.78 32.4315 1529.3 37.1306 Q1525.81 41.7891 1525.81 49.9314 Q1525.81 58.0738 1529.26 62.7728 Q1532.74 67.4314 1538.78 67.4314 Q1544.73 67.4314 1548.21 62.7323 Q1551.7 58.0333 1551.7 49.9314 Q1551.7 41.8701 1548.21 37.1711 Q1544.73 32.4315 1538.78 32.4315 M1538.78 26.1121 Q1548.5 26.1121 1554.05 32.4315 Q1559.6 38.7509 1559.6 49.9314 Q1559.6 61.0714 1554.05 67.4314 Q1548.5 73.7508 1538.78 73.7508 Q1529.01 73.7508 1523.46 67.4314 Q1517.95 61.0714 1517.95 49.9314 Q1517.95 38.7509 1523.46 32.4315 Q1529.01 26.1121 1538.78 26.1121 Z" fill="#000000" fill-rule="evenodd" fill-opacity="1" /><path clip-path="url(#clip850)" d="M 0 0 M1593.71 34.1734 Q1592.45 33.4443 1590.95 33.1202 Q1589.49 32.7556 1587.71 32.7556 Q1581.39 32.7556 1577.99 36.8875 Q1574.63 40.9789 1574.63 48.6757 L1574.63 72.576 L1567.13 72.576 L1567.13 27.2059 L1574.63 27.2059 L1574.63 34.2544 Q1576.98 30.1225 1580.74 28.1376 Q1584.51 26.1121 1589.9 26.1121 Q1590.67 26.1121 1591.6 26.2337 Q1592.53 26.3147 1593.66 26.5172 L1593.71 34.1734 Z" fill="#000000" fill-rule="evenodd" fill-opacity="1" /><path clip-path="url(#clip850)" d="M 0 0 M1656.82 28.5427 L1656.82 35.5912 Q1653.66 33.9709 1650.26 33.1607 Q1646.85 32.3505 1643.21 32.3505 Q1637.66 32.3505 1634.86 34.0519 Q1632.11 35.7533 1632.11 39.156 Q1632.11 41.7486 1634.09 43.2475 Q1636.08 44.7058 1642.07 46.0426 L1644.63 46.6097 Q1652.56 48.3111 1655.89 51.4303 Q1659.25 54.509 1659.25 60.0587 Q1659.25 66.3781 1654.23 70.0644 Q1649.24 73.7508 1640.49 73.7508 Q1636.85 73.7508 1632.88 73.0216 Q1628.95 72.3329 1624.57 70.9151 L1624.57 63.2184 Q1628.71 65.3654 1632.72 66.4591 Q1636.73 67.5124 1640.66 67.5124 Q1645.92 67.5124 1648.76 65.73 Q1651.59 63.9071 1651.59 60.6258 Q1651.59 57.5877 1649.53 55.9673 Q1647.5 54.3469 1640.57 52.8481 L1637.98 52.2405 Q1631.05 50.7821 1627.98 47.7845 Q1624.9 44.7463 1624.9 39.4801 Q1624.9 33.0797 1629.43 29.5959 Q1633.97 26.1121 1642.32 26.1121 Q1646.45 26.1121 1650.09 26.7198 Q1653.74 27.3274 1656.82 28.5427 Z" fill="#000000" fill-rule="evenodd" fill-opacity="1" /><path clip-path="url(#clip850)" d="M 0 0 M1671.52 49.9314 Q1671.52 58.1548 1674.89 62.8538 Q1678.29 67.5124 1684.2 67.5124 Q1690.12 67.5124 1693.52 62.8538 Q1696.92 58.1548 1696.92 49.9314 Q1696.92 41.7081 1693.52 37.0496 Q1690.12 32.3505 1684.2 32.3505 Q1678.29 32.3505 1674.89 37.0496 Q1671.52 41.7081 1671.52 49.9314 M1696.92 65.7705 Q1694.57 69.8214 1690.97 71.8063 Q1687.4 73.7508 1682.38 73.7508 Q1674.16 73.7508 1668.97 67.1883 Q1663.83 60.6258 1663.83 49.9314 Q1663.83 39.2371 1668.97 32.6746 Q1674.16 26.1121 1682.38 26.1121 Q1687.4 26.1121 1690.97 28.0971 Q1694.57 30.0415 1696.92 34.0924 L1696.92 27.2059 L1704.38 27.2059 L1704.38 89.8329 L1696.92 89.8329 L1696.92 65.7705 Z" fill="#000000" fill-rule="evenodd" fill-opacity="1" /><path clip-path="url(#clip850)" d="M 0 0 M1738.48 34.1734 Q1737.23 33.4443 1735.73 33.1202 Q1734.27 32.7556 1732.49 32.7556 Q1726.17 32.7556 1722.77 36.8875 Q1719.4 40.9789 1719.4 48.6757 L1719.4 72.576 L1711.91 72.576 L1711.91 27.2059 L1719.4 27.2059 L1719.4 34.2544 Q1721.75 30.1225 1725.52 28.1376 Q1729.29 26.1121 1734.68 26.1121 Q1735.45 26.1121 1736.38 26.2337 Q1737.31 26.3147 1738.44 26.5172 L1738.48 34.1734 Z" fill="#000000" fill-rule="evenodd" fill-opacity="1" /><path clip-path="url(#clip850)" d="M 0 0 M1753.68 14.324 L1753.68 27.2059 L1769.03 27.2059 L1769.03 32.9987 L1753.68 32.9987 L1753.68 57.6282 Q1753.68 63.1779 1755.17 64.7578 Q1756.71 66.3376 1761.37 66.3376 L1769.03 66.3376 L1769.03 72.576 L1761.37 72.576 Q1752.74 72.576 1749.46 69.3758 Q1746.18 66.1351 1746.18 57.6282 L1746.18 32.9987 L1740.71 32.9987 L1740.71 27.2059 L1746.18 27.2059 L1746.18 14.324 L1753.68 14.324 Z" fill="#000000" fill-rule="evenodd" fill-opacity="1" /><path clip-path="url(#clip850)" d="M 0 0 M1193.16 1525.81 L1193.16 1506.52 L1199.02 1506.52 L1199.02 1556.04 L1193.16 1556.04 L1193.16 1550.7 Q1191.32 1553.88 1188.49 1555.44 Q1185.69 1556.97 1181.74 1556.97 Q1175.28 1556.97 1171.2 1551.81 Q1167.16 1546.65 1167.16 1538.25 Q1167.16 1529.85 1171.2 1524.69 Q1175.28 1519.54 1181.74 1519.54 Q1185.69 1519.54 1188.49 1521.1 Q1191.32 1522.62 1193.16 1525.81 M1173.21 1538.25 Q1173.21 1544.71 1175.85 1548.4 Q1178.52 1552.07 1183.17 1552.07 Q1187.82 1552.07 1190.49 1548.4 Q1193.16 1544.71 1193.16 1538.25 Q1193.16 1531.79 1190.49 1528.13 Q1187.82 1524.44 1183.17 1524.44 Q1178.52 1524.44 1175.85 1528.13 Q1173.21 1531.79 1173.21 1538.25 Z" fill="#000000" fill-rule="evenodd" fill-opacity="1" /><path clip-path="url(#clip850)" d="M 0 0 M1235.66 1536.76 L1235.66 1539.62 L1208.73 1539.62 Q1209.11 1545.67 1212.36 1548.85 Q1215.64 1552 1221.46 1552 Q1224.83 1552 1227.99 1551.17 Q1231.17 1550.35 1234.29 1548.69 L1234.29 1554.23 Q1231.14 1555.57 1227.83 1556.27 Q1224.52 1556.97 1221.11 1556.97 Q1212.58 1556.97 1207.58 1552 Q1202.62 1547.04 1202.62 1538.57 Q1202.62 1529.82 1207.33 1524.69 Q1212.07 1519.54 1220.09 1519.54 Q1227.29 1519.54 1231.45 1524.18 Q1235.66 1528.8 1235.66 1536.76 M1229.8 1535.04 Q1229.74 1530.23 1227.09 1527.37 Q1224.48 1524.5 1220.16 1524.5 Q1215.25 1524.5 1212.29 1527.27 Q1209.37 1530.04 1208.92 1535.07 L1229.8 1535.04 Z" fill="#000000" fill-rule="evenodd" fill-opacity="1" /><path clip-path="url(#clip850)" d="M 0 0 M1267.45 1521.76 L1267.45 1527.24 Q1264.97 1525.87 1262.46 1525.2 Q1259.97 1524.5 1257.43 1524.5 Q1251.73 1524.5 1248.58 1528.13 Q1245.43 1531.73 1245.43 1538.25 Q1245.43 1544.78 1248.58 1548.4 Q1251.73 1552 1257.43 1552 Q1259.97 1552 1262.46 1551.33 Q1264.97 1550.63 1267.45 1549.26 L1267.45 1554.68 Q1265 1555.82 1262.36 1556.39 Q1259.75 1556.97 1256.79 1556.97 Q1248.74 1556.97 1244 1551.91 Q1239.25 1546.85 1239.25 1538.25 Q1239.25 1529.53 1244.03 1524.53 Q1248.83 1519.54 1257.17 1519.54 Q1259.88 1519.54 1262.46 1520.11 Q1265.03 1520.65 1267.45 1521.76 Z" fill="#000000" fill-rule="evenodd" fill-opacity="1" /><path clip-path="url(#clip850)" d="M 0 0 M1287.41 1524.5 Q1282.7 1524.5 1279.96 1528.19 Q1277.22 1531.85 1277.22 1538.25 Q1277.22 1544.65 1279.93 1548.34 Q1282.67 1552 1287.41 1552 Q1292.09 1552 1294.83 1548.31 Q1297.56 1544.62 1297.56 1538.25 Q1297.56 1531.92 1294.83 1528.23 Q1292.09 1524.5 1287.41 1524.5 M1287.41 1519.54 Q1295.05 1519.54 1299.41 1524.5 Q1303.77 1529.47 1303.77 1538.25 Q1303.77 1547 1299.41 1552 Q1295.05 1556.97 1287.41 1556.97 Q1279.74 1556.97 1275.38 1552 Q1271.05 1547 1271.05 1538.25 Q1271.05 1529.47 1275.38 1524.5 Q1279.74 1519.54 1287.41 1519.54 Z" fill="#000000" fill-rule="evenodd" fill-opacity="1" /><path clip-path="url(#clip850)" d="M 0 0 M1333.37 1525.81 L1333.37 1506.52 L1339.23 1506.52 L1339.23 1556.04 L1333.37 1556.04 L1333.37 1550.7 Q1331.52 1553.88 1328.69 1555.44 Q1325.89 1556.97 1321.94 1556.97 Q1315.48 1556.97 1311.41 1551.81 Q1307.37 1546.65 1307.37 1538.25 Q1307.37 1529.85 1311.41 1524.69 Q1315.48 1519.54 1321.94 1519.54 Q1325.89 1519.54 1328.69 1521.1 Q1331.52 1522.62 1333.37 1525.81 M1313.41 1538.25 Q1313.41 1544.71 1316.05 1548.4 Q1318.73 1552.07 1323.38 1552.07 Q1328.02 1552.07 1330.7 1548.4 Q1333.37 1544.71 1333.37 1538.25 Q1333.37 1531.79 1330.7 1528.13 Q1328.02 1524.44 1323.38 1524.44 Q1318.73 1524.44 1316.05 1528.13 Q1313.41 1531.79 1313.41 1538.25 Z" fill="#000000" fill-rule="evenodd" fill-opacity="1" /><path clip-path="url(#clip850)" d="M 0 0 M1375.86 1536.76 L1375.86 1539.62 L1348.93 1539.62 Q1349.32 1545.67 1352.56 1548.85 Q1355.84 1552 1361.67 1552 Q1365.04 1552 1368.19 1551.17 Q1371.37 1550.35 1374.49 1548.69 L1374.49 1554.23 Q1371.34 1555.57 1368.03 1556.27 Q1364.72 1556.97 1361.32 1556.97 Q1352.78 1556.97 1347.79 1552 Q1342.82 1547.04 1342.82 1538.57 Q1342.82 1529.82 1347.53 1524.69 Q1352.28 1519.54 1360.3 1519.54 Q1367.49 1519.54 1371.66 1524.18 Q1375.86 1528.8 1375.86 1536.76 M1370 1535.04 Q1369.94 1530.23 1367.3 1527.37 Q1364.69 1524.5 1360.36 1524.5 Q1355.46 1524.5 1352.5 1527.27 Q1349.57 1530.04 1349.12 1535.07 L1370 1535.04 Z" fill="#000000" fill-rule="evenodd" fill-opacity="1" /><path clip-path="url(#clip850)" d="M 0 0 M1405.46 1525.81 L1405.46 1506.52 L1411.32 1506.52 L1411.32 1556.04 L1405.46 1556.04 L1405.46 1550.7 Q1403.62 1553.88 1400.78 1555.44 Q1397.98 1556.97 1394.03 1556.97 Q1387.57 1556.97 1383.5 1551.81 Q1379.46 1546.65 1379.46 1538.25 Q1379.46 1529.85 1383.5 1524.69 Q1387.57 1519.54 1394.03 1519.54 Q1397.98 1519.54 1400.78 1521.1 Q1403.62 1522.62 1405.46 1525.81 M1385.5 1538.25 Q1385.5 1544.71 1388.15 1548.4 Q1390.82 1552.07 1395.47 1552.07 Q1400.11 1552.07 1402.79 1548.4 Q1405.46 1544.71 1405.46 1538.25 Q1405.46 1531.79 1402.79 1528.13 Q1400.11 1524.44 1395.47 1524.44 Q1390.82 1524.44 1388.15 1528.13 Q1385.5 1531.79 1385.5 1538.25 Z" fill="#000000" fill-rule="evenodd" fill-opacity="1" /><path clip-path="url(#clip850)" d="M 0 0 M68.7161 862.525 L71.5806 862.525 L71.5806 889.452 Q77.6281 889.07 80.8109 885.824 Q83.9619 882.546 83.9619 876.721 Q83.9619 873.347 83.1344 870.196 Q82.3069 867.013 80.6518 863.894 L86.1899 863.894 Q87.5267 867.045 88.227 870.355 Q88.9272 873.665 88.9272 877.071 Q88.9272 885.601 83.9619 890.598 Q78.9967 895.563 70.5303 895.563 Q61.7774 895.563 56.6531 890.853 Q51.4968 886.11 51.4968 878.09 Q51.4968 870.896 56.1438 866.727 Q60.7589 862.525 68.7161 862.525 M66.9973 868.382 Q62.1912 868.446 59.3266 871.087 Q56.4621 873.697 56.4621 878.026 Q56.4621 882.928 59.2312 885.888 Q62.0002 888.816 67.0292 889.261 L66.9973 868.382 Z" fill="#000000" fill-rule="evenodd" fill-opacity="1" /><path clip-path="url(#clip850)" d="M 0 0 M66.4881 826.75 L88.0042 826.75 L88.0042 832.607 L66.679 832.607 Q61.6183 832.607 59.1038 834.58 Q56.5894 836.553 56.5894 840.5 Q56.5894 845.243 59.6131 847.98 Q62.6368 850.717 67.8567 850.717 L88.0042 850.717 L88.0042 856.605 L52.3562 856.605 L52.3562 850.717 L57.8944 850.717 Q54.6797 848.616 53.0883 845.784 Q51.4968 842.919 51.4968 839.195 Q51.4968 833.052 55.3163 829.901 Q59.1038 826.75 66.4881 826.75 Z" fill="#000000" fill-rule="evenodd" fill-opacity="1" /><path clip-path="url(#clip850)" d="M 0 0 M53.7248 794.953 L59.1993 794.953 Q57.8307 797.436 57.1623 799.951 Q56.4621 802.433 56.4621 804.979 Q56.4621 810.677 60.0905 813.828 Q63.6872 816.979 70.212 816.979 Q76.7369 816.979 80.3653 813.828 Q83.9619 810.677 83.9619 804.979 Q83.9619 802.433 83.2935 799.951 Q82.5933 797.436 81.2247 794.953 L86.6355 794.953 Q87.7814 797.404 88.3543 800.046 Q88.9272 802.656 88.9272 805.616 Q88.9272 813.669 83.8664 818.411 Q78.8057 823.154 70.212 823.154 Q61.491 823.154 56.4939 818.379 Q51.4968 813.573 51.4968 805.234 Q51.4968 802.529 52.0697 799.951 Q52.6108 797.372 53.7248 794.953 Z" fill="#000000" fill-rule="evenodd" fill-opacity="1" /><path clip-path="url(#clip850)" d="M 0 0 M56.4621 774.997 Q56.4621 779.708 60.1542 782.445 Q63.8145 785.182 70.212 785.182 Q76.6095 785.182 80.3017 782.477 Q83.9619 779.739 83.9619 774.997 Q83.9619 770.318 80.2698 767.581 Q76.5777 764.844 70.212 764.844 Q63.8781 764.844 60.186 767.581 Q56.4621 770.318 56.4621 774.997 M51.4968 774.997 Q51.4968 767.358 56.4621 762.998 Q61.4273 758.637 70.212 758.637 Q78.9649 758.637 83.9619 762.998 Q88.9272 767.358 88.9272 774.997 Q88.9272 782.668 83.9619 787.028 Q78.9649 791.357 70.212 791.357 Q61.4273 791.357 56.4621 787.028 Q51.4968 782.668 51.4968 774.997 Z" fill="#000000" fill-rule="evenodd" fill-opacity="1" /><path clip-path="url(#clip850)" d="M 0 0 M57.7671 729.037 L38.479 729.037 L38.479 723.18 L88.0042 723.18 L88.0042 729.037 L82.657 729.037 Q85.8398 730.883 87.3994 733.715 Q88.9272 736.516 88.9272 740.463 Q88.9272 746.924 83.771 750.998 Q78.6147 755.04 70.212 755.04 Q61.8093 755.04 56.6531 750.998 Q51.4968 746.924 51.4968 740.463 Q51.4968 736.516 53.0564 733.715 Q54.5842 730.883 57.7671 729.037 M70.212 748.993 Q76.6732 748.993 80.3653 746.351 Q84.0256 743.678 84.0256 739.031 Q84.0256 734.384 80.3653 731.71 Q76.6732 729.037 70.212 729.037 Q63.7508 729.037 60.0905 731.71 Q56.3984 734.384 56.3984 739.031 Q56.3984 743.678 60.0905 746.351 Q63.7508 748.993 70.212 748.993 Z" fill="#000000" fill-rule="evenodd" fill-opacity="1" /><path clip-path="url(#clip850)" d="M 0 0 M68.7161 686.545 L71.5806 686.545 L71.5806 713.472 Q77.6281 713.09 80.8109 709.844 Q83.9619 706.566 83.9619 700.741 Q83.9619 697.367 83.1344 694.216 Q82.3069 691.033 80.6518 687.914 L86.1899 687.914 Q87.5267 691.065 88.227 694.375 Q88.9272 697.685 88.9272 701.091 Q88.9272 709.621 83.9619 714.618 Q78.9967 719.584 70.5303 719.584 Q61.7774 719.584 56.6531 714.873 Q51.4968 710.13 51.4968 702.11 Q51.4968 694.916 56.1438 690.747 Q60.7589 686.545 68.7161 686.545 M66.9973 692.402 Q62.1912 692.466 59.3266 695.107 Q56.4621 697.717 56.4621 702.046 Q56.4621 706.948 59.2312 709.908 Q62.0002 712.836 67.0292 713.281 L66.9973 692.402 Z" fill="#000000" fill-rule="evenodd" fill-opacity="1" /><path clip-path="url(#clip850)" d="M 0 0 M57.7671 656.945 L38.479 656.945 L38.479 651.089 L88.0042 651.089 L88.0042 656.945 L82.657 656.945 Q85.8398 658.791 87.3994 661.624 Q88.9272 664.425 88.9272 668.371 Q88.9272 674.833 83.771 678.907 Q78.6147 682.949 70.212 682.949 Q61.8093 682.949 56.6531 678.907 Q51.4968 674.833 51.4968 668.371 Q51.4968 664.425 53.0564 661.624 Q54.5842 658.791 57.7671 656.945 M70.212 676.901 Q76.6732 676.901 80.3653 674.26 Q84.0256 671.586 84.0256 666.939 Q84.0256 662.292 80.3653 659.619 Q76.6732 656.945 70.212 656.945 Q63.7508 656.945 60.0905 659.619 Q56.3984 662.292 56.3984 666.939 Q56.3984 671.586 60.0905 674.26 Q63.7508 676.901 70.212 676.901 Z" fill="#000000" fill-rule="evenodd" fill-opacity="1" /><polyline clip-path="url(#clip852)" style="stroke:#009af9; stroke-width:4; stroke-opacity:1; fill:none" points="
  285.922,773.326 287.928,773.326 289.935,1386.4 291.942,773.326 293.948,773.326 295.955,1386.4 297.962,773.326 299.968,773.326 301.975,773.326 303.981,1386.4 
  305.988,773.326 307.995,773.326 310.001,773.326 312.008,773.326 314.015,773.326 316.021,773.326 318.028,773.326 320.035,773.326 322.041,773.326 324.048,773.326 
  326.054,773.326 328.061,773.326 330.068,773.326 332.074,773.326 334.081,773.326 336.088,773.326 338.094,773.326 340.101,773.326 342.108,773.326 344.114,1386.4 
  346.121,773.326 348.127,773.326 350.134,773.326 352.141,773.326 354.147,773.326 356.154,773.326 358.161,160.256 360.167,773.326 362.174,773.326 364.181,773.326 
  366.187,160.256 368.194,773.326 370.2,1386.4 372.207,773.326 374.214,773.326 376.22,773.326 378.227,1386.4 380.234,773.326 382.24,773.326 384.247,773.326 
  386.254,773.326 388.26,1386.4 390.267,773.326 392.273,773.326 394.28,773.326 396.287,773.326 398.293,773.326 400.3,1386.4 402.307,773.326 404.313,773.326 
  406.32,773.326 408.327,773.326 410.333,773.326 412.34,773.326 414.346,773.326 416.353,773.326 418.36,1386.4 420.366,773.326 422.373,773.326 424.38,160.256 
  426.386,773.326 428.393,773.326 430.399,773.326 432.406,773.326 434.413,773.326 436.419,773.326 438.426,773.326 440.433,773.326 442.439,773.326 444.446,160.256 
  446.453,773.326 448.459,773.326 450.466,773.326 452.472,773.326 454.479,773.326 456.486,160.256 458.492,773.326 460.499,773.326 462.506,773.326 464.512,773.326 
  466.519,773.326 468.526,773.326 470.532,1386.4 472.539,773.326 474.545,773.326 476.552,773.326 478.559,160.256 480.565,773.326 482.572,773.326 484.579,773.326 
  486.585,773.326 488.592,160.256 490.599,773.326 492.605,773.326 494.612,773.326 496.618,773.326 498.625,773.326 500.632,773.326 502.638,773.326 504.645,1386.4 
  506.652,773.326 508.658,773.326 510.665,773.326 512.672,160.256 514.678,773.326 516.685,773.326 518.691,1386.4 520.698,773.326 522.705,160.256 524.711,773.326 
  526.718,773.326 528.725,1386.4 530.731,773.326 532.738,773.326 534.745,773.326 536.751,773.326 538.758,773.326 540.764,1386.4 542.771,773.326 544.778,773.326 
  546.784,773.326 548.791,160.256 550.798,773.326 552.804,773.326 554.811,773.326 556.818,773.326 558.824,773.326 560.831,160.256 562.837,773.326 564.844,773.326 
  566.851,1386.4 568.857,773.326 570.864,773.326 572.871,773.326 574.877,773.326 576.884,773.326 578.89,1386.4 580.897,773.326 582.904,773.326 584.91,773.326 
  586.917,773.326 588.924,773.326 590.93,1386.4 592.937,773.326 594.944,773.326 596.95,773.326 598.957,773.326 600.963,160.256 602.97,773.326 604.977,773.326 
  606.983,773.326 608.99,773.326 610.997,773.326 613.003,160.256 615.01,773.326 617.017,773.326 619.023,773.326 621.03,773.326 623.036,773.326 625.043,773.326 
  627.05,773.326 629.056,773.326 631.063,773.326 633.07,773.326 635.076,773.326 637.083,773.326 639.09,160.256 641.096,773.326 643.103,773.326 645.109,773.326 
  647.116,1386.4 649.123,773.326 651.129,773.326 653.136,773.326 655.143,773.326 657.149,773.326 659.156,773.326 661.163,773.326 663.169,773.326 665.176,160.256 
  667.182,773.326 669.189,773.326 671.196,773.326 673.202,1386.4 675.209,773.326 677.216,773.326 679.222,160.256 681.229,773.326 683.236,773.326 685.242,773.326 
  687.249,1386.4 689.255,773.326 691.262,773.326 693.269,160.256 695.275,773.326 697.282,773.326 699.289,773.326 701.295,1386.4 703.302,773.326 705.309,773.326 
  707.315,160.256 709.322,773.326 711.328,773.326 713.335,773.326 715.342,773.326 717.348,773.326 719.355,773.326 721.362,773.326 723.368,773.326 725.375,773.326 
  727.381,773.326 729.388,773.326 731.395,1386.4 733.401,773.326 735.408,773.326 737.415,160.256 739.421,773.326 741.428,773.326 743.435,773.326 745.441,1386.4 
  747.448,773.326 749.454,773.326 751.461,773.326 753.468,773.326 755.474,773.326 757.481,773.326 759.488,773.326 761.494,1386.4 763.501,773.326 765.508,773.326 
  767.514,160.256 769.521,773.326 771.527,773.326 773.534,773.326 775.541,773.326 777.547,773.326 779.554,773.326 781.561,773.326 783.567,160.256 785.574,773.326 
  787.581,773.326 789.587,773.326 791.594,773.326 793.6,773.326 795.607,773.326 797.614,773.326 799.62,160.256 801.627,773.326 803.634,773.326 805.64,773.326 
  807.647,773.326 809.654,773.326 811.66,773.326 813.667,773.326 815.673,160.256 817.68,773.326 819.687,773.326 821.693,773.326 823.7,773.326 825.707,773.326 
  827.713,773.326 829.72,773.326 831.727,160.256 833.733,773.326 835.74,773.326 837.746,773.326 839.753,773.326 841.76,773.326 843.766,773.326 845.773,773.326 
  847.78,773.326 849.786,773.326 851.793,1386.4 853.799,773.326 855.806,773.326 857.813,773.326 859.819,773.326 861.826,773.326 863.833,773.326 865.839,773.326 
  867.846,1386.4 869.853,773.326 871.859,773.326 873.866,773.326 875.872,773.326 877.879,773.326 879.886,773.326 881.892,773.326 883.899,773.326 885.906,1386.4 
  887.912,773.326 889.919,773.326 891.926,773.326 893.932,773.326 895.939,773.326 897.945,773.326 899.952,773.326 901.959,773.326 903.965,773.326 905.972,773.326 
  907.979,773.326 909.985,160.256 911.992,773.326 913.999,773.326 916.005,773.326 918.012,773.326 920.018,773.326 922.025,773.326 924.032,773.326 926.038,773.326 
  928.045,160.256 930.052,773.326 932.058,773.326 934.065,773.326 936.072,773.326 938.078,773.326 940.085,773.326 942.091,773.326 944.098,773.326 946.105,773.326 
  948.111,773.326 950.118,1386.4 952.125,773.326 954.131,773.326 956.138,773.326 958.145,773.326 960.151,773.326 962.158,773.326 964.164,773.326 966.171,773.326 
  968.178,1386.4 970.184,773.326 972.191,773.326 974.198,773.326 976.204,160.256 978.211,773.326 980.218,773.326 982.224,773.326 984.231,773.326 986.237,773.326 
  988.244,773.326 990.251,773.326 992.257,773.326 994.264,160.256 996.271,773.326 998.277,773.326 1000.28,773.326 1002.29,773.326 1004.3,773.326 1006.3,1386.4 
  1008.31,773.326 1010.32,773.326 1012.32,773.326 1014.33,773.326 1016.34,1386.4 1018.34,1386.4 1020.35,773.326 1022.36,773.326 1024.36,773.326 1026.37,773.326 
  1028.38,773.326 1030.38,773.326 1032.39,773.326 1034.4,773.326 1036.4,1386.4 1038.41,773.326 1040.42,773.326 1042.42,773.326 1044.43,773.326 1046.44,773.326 
  1048.44,773.326 1050.45,773.326 1052.46,773.326 1054.46,773.326 1056.47,1386.4 1058.48,773.326 1060.48,773.326 1062.49,773.326 1064.5,160.256 1066.5,773.326 
  1068.51,773.326 1070.52,773.326 1072.52,773.326 1074.53,773.326 1076.54,773.326 1078.54,773.326 1080.55,773.326 1082.56,773.326 1084.56,773.326 1086.57,773.326 
  1088.58,1386.4 1090.58,773.326 1092.59,773.326 1094.6,773.326 1096.6,773.326 1098.61,773.326 1100.62,773.326 1102.62,773.326 1104.63,773.326 1106.64,773.326 
  1108.64,1386.4 1110.65,773.326 1112.66,773.326 1114.66,773.326 1116.67,773.326 1118.68,160.256 1120.68,773.326 1122.69,773.326 1124.7,773.326 1126.7,773.326 
  1128.71,773.326 1130.72,773.326 1132.72,773.326 1134.73,773.326 1136.74,773.326 1138.74,160.256 1140.75,773.326 1142.75,773.326 1144.76,773.326 1146.77,773.326 
  1148.77,773.326 1150.78,773.326 1152.79,773.326 1154.79,773.326 1156.8,773.326 1158.81,773.326 1160.81,773.326 1162.82,1386.4 1164.83,1386.4 1166.83,773.326 
  1168.84,773.326 1170.85,773.326 1172.85,160.256 1174.86,773.326 1176.87,773.326 1178.87,773.326 1180.88,773.326 1182.89,773.326 1184.89,1386.4 1186.9,773.326 
  1188.91,773.326 1190.91,773.326 1192.92,773.326 1194.93,160.256 1196.93,773.326 1198.94,773.326 1200.95,773.326 1202.95,773.326 1204.96,773.326 1206.97,773.326 
  1208.97,773.326 1210.98,773.326 1212.99,773.326 1214.99,773.326 1217,773.326 1219.01,1386.4 1221.01,1386.4 1223.02,773.326 1225.03,773.326 1227.03,773.326 
  1229.04,160.256 1231.05,773.326 1233.05,773.326 1235.06,773.326 1237.07,773.326 1239.07,773.326 1241.08,773.326 1243.09,773.326 1245.09,773.326 1247.1,773.326 
  1249.11,773.326 1251.11,160.256 1253.12,160.256 1255.13,773.326 1257.13,773.326 1259.14,773.326 1261.15,773.326 1263.15,773.326 1265.16,160.256 1267.17,773.326 
  1269.17,773.326 1271.18,773.326 1273.19,773.326 1275.19,773.326 1277.2,1386.4 1279.21,1386.4 1281.21,773.326 1283.22,773.326 1285.23,773.326 1287.23,160.256 
  1289.24,773.326 1291.25,773.326 1293.25,773.326 1295.26,773.326 1297.27,773.326 1299.27,773.326 1301.28,1386.4 1303.29,773.326 1305.29,773.326 1307.3,773.326 
  1309.31,773.326 1311.31,773.326 1313.32,1386.4 1315.33,1386.4 1317.33,773.326 1319.34,773.326 1321.35,773.326 1323.35,773.326 1325.36,773.326 1327.37,773.326 
  1329.37,773.326 1331.38,773.326 1333.39,773.326 1335.39,773.326 1337.4,773.326 1339.41,773.326 1341.41,773.326 1343.42,773.326 1345.43,773.326 1347.43,160.256 
  1349.44,160.256 1351.44,773.326 1353.45,773.326 1355.46,773.326 1357.46,773.326 1359.47,773.326 1361.48,773.326 1363.48,773.326 1365.49,773.326 1367.5,773.326 
  1369.5,773.326 1371.51,773.326 1373.52,773.326 1375.52,1386.4 1377.53,1386.4 1379.54,773.326 1381.54,773.326 1383.55,773.326 1385.56,160.256 1387.56,773.326 
  1389.57,773.326 1391.58,773.326 1393.58,773.326 1395.59,773.326 1397.6,773.326 1399.6,773.326 1401.61,773.326 1403.62,773.326 1405.62,773.326 1407.63,773.326 
  1409.64,773.326 1411.64,773.326 1413.65,1386.4 1415.66,1386.4 1417.66,773.326 1419.67,773.326 1421.68,773.326 1423.68,773.326 1425.69,773.326 1427.7,773.326 
  1429.7,773.326 1431.71,773.326 1433.72,773.326 1435.72,773.326 1437.73,773.326 1439.74,1386.4 1441.74,773.326 1443.75,773.326 1445.76,773.326 1447.76,773.326 
  1449.77,160.256 1451.78,773.326 1453.78,773.326 1455.79,773.326 1457.8,773.326 1459.8,773.326 1461.81,773.326 1463.82,773.326 1465.82,773.326 1467.83,773.326 
  1469.84,773.326 1471.84,773.326 1473.85,773.326 1475.86,773.326 1477.86,1386.4 1479.87,1386.4 1481.88,773.326 1483.88,773.326 1485.89,773.326 1487.9,773.326 
  1489.9,160.256 1491.91,773.326 1493.92,773.326 1495.92,773.326 1497.93,773.326 1499.94,773.326 1501.94,773.326 1503.95,773.326 1505.96,773.326 1507.96,773.326 
  1509.97,773.326 1511.98,773.326 1513.98,773.326 1515.99,773.326 1518,1386.4 1520,1386.4 1522.01,773.326 1524.02,773.326 1526.02,773.326 1528.03,773.326 
  1530.04,160.256 1532.04,773.326 1534.05,773.326 1536.06,773.326 1538.06,773.326 1540.07,773.326 1542.08,773.326 1544.08,773.326 1546.09,773.326 1548.1,773.326 
  1550.1,773.326 1552.11,773.326 1554.12,773.326 1556.12,773.326 1558.13,773.326 1560.14,1386.4 1562.14,1386.4 1564.15,773.326 1566.15,773.326 1568.16,773.326 
  1570.17,773.326 1572.17,160.256 1574.18,773.326 1576.19,773.326 1578.19,773.326 1580.2,773.326 1582.21,773.326 1584.21,773.326 1586.22,1386.4 1588.23,773.326 
  1590.23,773.326 1592.24,773.326 1594.25,773.326 1596.25,773.326 1598.26,160.256 1600.27,773.326 1602.27,773.326 1604.28,773.326 1606.29,773.326 1608.29,773.326 
  1610.3,773.326 1612.31,773.326 1614.31,773.326 1616.32,773.326 1618.33,773.326 1620.33,773.326 1622.34,773.326 1624.35,773.326 1626.35,773.326 1628.36,1386.4 
  1630.37,1386.4 1632.37,773.326 1634.38,773.326 1636.39,773.326 1638.39,773.326 1640.4,160.256 1642.41,773.326 1644.41,773.326 1646.42,773.326 1648.43,773.326 
  1650.43,773.326 1652.44,773.326 1654.45,773.326 1656.45,160.256 1658.46,773.326 1660.47,773.326 1662.47,773.326 1664.48,773.326 1666.49,773.326 1668.49,773.326 
  1670.5,773.326 1672.51,1386.4 1674.51,773.326 1676.52,773.326 1678.53,773.326 1680.53,773.326 1682.54,160.256 1684.55,160.256 1686.55,773.326 1688.56,773.326 
  1690.57,773.326 1692.57,773.326 1694.58,773.326 1696.59,773.326 1698.59,773.326 1700.6,773.326 1702.61,773.326 1704.61,773.326 1706.62,773.326 1708.63,773.326 
  1710.63,773.326 1712.64,773.326 1714.65,773.326 1716.65,1386.4 1718.66,773.326 1720.67,773.326 1722.67,773.326 1724.68,773.326 1726.69,160.256 1728.69,160.256 
  1730.7,773.326 1732.71,773.326 1734.71,773.326 1736.72,773.326 1738.73,773.326 1740.73,773.326 1742.74,773.326 1744.75,773.326 1746.75,773.326 1748.76,773.326 
  1750.77,773.326 1752.77,773.326 1754.78,773.326 1756.79,773.326 1758.79,773.326 1760.8,1386.4 1762.81,773.326 1764.81,773.326 1766.82,773.326 1768.83,773.326 
  1770.83,773.326 1772.84,160.256 1774.85,773.326 1776.85,773.326 1778.86,773.326 1780.86,773.326 1782.87,773.326 1784.88,773.326 1786.88,773.326 1788.89,773.326 
  1790.9,773.326 1792.9,773.326 1794.91,773.326 1796.92,773.326 1798.92,773.326 1800.93,773.326 1802.94,773.326 1804.94,1386.4 1806.95,1386.4 1808.96,773.326 
  1810.96,773.326 1812.97,773.326 1814.98,773.326 1816.98,160.256 1818.99,160.256 1821,773.326 1823,773.326 1825.01,773.326 1827.02,773.326 1829.02,773.326 
  1831.03,773.326 1833.04,773.326 1835.04,773.326 1837.05,773.326 1839.06,773.326 1841.06,773.326 1843.07,773.326 1845.08,773.326 1847.08,773.326 1849.09,773.326 
  1851.1,1386.4 1853.1,1386.4 1855.11,773.326 1857.12,773.326 1859.12,773.326 1861.13,773.326 1863.14,160.256 1865.14,160.256 1867.15,773.326 1869.16,773.326 
  1871.16,773.326 1873.17,773.326 1875.18,773.326 1877.18,773.326 1879.19,773.326 1881.2,773.326 1883.2,773.326 1885.21,773.326 1887.22,773.326 1889.22,773.326 
  1891.23,773.326 1893.24,773.326 1895.24,773.326 1897.25,773.326 1899.26,1386.4 1901.26,773.326 1903.27,773.326 1905.28,773.326 1907.28,773.326 1909.29,773.326 
  1911.3,160.256 1913.3,773.326 1915.31,773.326 1917.32,773.326 1919.32,773.326 1921.33,773.326 1923.34,773.326 1925.34,773.326 1927.35,773.326 1929.36,773.326 
  1931.36,773.326 1933.37,773.326 1935.38,773.326 1937.38,773.326 1939.39,773.326 1941.4,773.326 1943.4,773.326 1945.41,1386.4 1947.42,773.326 1949.42,773.326 
  1951.43,773.326 1953.44,773.326 1955.44,773.326 1957.45,160.256 1959.46,160.256 1961.46,773.326 1963.47,773.326 1965.48,773.326 1967.48,773.326 1969.49,773.326 
  1971.5,773.326 1973.5,773.326 1975.51,773.326 1977.52,773.326 1979.52,773.326 1981.53,773.326 1983.54,773.326 1985.54,773.326 1987.55,773.326 1989.55,773.326 
  1991.56,773.326 1993.57,1386.4 1995.57,773.326 1997.58,773.326 1999.59,773.326 2001.59,773.326 2003.6,773.326 2005.61,160.256 2007.61,160.256 2009.62,160.256 
  2011.63,773.326 2013.63,773.326 2015.64,773.326 2017.65,773.326 2019.65,773.326 2021.66,773.326 2023.67,773.326 2025.67,160.256 2027.68,773.326 2029.69,773.326 
  2031.69,773.326 2033.7,773.326 2035.71,773.326 2037.71,773.326 2039.72,773.326 2041.73,773.326 2043.73,1386.4 2045.74,773.326 2047.75,773.326 2049.75,773.326 
  2051.76,773.326 2053.77,773.326 2055.77,773.326 2057.78,773.326 2059.79,1386.4 2061.79,1386.4 2063.8,773.326 2065.81,773.326 2067.81,773.326 2069.82,773.326 
  2071.83,773.326 2073.83,160.256 2075.84,160.256 2077.85,773.326 2079.85,773.326 2081.86,773.326 2083.87,773.326 2085.87,773.326 2087.88,773.326 2089.89,773.326 
  2091.89,773.326 2093.9,773.326 2095.91,773.326 2097.91,773.326 2099.92,773.326 2101.93,773.326 2103.93,773.326 2105.94,773.326 2107.95,773.326 2109.95,1386.4 
  2111.96,1386.4 2113.97,773.326 2115.97,773.326 2117.98,773.326 2119.99,773.326 2121.99,773.326 2124,160.256 2126.01,160.256 2128.01,773.326 2130.02,773.326 
  2132.03,773.326 2134.03,773.326 2136.04,773.326 2138.05,773.326 2140.05,773.326 2142.06,773.326 2144.07,773.326 2146.07,773.326 2148.08,773.326 2150.09,773.326 
  2152.09,773.326 2154.1,773.326 2156.11,773.326 2158.11,773.326 2160.12,773.326 2162.13,1386.4 2164.13,773.326 2166.14,773.326 2168.15,773.326 2170.15,773.326 
  2172.16,773.326 2174.17,160.256 2176.17,160.256 2178.18,773.326 2180.19,773.326 2182.19,773.326 2184.2,773.326 2186.21,773.326 2188.21,773.326 2190.22,773.326 
  2192.23,773.326 2194.23,773.326 2196.24,773.326 2198.25,773.326 2200.25,773.326 2202.26,773.326 2204.26,773.326 2206.27,773.326 2208.28,773.326 2210.28,773.326 
  2212.29,773.326 2214.3,1386.4 2216.3,773.326 2218.31,773.326 2220.32,773.326 2222.32,773.326 2224.33,773.326 2226.34,773.326 2228.34,773.326 2230.35,773.326 
  2232.36,1386.4 2234.36,1386.4 2236.37,773.326 2238.38,773.326 2240.38,773.326 2242.39,773.326 2244.4,773.326 2246.4,160.256 2248.41,773.326 2250.42,773.326 
  2252.42,773.326 2254.43,773.326 2256.44,773.326 2258.44,773.326 2260.45,773.326 2262.46,773.326 2264.46,773.326 2266.47,773.326 2268.48,773.326 2270.48,773.326 
  2272.49,773.326 2274.5,773.326 2276.5,773.326 2278.51,773.326 2280.52,773.326 2282.52,773.326 2284.53,1386.4 2286.54,1386.4 2288.54,773.326 2290.55,773.326 
  2292.56,773.326 
  "/>
<path clip-path="url(#clip850)" d="
M1723.46 1379.86 L2281.85 1379.86 L2281.85 1258.9 L1723.46 1258.9  Z
  " fill="#ffffff" fill-rule="evenodd" fill-opacity="1"/>
<polyline clip-path="url(#clip850)" style="stroke:#000000; stroke-width:4; stroke-opacity:1; fill:none" points="
  1723.46,1379.86 2281.85,1379.86 2281.85,1258.9 1723.46,1258.9 1723.46,1379.86 
  "/>
<polyline clip-path="url(#clip850)" style="stroke:#009af9; stroke-width:4; stroke-opacity:1; fill:none" points="
  1747.09,1319.38 1888.9,1319.38 
  "/>
<path clip-path="url(#clip850)" d="M 0 0 M1930.95 1311.49 L1930.95 1315.52 Q1929.15 1314.6 1927.2 1314.13 Q1925.26 1313.67 1923.18 1313.67 Q1920.01 1313.67 1918.41 1314.64 Q1916.83 1315.61 1916.83 1317.56 Q1916.83 1319.04 1917.97 1319.9 Q1919.1 1320.73 1922.53 1321.49 L1923.99 1321.82 Q1928.52 1322.79 1930.42 1324.57 Q1932.34 1326.33 1932.34 1329.5 Q1932.34 1333.11 1929.47 1335.22 Q1926.63 1337.33 1921.63 1337.33 Q1919.54 1337.33 1917.27 1336.91 Q1915.03 1336.52 1912.53 1335.71 L1912.53 1331.31 Q1914.89 1332.54 1917.18 1333.16 Q1919.47 1333.76 1921.72 1333.76 Q1924.73 1333.76 1926.35 1332.74 Q1927.97 1331.7 1927.97 1329.83 Q1927.97 1328.09 1926.79 1327.17 Q1925.63 1326.24 1921.67 1325.38 L1920.19 1325.04 Q1916.23 1324.2 1914.47 1322.49 Q1912.71 1320.75 1912.71 1317.74 Q1912.71 1314.09 1915.31 1312.1 Q1917.9 1310.11 1922.67 1310.11 Q1925.03 1310.11 1927.11 1310.45 Q1929.2 1310.8 1930.95 1311.49 Z" fill="#000000" fill-rule="evenodd" fill-opacity="1" /><path clip-path="url(#clip850)" d="M 0 0 M1941.02 1303.37 L1941.02 1310.73 L1949.8 1310.73 L1949.8 1314.04 L1941.02 1314.04 L1941.02 1328.11 Q1941.02 1331.29 1941.88 1332.19 Q1942.76 1333.09 1945.42 1333.09 L1949.8 1333.09 L1949.8 1336.66 L1945.42 1336.66 Q1940.49 1336.66 1938.62 1334.83 Q1936.74 1332.98 1936.74 1328.11 L1936.74 1314.04 L1933.62 1314.04 L1933.62 1310.73 L1936.74 1310.73 L1936.74 1303.37 L1941.02 1303.37 Z" fill="#000000" fill-rule="evenodd" fill-opacity="1" /><path clip-path="url(#clip850)" d="M 0 0 M1969.29 1314.71 Q1968.57 1314.3 1967.71 1314.11 Q1966.88 1313.9 1965.86 1313.9 Q1962.25 1313.9 1960.31 1316.26 Q1958.39 1318.6 1958.39 1323 L1958.39 1336.66 L1954.1 1336.66 L1954.1 1310.73 L1958.39 1310.73 L1958.39 1314.76 Q1959.73 1312.4 1961.88 1311.26 Q1964.03 1310.11 1967.11 1310.11 Q1967.55 1310.11 1968.08 1310.17 Q1968.62 1310.22 1969.26 1310.34 L1969.29 1314.71 Z" fill="#000000" fill-rule="evenodd" fill-opacity="1" /><path clip-path="url(#clip850)" d="M 0 0 M1985.54 1323.62 Q1980.38 1323.62 1978.39 1324.8 Q1976.39 1325.99 1976.39 1328.83 Q1976.39 1331.1 1977.88 1332.44 Q1979.38 1333.76 1981.95 1333.76 Q1985.49 1333.76 1987.62 1331.26 Q1989.77 1328.74 1989.77 1324.57 L1989.77 1323.62 L1985.54 1323.62 M1994.03 1321.86 L1994.03 1336.66 L1989.77 1336.66 L1989.77 1332.72 Q1988.32 1335.08 1986.14 1336.22 Q1983.96 1337.33 1980.82 1337.33 Q1976.83 1337.33 1974.47 1335.11 Q1972.14 1332.86 1972.14 1329.11 Q1972.14 1324.74 1975.05 1322.51 Q1977.99 1320.29 1983.8 1320.29 L1989.77 1320.29 L1989.77 1319.87 Q1989.77 1316.93 1987.83 1315.34 Q1985.91 1313.72 1982.41 1313.72 Q1980.19 1313.72 1978.08 1314.25 Q1975.98 1314.78 1974.03 1315.85 L1974.03 1311.91 Q1976.37 1311.01 1978.57 1310.57 Q1980.77 1310.11 1982.85 1310.11 Q1988.48 1310.11 1991.26 1313.02 Q1994.03 1315.94 1994.03 1321.86 Z" fill="#000000" fill-rule="evenodd" fill-opacity="1" /><path clip-path="url(#clip850)" d="M 0 0 M1998.5 1310.73 L2002.76 1310.73 L2002.76 1336.66 L1998.5 1336.66 L1998.5 1310.73 M1998.5 1300.64 L2002.76 1300.64 L2002.76 1306.03 L1998.5 1306.03 L1998.5 1300.64 Z" fill="#000000" fill-rule="evenodd" fill-opacity="1" /><path clip-path="url(#clip850)" d="M 0 0 M2024.29 1323.39 Q2024.29 1318.76 2022.37 1316.22 Q2020.47 1313.67 2017.02 1313.67 Q2013.59 1313.67 2011.67 1316.22 Q2009.77 1318.76 2009.77 1323.39 Q2009.77 1328 2011.67 1330.55 Q2013.59 1333.09 2017.02 1333.09 Q2020.47 1333.09 2022.37 1330.55 Q2024.29 1328 2024.29 1323.39 M2028.55 1333.44 Q2028.55 1340.06 2025.61 1343.28 Q2022.67 1346.52 2016.6 1346.52 Q2014.36 1346.52 2012.37 1346.17 Q2010.38 1345.85 2008.5 1345.15 L2008.5 1341.01 Q2010.38 1342.03 2012.2 1342.51 Q2014.03 1343 2015.93 1343 Q2020.12 1343 2022.2 1340.8 Q2024.29 1338.62 2024.29 1334.2 L2024.29 1332.1 Q2022.97 1334.39 2020.91 1335.52 Q2018.85 1336.66 2015.98 1336.66 Q2011.21 1336.66 2008.29 1333.02 Q2005.38 1329.39 2005.38 1323.39 Q2005.38 1317.37 2008.29 1313.74 Q2011.21 1310.11 2015.98 1310.11 Q2018.85 1310.11 2020.91 1311.24 Q2022.97 1312.37 2024.29 1314.67 L2024.29 1310.73 L2028.55 1310.73 L2028.55 1333.44 Z" fill="#000000" fill-rule="evenodd" fill-opacity="1" /><path clip-path="url(#clip850)" d="M 0 0 M2054.57 1321.01 L2054.57 1336.66 L2050.31 1336.66 L2050.31 1321.15 Q2050.31 1317.47 2048.87 1315.64 Q2047.44 1313.81 2044.57 1313.81 Q2041.12 1313.81 2039.13 1316.01 Q2037.13 1318.21 2037.13 1322 L2037.13 1336.66 L2032.85 1336.66 L2032.85 1300.64 L2037.13 1300.64 L2037.13 1314.76 Q2038.66 1312.42 2040.72 1311.26 Q2042.81 1310.11 2045.51 1310.11 Q2049.98 1310.11 2052.27 1312.88 Q2054.57 1315.64 2054.57 1321.01 Z" fill="#000000" fill-rule="evenodd" fill-opacity="1" /><path clip-path="url(#clip850)" d="M 0 0 M2063.25 1303.37 L2063.25 1310.73 L2072.02 1310.73 L2072.02 1314.04 L2063.25 1314.04 L2063.25 1328.11 Q2063.25 1331.29 2064.1 1332.19 Q2064.98 1333.09 2067.64 1333.09 L2072.02 1333.09 L2072.02 1336.66 L2067.64 1336.66 Q2062.71 1336.66 2060.84 1334.83 Q2058.96 1332.98 2058.96 1328.11 L2058.96 1314.04 L2055.84 1314.04 L2055.84 1310.73 L2058.96 1310.73 L2058.96 1303.37 L2063.25 1303.37 Z" fill="#000000" fill-rule="evenodd" fill-opacity="1" /><path clip-path="url(#clip850)" d="M 0 0 M2089.4 1321.77 L2101.88 1321.77 L2101.88 1325.57 L2089.4 1325.57 L2089.4 1321.77 Z" fill="#000000" fill-rule="evenodd" fill-opacity="1" /><path clip-path="url(#clip850)" d="M 0 0 M2143.59 1322.63 L2143.59 1324.71 L2124.01 1324.71 Q2124.29 1329.11 2126.65 1331.42 Q2129.03 1333.72 2133.27 1333.72 Q2135.72 1333.72 2138.01 1333.11 Q2140.33 1332.51 2142.6 1331.31 L2142.6 1335.34 Q2140.31 1336.31 2137.9 1336.82 Q2135.49 1337.33 2133.01 1337.33 Q2126.81 1337.33 2123.18 1333.72 Q2119.56 1330.11 2119.56 1323.95 Q2119.56 1317.58 2122.99 1313.86 Q2126.44 1310.11 2132.27 1310.11 Q2137.5 1310.11 2140.54 1313.49 Q2143.59 1316.84 2143.59 1322.63 M2139.33 1321.38 Q2139.29 1317.88 2137.37 1315.8 Q2135.47 1313.72 2132.32 1313.72 Q2128.75 1313.72 2126.6 1315.73 Q2124.47 1317.74 2124.15 1321.4 L2139.33 1321.38 Z" fill="#000000" fill-rule="evenodd" fill-opacity="1" /><path clip-path="url(#clip850)" d="M 0 0 M2168.78 1310.73 L2159.4 1323.35 L2169.26 1336.66 L2164.24 1336.66 L2156.69 1326.47 L2149.15 1336.66 L2144.12 1336.66 L2154.19 1323.09 L2144.98 1310.73 L2150 1310.73 L2156.88 1319.97 L2163.75 1310.73 L2168.78 1310.73 Z" fill="#000000" fill-rule="evenodd" fill-opacity="1" /><path clip-path="url(#clip850)" d="M 0 0 M2185.51 1323.62 Q2180.35 1323.62 2178.36 1324.8 Q2176.37 1325.99 2176.37 1328.83 Q2176.37 1331.1 2177.85 1332.44 Q2179.36 1333.76 2181.93 1333.76 Q2185.47 1333.76 2187.6 1331.26 Q2189.75 1328.74 2189.75 1324.57 L2189.75 1323.62 L2185.51 1323.62 M2194.01 1321.86 L2194.01 1336.66 L2189.75 1336.66 L2189.75 1332.72 Q2188.29 1335.08 2186.12 1336.22 Q2183.94 1337.33 2180.79 1337.33 Q2176.81 1337.33 2174.45 1335.11 Q2172.11 1332.86 2172.11 1329.11 Q2172.11 1324.74 2175.03 1322.51 Q2177.97 1320.29 2183.78 1320.29 L2189.75 1320.29 L2189.75 1319.87 Q2189.75 1316.93 2187.81 1315.34 Q2185.88 1313.72 2182.39 1313.72 Q2180.17 1313.72 2178.06 1314.25 Q2175.95 1314.78 2174.01 1315.85 L2174.01 1311.91 Q2176.35 1311.01 2178.55 1310.57 Q2180.75 1310.11 2182.83 1310.11 Q2188.45 1310.11 2191.23 1313.02 Q2194.01 1315.94 2194.01 1321.86 Z" fill="#000000" fill-rule="evenodd" fill-opacity="1" /><path clip-path="url(#clip850)" d="M 0 0 M2217.13 1311.73 L2217.13 1315.71 Q2215.33 1314.71 2213.5 1314.23 Q2211.69 1313.72 2209.84 1313.72 Q2205.7 1313.72 2203.41 1316.36 Q2201.12 1318.97 2201.12 1323.72 Q2201.12 1328.46 2203.41 1331.1 Q2205.7 1333.72 2209.84 1333.72 Q2211.69 1333.72 2213.5 1333.23 Q2215.33 1332.72 2217.13 1331.73 L2217.13 1335.66 Q2215.35 1336.49 2213.43 1336.91 Q2211.53 1337.33 2209.38 1337.33 Q2203.52 1337.33 2200.07 1333.65 Q2196.62 1329.97 2196.62 1323.72 Q2196.62 1317.37 2200.1 1313.74 Q2203.59 1310.11 2209.66 1310.11 Q2211.62 1310.11 2213.5 1310.52 Q2215.37 1310.92 2217.13 1311.73 Z" fill="#000000" fill-rule="evenodd" fill-opacity="1" /><path clip-path="url(#clip850)" d="M 0 0 M2225.81 1303.37 L2225.81 1310.73 L2234.59 1310.73 L2234.59 1314.04 L2225.81 1314.04 L2225.81 1328.11 Q2225.81 1331.29 2226.67 1332.19 Q2227.55 1333.09 2230.21 1333.09 L2234.59 1333.09 L2234.59 1336.66 L2230.21 1336.66 Q2225.28 1336.66 2223.41 1334.83 Q2221.53 1332.98 2221.53 1328.11 L2221.53 1314.04 L2218.41 1314.04 L2218.41 1310.73 L2221.53 1310.73 L2221.53 1303.37 L2225.81 1303.37 Z" fill="#000000" fill-rule="evenodd" fill-opacity="1" /></svg>
