<?xml version="1.0" encoding="utf-8"?>
<svg xmlns="http://www.w3.org/2000/svg" xmlns:xlink="http://www.w3.org/1999/xlink" width="600" height="400" viewBox="0 0 2400 1600">
<defs>
  <clipPath id="clip570">
    <rect x="0" y="0" width="2400" height="1600"/>
  </clipPath>
</defs>
<path clip-path="url(#clip570)" d="
M0 1600 L2400 1600 L2400 0 L0 0  Z
  " fill="#ffffff" fill-rule="evenodd" fill-opacity="1"/>
<defs>
  <clipPath id="clip571">
    <rect x="480" y="0" width="1681" height="1600"/>
  </clipPath>
</defs>
<path clip-path="url(#clip570)" d="
M153.983 1486.45 L2352.76 1486.45 L2352.76 47.2441 L153.983 47.2441  Z
  " fill="#ffffff" fill-rule="evenodd" fill-opacity="1"/>
<defs>
  <clipPath id="clip572">
    <rect x="153" y="47" width="2200" height="1440"/>
  </clipPath>
</defs>
<polyline clip-path="url(#clip572)" style="stroke:#000000; stroke-width:2; stroke-opacity:0.1; fill:none" points="
  208.077,1486.45 208.077,47.2441 
  "/>
<polyline clip-path="url(#clip572)" style="stroke:#000000; stroke-width:2; stroke-opacity:0.1; fill:none" points="
  614.806,1486.45 614.806,47.2441 
  "/>
<polyline clip-path="url(#clip572)" style="stroke:#000000; stroke-width:2; stroke-opacity:0.1; fill:none" points="
  1021.53,1486.45 1021.53,47.2441 
  "/>
<polyline clip-path="url(#clip572)" style="stroke:#000000; stroke-width:2; stroke-opacity:0.1; fill:none" points="
  1428.26,1486.45 1428.26,47.2441 
  "/>
<polyline clip-path="url(#clip572)" style="stroke:#000000; stroke-width:2; stroke-opacity:0.1; fill:none" points="
  1834.99,1486.45 1834.99,47.2441 
  "/>
<polyline clip-path="url(#clip572)" style="stroke:#000000; stroke-width:2; stroke-opacity:0.1; fill:none" points="
  2241.72,1486.45 2241.72,47.2441 
  "/>
<polyline clip-path="url(#clip572)" style="stroke:#000000; stroke-width:2; stroke-opacity:0.1; fill:none" points="
  153.983,1203.93 2352.76,1203.93 
  "/>
<polyline clip-path="url(#clip572)" style="stroke:#000000; stroke-width:2; stroke-opacity:0.1; fill:none" points="
  153.983,831.943 2352.76,831.943 
  "/>
<polyline clip-path="url(#clip572)" style="stroke:#000000; stroke-width:2; stroke-opacity:0.1; fill:none" points="
  153.983,459.96 2352.76,459.96 
  "/>
<polyline clip-path="url(#clip572)" style="stroke:#000000; stroke-width:2; stroke-opacity:0.1; fill:none" points="
  153.983,87.9763 2352.76,87.9763 
  "/>
<polyline clip-path="url(#clip570)" style="stroke:#000000; stroke-width:4; stroke-opacity:1; fill:none" points="
  153.983,1486.45 2352.76,1486.45 
  "/>
<polyline clip-path="url(#clip570)" style="stroke:#000000; stroke-width:4; stroke-opacity:1; fill:none" points="
  153.983,1486.45 153.983,47.2441 
  "/>
<polyline clip-path="url(#clip570)" style="stroke:#000000; stroke-width:4; stroke-opacity:1; fill:none" points="
  208.077,1486.45 208.077,1469.18 
  "/>
<polyline clip-path="url(#clip570)" style="stroke:#000000; stroke-width:4; stroke-opacity:1; fill:none" points="
  614.806,1486.45 614.806,1469.18 
  "/>
<polyline clip-path="url(#clip570)" style="stroke:#000000; stroke-width:4; stroke-opacity:1; fill:none" points="
  1021.53,1486.45 1021.53,1469.18 
  "/>
<polyline clip-path="url(#clip570)" style="stroke:#000000; stroke-width:4; stroke-opacity:1; fill:none" points="
  1428.26,1486.45 1428.26,1469.18 
  "/>
<polyline clip-path="url(#clip570)" style="stroke:#000000; stroke-width:4; stroke-opacity:1; fill:none" points="
  1834.99,1486.45 1834.99,1469.18 
  "/>
<polyline clip-path="url(#clip570)" style="stroke:#000000; stroke-width:4; stroke-opacity:1; fill:none" points="
  2241.72,1486.45 2241.72,1469.18 
  "/>
<polyline clip-path="url(#clip570)" style="stroke:#000000; stroke-width:4; stroke-opacity:1; fill:none" points="
  153.983,1203.93 180.368,1203.93 
  "/>
<polyline clip-path="url(#clip570)" style="stroke:#000000; stroke-width:4; stroke-opacity:1; fill:none" points="
  153.983,831.943 180.368,831.943 
  "/>
<polyline clip-path="url(#clip570)" style="stroke:#000000; stroke-width:4; stroke-opacity:1; fill:none" points="
  153.983,459.96 180.368,459.96 
  "/>
<polyline clip-path="url(#clip570)" style="stroke:#000000; stroke-width:4; stroke-opacity:1; fill:none" points="
  153.983,87.9763 180.368,87.9763 
  "/>
<path clip-path="url(#clip570)" d="M 0 0 M208.077 1508.44 Q204.466 1508.44 202.638 1512 Q200.832 1515.55 200.832 1522.67 Q200.832 1529.78 202.638 1533.35 Q204.466 1536.89 208.077 1536.89 Q211.712 1536.89 213.517 1533.35 Q215.346 1529.78 215.346 1522.67 Q215.346 1515.55 213.517 1512 Q211.712 1508.44 208.077 1508.44 M208.077 1504.73 Q213.888 1504.73 216.943 1509.34 Q220.022 1513.92 220.022 1522.67 Q220.022 1531.4 216.943 1536.01 Q213.888 1540.59 208.077 1540.59 Q202.267 1540.59 199.189 1536.01 Q196.133 1531.4 196.133 1522.67 Q196.133 1513.92 199.189 1509.34 Q202.267 1504.73 208.077 1504.73 Z" fill="#000000" fill-rule="evenodd" fill-opacity="1" /><path clip-path="url(#clip570)" d="M 0 0 M591.577 1505.36 L609.933 1505.36 L609.933 1509.3 L595.859 1509.3 L595.859 1517.77 Q596.878 1517.42 597.896 1517.26 Q598.915 1517.07 599.933 1517.07 Q605.72 1517.07 609.1 1520.24 Q612.479 1523.42 612.479 1528.83 Q612.479 1534.41 609.007 1537.51 Q605.535 1540.59 599.216 1540.59 Q597.04 1540.59 594.771 1540.22 Q592.526 1539.85 590.118 1539.11 L590.118 1534.41 Q592.202 1535.54 594.424 1536.1 Q596.646 1536.66 599.123 1536.66 Q603.128 1536.66 605.465 1534.55 Q607.803 1532.44 607.803 1528.83 Q607.803 1525.22 605.465 1523.11 Q603.128 1521.01 599.123 1521.01 Q597.248 1521.01 595.373 1521.42 Q593.521 1521.84 591.577 1522.72 L591.577 1505.36 Z" fill="#000000" fill-rule="evenodd" fill-opacity="1" /><path clip-path="url(#clip570)" d="M 0 0 M627.549 1508.44 Q623.938 1508.44 622.109 1512 Q620.303 1515.55 620.303 1522.67 Q620.303 1529.78 622.109 1533.35 Q623.938 1536.89 627.549 1536.89 Q631.183 1536.89 632.988 1533.35 Q634.817 1529.78 634.817 1522.67 Q634.817 1515.55 632.988 1512 Q631.183 1508.44 627.549 1508.44 M627.549 1504.73 Q633.359 1504.73 636.414 1509.34 Q639.493 1513.92 639.493 1522.67 Q639.493 1531.4 636.414 1536.01 Q633.359 1540.59 627.549 1540.59 Q621.739 1540.59 618.66 1536.01 Q615.604 1531.4 615.604 1522.67 Q615.604 1513.92 618.66 1509.34 Q621.739 1504.73 627.549 1504.73 Z" fill="#000000" fill-rule="evenodd" fill-opacity="1" /><path clip-path="url(#clip570)" d="M 0 0 M984.902 1535.98 L992.541 1535.98 L992.541 1509.62 L984.231 1511.29 L984.231 1507.03 L992.495 1505.36 L997.171 1505.36 L997.171 1535.98 L1004.81 1535.98 L1004.81 1539.92 L984.902 1539.92 L984.902 1535.98 Z" fill="#000000" fill-rule="evenodd" fill-opacity="1" /><path clip-path="url(#clip570)" d="M 0 0 M1019.88 1508.44 Q1016.27 1508.44 1014.44 1512 Q1012.63 1515.55 1012.63 1522.67 Q1012.63 1529.78 1014.44 1533.35 Q1016.27 1536.89 1019.88 1536.89 Q1023.51 1536.89 1025.32 1533.35 Q1027.15 1529.78 1027.15 1522.67 Q1027.15 1515.55 1025.32 1512 Q1023.51 1508.44 1019.88 1508.44 M1019.88 1504.73 Q1025.69 1504.73 1028.74 1509.34 Q1031.82 1513.92 1031.82 1522.67 Q1031.82 1531.4 1028.74 1536.01 Q1025.69 1540.59 1019.88 1540.59 Q1014.07 1540.59 1010.99 1536.01 Q1007.93 1531.4 1007.93 1522.67 Q1007.93 1513.92 1010.99 1509.34 Q1014.07 1504.73 1019.88 1504.73 Z" fill="#000000" fill-rule="evenodd" fill-opacity="1" /><path clip-path="url(#clip570)" d="M 0 0 M1046.89 1508.44 Q1043.28 1508.44 1041.45 1512 Q1039.65 1515.55 1039.65 1522.67 Q1039.65 1529.78 1041.45 1533.35 Q1043.28 1536.89 1046.89 1536.89 Q1050.53 1536.89 1052.33 1533.35 Q1054.16 1529.78 1054.16 1522.67 Q1054.16 1515.55 1052.33 1512 Q1050.53 1508.44 1046.89 1508.44 M1046.89 1504.73 Q1052.7 1504.73 1055.76 1509.34 Q1058.84 1513.92 1058.84 1522.67 Q1058.84 1531.4 1055.76 1536.01 Q1052.7 1540.59 1046.89 1540.59 Q1041.08 1540.59 1038 1536.01 Q1034.95 1531.4 1034.95 1522.67 Q1034.95 1513.92 1038 1509.34 Q1041.08 1504.73 1046.89 1504.73 Z" fill="#000000" fill-rule="evenodd" fill-opacity="1" /><path clip-path="url(#clip570)" d="M 0 0 M1392.13 1535.98 L1399.77 1535.98 L1399.77 1509.62 L1391.46 1511.29 L1391.46 1507.03 L1399.72 1505.36 L1404.4 1505.36 L1404.4 1535.98 L1412.04 1535.98 L1412.04 1539.92 L1392.13 1539.92 L1392.13 1535.98 Z" fill="#000000" fill-rule="evenodd" fill-opacity="1" /><path clip-path="url(#clip570)" d="M 0 0 M1417.15 1505.36 L1435.51 1505.36 L1435.51 1509.3 L1421.43 1509.3 L1421.43 1517.77 Q1422.45 1517.42 1423.47 1517.26 Q1424.49 1517.07 1425.51 1517.07 Q1431.29 1517.07 1434.67 1520.24 Q1438.05 1523.42 1438.05 1528.83 Q1438.05 1534.41 1434.58 1537.51 Q1431.11 1540.59 1424.79 1540.59 Q1422.61 1540.59 1420.35 1540.22 Q1418.1 1539.85 1415.69 1539.11 L1415.69 1534.41 Q1417.78 1535.54 1420 1536.1 Q1422.22 1536.66 1424.7 1536.66 Q1428.7 1536.66 1431.04 1534.55 Q1433.38 1532.44 1433.38 1528.83 Q1433.38 1525.22 1431.04 1523.11 Q1428.7 1521.01 1424.7 1521.01 Q1422.82 1521.01 1420.95 1521.42 Q1419.1 1521.84 1417.15 1522.72 L1417.15 1505.36 Z" fill="#000000" fill-rule="evenodd" fill-opacity="1" /><path clip-path="url(#clip570)" d="M 0 0 M1453.12 1508.44 Q1449.51 1508.44 1447.68 1512 Q1445.88 1515.55 1445.88 1522.67 Q1445.88 1529.78 1447.68 1533.35 Q1449.51 1536.89 1453.12 1536.89 Q1456.76 1536.89 1458.56 1533.35 Q1460.39 1529.78 1460.39 1522.67 Q1460.39 1515.55 1458.56 1512 Q1456.76 1508.44 1453.12 1508.44 M1453.12 1504.73 Q1458.93 1504.73 1461.99 1509.34 Q1465.07 1513.92 1465.07 1522.67 Q1465.07 1531.4 1461.99 1536.01 Q1458.93 1540.59 1453.12 1540.59 Q1447.31 1540.59 1444.23 1536.01 Q1441.18 1531.4 1441.18 1522.67 Q1441.18 1513.92 1444.23 1509.34 Q1447.31 1504.73 1453.12 1504.73 Z" fill="#000000" fill-rule="evenodd" fill-opacity="1" /><path clip-path="url(#clip570)" d="M 0 0 M1802.63 1535.98 L1818.95 1535.98 L1818.95 1539.92 L1797 1539.92 L1797 1535.98 Q1799.67 1533.23 1804.25 1528.6 Q1808.86 1523.95 1810.04 1522.61 Q1812.28 1520.08 1813.16 1518.35 Q1814.06 1516.59 1814.06 1514.9 Q1814.06 1512.14 1812.12 1510.41 Q1810.2 1508.67 1807.1 1508.67 Q1804.9 1508.67 1802.44 1509.43 Q1800.01 1510.2 1797.24 1511.75 L1797.24 1507.03 Q1800.06 1505.89 1802.51 1505.31 Q1804.97 1504.73 1807 1504.73 Q1812.38 1504.73 1815.57 1507.42 Q1818.76 1510.11 1818.76 1514.6 Q1818.76 1516.73 1817.95 1518.65 Q1817.17 1520.54 1815.06 1523.14 Q1814.48 1523.81 1811.38 1527.03 Q1808.28 1530.22 1802.63 1535.98 Z" fill="#000000" fill-rule="evenodd" fill-opacity="1" /><path clip-path="url(#clip570)" d="M 0 0 M1834.02 1508.44 Q1830.41 1508.44 1828.58 1512 Q1826.77 1515.55 1826.77 1522.67 Q1826.77 1529.78 1828.58 1533.35 Q1830.41 1536.89 1834.02 1536.89 Q1837.65 1536.89 1839.46 1533.35 Q1841.29 1529.78 1841.29 1522.67 Q1841.29 1515.55 1839.46 1512 Q1837.65 1508.44 1834.02 1508.44 M1834.02 1504.73 Q1839.83 1504.73 1842.88 1509.34 Q1845.96 1513.92 1845.96 1522.67 Q1845.96 1531.4 1842.88 1536.01 Q1839.83 1540.59 1834.02 1540.59 Q1828.21 1540.59 1825.13 1536.01 Q1822.07 1531.4 1822.07 1522.67 Q1822.07 1513.92 1825.13 1509.34 Q1828.21 1504.73 1834.02 1504.73 Z" fill="#000000" fill-rule="evenodd" fill-opacity="1" /><path clip-path="url(#clip570)" d="M 0 0 M1861.03 1508.44 Q1857.42 1508.44 1855.59 1512 Q1853.79 1515.55 1853.79 1522.67 Q1853.79 1529.78 1855.59 1533.35 Q1857.42 1536.89 1861.03 1536.89 Q1864.67 1536.89 1866.47 1533.35 Q1868.3 1529.78 1868.3 1522.67 Q1868.3 1515.55 1866.47 1512 Q1864.67 1508.44 1861.03 1508.44 M1861.03 1504.73 Q1866.84 1504.73 1869.9 1509.34 Q1872.98 1513.92 1872.98 1522.67 Q1872.98 1531.4 1869.9 1536.01 Q1866.84 1540.59 1861.03 1540.59 Q1855.22 1540.59 1852.14 1536.01 Q1849.09 1531.4 1849.09 1522.67 Q1849.09 1513.92 1852.14 1509.34 Q1855.22 1504.73 1861.03 1504.73 Z" fill="#000000" fill-rule="evenodd" fill-opacity="1" /><path clip-path="url(#clip570)" d="M 0 0 M2209.86 1535.98 L2226.18 1535.98 L2226.18 1539.92 L2204.23 1539.92 L2204.23 1535.98 Q2206.89 1533.23 2211.48 1528.6 Q2216.08 1523.95 2217.26 1522.61 Q2219.51 1520.08 2220.39 1518.35 Q2221.29 1516.59 2221.29 1514.9 Q2221.29 1512.14 2219.35 1510.41 Q2217.43 1508.67 2214.32 1508.67 Q2212.12 1508.67 2209.67 1509.43 Q2207.24 1510.2 2204.46 1511.75 L2204.46 1507.03 Q2207.29 1505.89 2209.74 1505.31 Q2212.19 1504.73 2214.23 1504.73 Q2219.6 1504.73 2222.8 1507.42 Q2225.99 1510.11 2225.99 1514.6 Q2225.99 1516.73 2225.18 1518.65 Q2224.39 1520.54 2222.29 1523.14 Q2221.71 1523.81 2218.61 1527.03 Q2215.5 1530.22 2209.86 1535.98 Z" fill="#000000" fill-rule="evenodd" fill-opacity="1" /><path clip-path="url(#clip570)" d="M 0 0 M2231.29 1505.36 L2249.65 1505.36 L2249.65 1509.3 L2235.57 1509.3 L2235.57 1517.77 Q2236.59 1517.42 2237.61 1517.26 Q2238.63 1517.07 2239.65 1517.07 Q2245.43 1517.07 2248.81 1520.24 Q2252.19 1523.42 2252.19 1528.83 Q2252.19 1534.41 2248.72 1537.51 Q2245.25 1540.59 2238.93 1540.59 Q2236.75 1540.59 2234.49 1540.22 Q2232.24 1539.85 2229.83 1539.11 L2229.83 1534.41 Q2231.92 1535.54 2234.14 1536.1 Q2236.36 1536.66 2238.84 1536.66 Q2242.84 1536.66 2245.18 1534.55 Q2247.52 1532.44 2247.52 1528.83 Q2247.52 1525.22 2245.18 1523.11 Q2242.84 1521.01 2238.84 1521.01 Q2236.96 1521.01 2235.09 1521.42 Q2233.24 1521.84 2231.29 1522.72 L2231.29 1505.36 Z" fill="#000000" fill-rule="evenodd" fill-opacity="1" /><path clip-path="url(#clip570)" d="M 0 0 M2267.26 1508.44 Q2263.65 1508.44 2261.82 1512 Q2260.02 1515.55 2260.02 1522.67 Q2260.02 1529.78 2261.82 1533.35 Q2263.65 1536.89 2267.26 1536.89 Q2270.9 1536.89 2272.7 1533.35 Q2274.53 1529.78 2274.53 1522.67 Q2274.53 1515.55 2272.7 1512 Q2270.9 1508.44 2267.26 1508.44 M2267.26 1504.73 Q2273.07 1504.73 2276.13 1509.34 Q2279.21 1513.92 2279.21 1522.67 Q2279.21 1531.4 2276.13 1536.01 Q2273.07 1540.59 2267.26 1540.59 Q2261.45 1540.59 2258.37 1536.01 Q2255.32 1531.4 2255.32 1522.67 Q2255.32 1513.92 2258.37 1509.34 Q2261.45 1504.73 2267.26 1504.73 Z" fill="#000000" fill-rule="evenodd" fill-opacity="1" /><path clip-path="url(#clip570)" d="M 0 0 M63.3162 1206.32 L75.793 1206.32 L75.793 1210.12 L63.3162 1210.12 L63.3162 1206.32 Z" fill="#000000" fill-rule="evenodd" fill-opacity="1" /><path clip-path="url(#clip570)" d="M 0 0 M91.441 1202.06 Q88.2929 1202.06 86.4411 1204.22 Q84.6124 1206.37 84.6124 1210.12 Q84.6124 1213.85 86.4411 1216.02 Q88.2929 1218.17 91.441 1218.17 Q94.5892 1218.17 96.4179 1216.02 Q98.2697 1213.85 98.2697 1210.12 Q98.2697 1206.37 96.4179 1204.22 Q94.5892 1202.06 91.441 1202.06 M100.723 1187.41 L100.723 1191.67 Q98.9642 1190.84 97.1586 1190.4 Q95.3762 1189.96 93.617 1189.96 Q88.9874 1189.96 86.5337 1193.08 Q84.1031 1196.21 83.7559 1202.53 Q85.1216 1200.51 87.1818 1199.45 Q89.242 1198.36 91.7188 1198.36 Q96.9271 1198.36 99.9364 1201.53 Q102.969 1204.68 102.969 1210.12 Q102.969 1215.44 99.8206 1218.66 Q96.6725 1221.88 91.441 1221.88 Q85.4457 1221.88 82.2744 1217.29 Q79.1032 1212.69 79.1032 1203.96 Q79.1032 1195.77 82.992 1190.91 Q86.8809 1186.02 93.4318 1186.02 Q95.191 1186.02 96.9734 1186.37 Q98.779 1186.72 100.723 1187.41 Z" fill="#000000" fill-rule="evenodd" fill-opacity="1" /><path clip-path="url(#clip570)" d="M 0 0 M118.038 1189.73 Q114.427 1189.73 112.598 1193.29 Q110.793 1196.83 110.793 1203.96 Q110.793 1211.07 112.598 1214.63 Q114.427 1218.17 118.038 1218.17 Q121.672 1218.17 123.478 1214.63 Q125.307 1211.07 125.307 1203.96 Q125.307 1196.83 123.478 1193.29 Q121.672 1189.73 118.038 1189.73 M118.038 1186.02 Q123.848 1186.02 126.904 1190.63 Q129.983 1195.21 129.983 1203.96 Q129.983 1212.69 126.904 1217.29 Q123.848 1221.88 118.038 1221.88 Q112.228 1221.88 109.149 1217.29 Q106.094 1212.69 106.094 1203.96 Q106.094 1195.21 109.149 1190.63 Q112.228 1186.02 118.038 1186.02 Z" fill="#000000" fill-rule="evenodd" fill-opacity="1" /><path clip-path="url(#clip570)" d="M 0 0 M62.9921 834.339 L75.4689 834.339 L75.4689 838.135 L62.9921 838.135 L62.9921 834.339 Z" fill="#000000" fill-rule="evenodd" fill-opacity="1" /><path clip-path="url(#clip570)" d="M 0 0 M93.3855 818.737 L81.58 837.186 L93.3855 837.186 L93.3855 818.737 M92.1586 814.663 L98.0382 814.663 L98.0382 837.186 L102.969 837.186 L102.969 841.075 L98.0382 841.075 L98.0382 849.223 L93.3855 849.223 L93.3855 841.075 L77.7837 841.075 L77.7837 836.561 L92.1586 814.663 Z" fill="#000000" fill-rule="evenodd" fill-opacity="1" /><path clip-path="url(#clip570)" d="M 0 0 M118.038 817.742 Q114.427 817.742 112.598 821.307 Q110.793 824.848 110.793 831.978 Q110.793 839.084 112.598 842.649 Q114.427 846.191 118.038 846.191 Q121.672 846.191 123.478 842.649 Q125.307 839.084 125.307 831.978 Q125.307 824.848 123.478 821.307 Q121.672 817.742 118.038 817.742 M118.038 814.038 Q123.848 814.038 126.904 818.645 Q129.983 823.228 129.983 831.978 Q129.983 840.705 126.904 845.311 Q123.848 849.894 118.038 849.894 Q112.228 849.894 109.149 845.311 Q106.094 840.705 106.094 831.978 Q106.094 823.228 109.149 818.645 Q112.228 814.038 118.038 814.038 Z" fill="#000000" fill-rule="evenodd" fill-opacity="1" /><path clip-path="url(#clip570)" d="M 0 0 M65.0754 462.355 L77.5522 462.355 L77.5522 466.152 L65.0754 466.152 L65.0754 462.355 Z" fill="#000000" fill-rule="evenodd" fill-opacity="1" /><path clip-path="url(#clip570)" d="M 0 0 M86.6494 473.305 L102.969 473.305 L102.969 477.24 L81.0244 477.24 L81.0244 473.305 Q83.6865 470.55 88.2698 465.92 Q92.8762 461.268 94.0568 459.925 Q96.3021 457.402 97.1818 455.666 Q98.0845 453.906 98.0845 452.217 Q98.0845 449.462 96.1401 447.726 Q94.2188 445.99 91.117 445.99 Q88.9179 445.99 86.4642 446.754 Q84.0337 447.518 81.2559 449.069 L81.2559 444.346 Q84.08 443.212 86.5337 442.633 Q88.9874 442.055 91.0244 442.055 Q96.3947 442.055 99.5892 444.74 Q102.784 447.425 102.784 451.916 Q102.784 454.045 101.973 455.967 Q101.186 457.865 99.0799 460.457 Q98.5012 461.129 95.3994 464.346 Q92.2975 467.541 86.6494 473.305 Z" fill="#000000" fill-rule="evenodd" fill-opacity="1" /><path clip-path="url(#clip570)" d="M 0 0 M118.038 445.758 Q114.427 445.758 112.598 449.323 Q110.793 452.865 110.793 459.994 Q110.793 467.101 112.598 470.666 Q114.427 474.207 118.038 474.207 Q121.672 474.207 123.478 470.666 Q125.307 467.101 125.307 459.994 Q125.307 452.865 123.478 449.323 Q121.672 445.758 118.038 445.758 M118.038 442.055 Q123.848 442.055 126.904 446.661 Q129.983 451.244 129.983 459.994 Q129.983 468.721 126.904 473.328 Q123.848 477.911 118.038 477.911 Q112.228 477.911 109.149 473.328 Q106.094 468.721 106.094 459.994 Q106.094 451.244 109.149 446.661 Q112.228 442.055 118.038 442.055 Z" fill="#000000" fill-rule="evenodd" fill-opacity="1" /><path clip-path="url(#clip570)" d="M 0 0 M118.038 73.775 Q114.427 73.775 112.598 77.3398 Q110.793 80.8814 110.793 88.011 Q110.793 95.1174 112.598 98.6822 Q114.427 102.224 118.038 102.224 Q121.672 102.224 123.478 98.6822 Q125.307 95.1174 125.307 88.011 Q125.307 80.8814 123.478 77.3398 Q121.672 73.775 118.038 73.775 M118.038 70.0713 Q123.848 70.0713 126.904 74.6777 Q129.983 79.261 129.983 88.011 Q129.983 96.7378 126.904 101.344 Q123.848 105.928 118.038 105.928 Q112.228 105.928 109.149 101.344 Q106.094 96.7378 106.094 88.011 Q106.094 79.261 109.149 74.6777 Q112.228 70.0713 118.038 70.0713 Z" fill="#000000" fill-rule="evenodd" fill-opacity="1" /><polyline clip-path="url(#clip572)" style="stroke:#009af9; stroke-width:4; stroke-opacity:1; fill:none" points="
  216.212,87.9763 224.347,106.575 232.481,125.175 240.616,143.774 248.75,162.373 256.885,180.972 265.019,199.571 273.154,218.17 281.288,236.77 289.423,255.369 
  297.558,273.968 305.692,292.567 313.827,311.166 321.961,311.166 330.096,329.765 338.23,348.365 346.365,366.964 354.5,385.563 362.634,404.162 370.769,422.761 
  378.903,441.361 387.038,459.96 395.172,459.96 403.307,478.559 411.442,497.158 419.576,515.757 427.711,534.356 435.845,552.956 443.98,571.555 452.114,571.555 
  460.249,590.154 468.384,608.753 476.518,627.352 484.653,645.951 492.787,645.951 500.922,664.551 509.056,683.15 517.191,701.749 525.325,720.348 533.46,720.348 
  541.595,738.947 549.729,757.546 557.864,776.146 565.998,776.146 574.133,794.745 582.267,813.344 590.402,831.943 598.537,831.943 606.671,850.542 614.806,869.141 
  622.94,869.141 631.075,887.741 639.209,906.34 647.344,906.34 655.479,924.939 663.613,943.538 671.748,943.538 679.882,962.137 688.017,980.736 696.151,980.736 
  704.286,999.336 712.421,1017.93 720.555,1017.93 728.69,1036.53 736.824,1036.53 744.959,1055.13 753.093,1073.73 761.228,1073.73 769.362,1092.33 777.497,1092.33 
  785.632,1110.93 793.766,1110.93 801.901,1129.53 810.035,1129.53 818.17,1148.13 826.304,1148.13 834.439,1166.73 842.574,1185.33 850.708,1185.33 858.843,1185.33 
  866.977,1203.93 875.112,1203.93 883.246,1222.53 891.381,1222.53 899.516,1241.12 907.65,1241.12 915.785,1259.72 923.919,1259.72 932.054,1278.32 940.188,1278.32 
  948.323,1278.32 956.458,1296.92 964.592,1296.92 972.727,1296.92 980.861,1315.52 988.996,1315.52 997.13,1334.12 1005.26,1334.12 1013.4,1334.12 1021.53,1352.72 
  1029.67,1352.72 1037.8,1352.72 1045.94,1352.72 1054.07,1371.32 1062.21,1371.32 1070.34,1371.32 1078.48,1389.92 1086.61,1389.92 1094.75,1389.92 1102.88,1389.92 
  1111.01,1408.52 1119.15,1408.52 1127.28,1408.52 1135.42,1408.52 1143.55,1408.52 1151.69,1427.12 1159.82,1427.12 1167.96,1427.12 1176.09,1427.12 1184.23,1427.12 
  1192.36,1427.12 1200.49,1445.72 1208.63,1445.72 1216.76,1445.72 1224.9,1445.72 1233.03,1445.72 1241.17,1445.72 1249.3,1445.72 1257.44,1445.72 1265.57,1445.72 
  1273.71,1445.72 1281.84,1445.72 1289.97,1445.72 1298.11,1445.72 1306.24,1445.72 1314.38,1445.72 1322.51,1445.72 1330.65,1445.72 1338.78,1445.72 1346.92,1445.72 
  1355.05,1445.72 1363.19,1445.72 1371.32,1445.72 1379.45,1445.72 1387.59,1445.72 1395.72,1445.72 1403.86,1445.72 1411.99,1445.72 1420.13,1445.72 1428.26,1445.72 
  1436.4,1427.12 1444.53,1427.12 1452.67,1427.12 1460.8,1427.12 1468.94,1427.12 1477.07,1427.12 1485.2,1408.52 1493.34,1408.52 1501.47,1408.52 1509.61,1408.52 
  1517.74,1408.52 1525.88,1389.92 1534.01,1389.92 1542.15,1389.92 1550.28,1371.32 1558.42,1371.32 1566.55,1371.32 1574.68,1371.32 1582.82,1352.72 1590.95,1352.72 
  1599.09,1352.72 1607.22,1334.12 1615.36,1334.12 1623.49,1334.12 1631.63,1315.52 1639.76,1315.52 1647.9,1296.92 1656.03,1296.92 1664.16,1296.92 1672.3,1278.32 
  1680.43,1278.32 1688.57,1259.72 1696.7,1259.72 1704.84,1241.12 1712.97,1241.12 1721.11,1222.53 1729.24,1222.53 1737.38,1203.93 1745.51,1203.93 1753.65,1185.33 
  1761.78,1185.33 1769.91,1166.73 1778.05,1166.73 1786.18,1148.13 1794.32,1129.53 1802.45,1129.53 1810.59,1110.93 1818.72,1110.93 1826.86,1092.33 1834.99,1073.73 
  1843.13,1073.73 1851.26,1055.13 1859.39,1036.53 1867.53,1036.53 1875.66,1017.93 1883.8,999.336 1891.93,999.336 1900.07,980.736 1908.2,962.137 1916.34,943.538 
  1924.47,943.538 1932.61,924.939 1940.74,906.34 1948.87,887.741 1957.01,869.141 1965.14,869.141 1973.28,850.542 1981.41,831.943 1989.55,813.344 1997.68,794.745 
  2005.82,776.146 2013.95,757.546 2022.09,757.546 2030.22,738.947 2038.35,720.348 2046.49,701.749 2054.62,683.15 2062.76,664.551 2070.89,645.951 2079.03,627.352 
  2087.16,608.753 2095.3,590.154 2103.43,571.555 2111.57,552.956 2119.7,534.356 2127.84,515.757 2135.97,497.158 2144.1,478.559 2152.24,459.96 2160.37,441.361 
  2168.51,404.162 2176.64,385.563 2184.78,366.964 2192.91,348.365 2201.05,329.765 2209.18,311.166 2217.32,292.567 2225.45,255.369 2233.58,236.77 2241.72,218.17 
  2249.85,199.571 2257.99,180.972 2266.12,143.774 2274.26,125.175 2282.39,106.575 2290.53,87.9763 
  "/>
<path clip-path="url(#clip570)" d="
M1984.14 216.178 L2279.46 216.178 L2279.46 95.2176 L1984.14 95.2176  Z
  " fill="#ffffff" fill-rule="evenodd" fill-opacity="1"/>
<polyline clip-path="url(#clip570)" style="stroke:#000000; stroke-width:4; stroke-opacity:1; fill:none" points="
  1984.14,216.178 2279.46,216.178 2279.46,95.2176 1984.14,95.2176 1984.14,216.178 
  "/>
<polyline clip-path="url(#clip570)" style="stroke:#009af9; stroke-width:4; stroke-opacity:1; fill:none" points="
  2008.57,155.698 2155.15,155.698 
  "/>
<path clip-path="url(#clip570)" d="M 0 0 M2193.43 175.385 Q2191.62 180.015 2189.91 181.427 Q2188.19 182.839 2185.32 182.839 L2181.92 182.839 L2181.92 179.274 L2184.42 179.274 Q2186.18 179.274 2187.15 178.44 Q2188.13 177.607 2189.31 174.505 L2190.07 172.561 L2179.58 147.052 L2184.1 147.052 L2192.2 167.329 L2200.3 147.052 L2204.81 147.052 L2193.43 175.385 Z" fill="#000000" fill-rule="evenodd" fill-opacity="1" /><path clip-path="url(#clip570)" d="M 0 0 M2210.69 169.042 L2218.33 169.042 L2218.33 142.677 L2210.02 144.343 L2210.02 140.084 L2218.29 138.418 L2222.96 138.418 L2222.96 169.042 L2230.6 169.042 L2230.6 172.978 L2210.69 172.978 L2210.69 169.042 Z" fill="#000000" fill-rule="evenodd" fill-opacity="1" /></svg>
