<?xml version="1.0" encoding="utf-8"?>
<svg xmlns="http://www.w3.org/2000/svg" xmlns:xlink="http://www.w3.org/1999/xlink" width="600" height="400" viewBox="0 0 2400 1600">
<defs>
  <clipPath id="clip930">
    <rect x="0" y="0" width="2400" height="1600"/>
  </clipPath>
</defs>
<path clip-path="url(#clip930)" d="
M0 1600 L2400 1600 L2400 0 L0 0  Z
  " fill="#ffffff" fill-rule="evenodd" fill-opacity="1"/>
<defs>
  <clipPath id="clip931">
    <rect x="480" y="0" width="1681" height="1600"/>
  </clipPath>
</defs>
<path clip-path="url(#clip930)" d="
M226.232 1423.18 L2352.76 1423.18 L2352.76 123.472 L226.232 123.472  Z
  " fill="#ffffff" fill-rule="evenodd" fill-opacity="1"/>
<defs>
  <clipPath id="clip932">
    <rect x="226" y="123" width="2128" height="1301"/>
  </clipPath>
</defs>
<polyline clip-path="url(#clip932)" style="stroke:#000000; stroke-width:2; stroke-opacity:0.1; fill:none" points="
  286.417,1423.18 286.417,123.472 
  "/>
<polyline clip-path="url(#clip932)" style="stroke:#000000; stroke-width:2; stroke-opacity:0.1; fill:none" points="
  787.955,1423.18 787.955,123.472 
  "/>
<polyline clip-path="url(#clip932)" style="stroke:#000000; stroke-width:2; stroke-opacity:0.1; fill:none" points="
  1289.49,1423.18 1289.49,123.472 
  "/>
<polyline clip-path="url(#clip932)" style="stroke:#000000; stroke-width:2; stroke-opacity:0.1; fill:none" points="
  1791.03,1423.18 1791.03,123.472 
  "/>
<polyline clip-path="url(#clip932)" style="stroke:#000000; stroke-width:2; stroke-opacity:0.1; fill:none" points="
  2292.57,1423.18 2292.57,123.472 
  "/>
<polyline clip-path="url(#clip932)" style="stroke:#000000; stroke-width:2; stroke-opacity:0.1; fill:none" points="
  226.232,1386.4 2352.76,1386.4 
  "/>
<polyline clip-path="url(#clip932)" style="stroke:#000000; stroke-width:2; stroke-opacity:0.1; fill:none" points="
  226.232,1145.98 2352.76,1145.98 
  "/>
<polyline clip-path="url(#clip932)" style="stroke:#000000; stroke-width:2; stroke-opacity:0.1; fill:none" points="
  226.232,905.557 2352.76,905.557 
  "/>
<polyline clip-path="url(#clip932)" style="stroke:#000000; stroke-width:2; stroke-opacity:0.1; fill:none" points="
  226.232,665.137 2352.76,665.137 
  "/>
<polyline clip-path="url(#clip932)" style="stroke:#000000; stroke-width:2; stroke-opacity:0.1; fill:none" points="
  226.232,424.718 2352.76,424.718 
  "/>
<polyline clip-path="url(#clip932)" style="stroke:#000000; stroke-width:2; stroke-opacity:0.1; fill:none" points="
  226.232,184.298 2352.76,184.298 
  "/>
<polyline clip-path="url(#clip930)" style="stroke:#000000; stroke-width:4; stroke-opacity:1; fill:none" points="
  226.232,1423.18 2352.76,1423.18 
  "/>
<polyline clip-path="url(#clip930)" style="stroke:#000000; stroke-width:4; stroke-opacity:1; fill:none" points="
  226.232,1423.18 226.232,123.472 
  "/>
<polyline clip-path="url(#clip930)" style="stroke:#000000; stroke-width:4; stroke-opacity:1; fill:none" points="
  286.417,1423.18 286.417,1407.58 
  "/>
<polyline clip-path="url(#clip930)" style="stroke:#000000; stroke-width:4; stroke-opacity:1; fill:none" points="
  787.955,1423.18 787.955,1407.58 
  "/>
<polyline clip-path="url(#clip930)" style="stroke:#000000; stroke-width:4; stroke-opacity:1; fill:none" points="
  1289.49,1423.18 1289.49,1407.58 
  "/>
<polyline clip-path="url(#clip930)" style="stroke:#000000; stroke-width:4; stroke-opacity:1; fill:none" points="
  1791.03,1423.18 1791.03,1407.58 
  "/>
<polyline clip-path="url(#clip930)" style="stroke:#000000; stroke-width:4; stroke-opacity:1; fill:none" points="
  2292.57,1423.18 2292.57,1407.58 
  "/>
<polyline clip-path="url(#clip930)" style="stroke:#000000; stroke-width:4; stroke-opacity:1; fill:none" points="
  226.232,1386.4 251.75,1386.4 
  "/>
<polyline clip-path="url(#clip930)" style="stroke:#000000; stroke-width:4; stroke-opacity:1; fill:none" points="
  226.232,1145.98 251.75,1145.98 
  "/>
<polyline clip-path="url(#clip930)" style="stroke:#000000; stroke-width:4; stroke-opacity:1; fill:none" points="
  226.232,905.557 251.75,905.557 
  "/>
<polyline clip-path="url(#clip930)" style="stroke:#000000; stroke-width:4; stroke-opacity:1; fill:none" points="
  226.232,665.137 251.75,665.137 
  "/>
<polyline clip-path="url(#clip930)" style="stroke:#000000; stroke-width:4; stroke-opacity:1; fill:none" points="
  226.232,424.718 251.75,424.718 
  "/>
<polyline clip-path="url(#clip930)" style="stroke:#000000; stroke-width:4; stroke-opacity:1; fill:none" points="
  226.232,184.298 251.75,184.298 
  "/>
<path clip-path="url(#clip930)" d="M 0 0 M254.426 1445.17 Q250.815 1445.17 248.986 1448.74 Q247.181 1452.28 247.181 1459.41 Q247.181 1466.51 248.986 1470.08 Q250.815 1473.62 254.426 1473.62 Q258.06 1473.62 259.866 1470.08 Q261.695 1466.51 261.695 1459.41 Q261.695 1452.28 259.866 1448.74 Q258.06 1445.17 254.426 1445.17 M254.426 1441.47 Q260.236 1441.47 263.292 1446.07 Q266.37 1450.66 266.37 1459.41 Q266.37 1468.13 263.292 1472.74 Q260.236 1477.32 254.426 1477.32 Q248.616 1477.32 245.537 1472.74 Q242.482 1468.13 242.482 1459.41 Q242.482 1450.66 245.537 1446.07 Q248.616 1441.47 254.426 1441.47 Z" fill="#000000" fill-rule="evenodd" fill-opacity="1" /><path clip-path="url(#clip930)" d="M 0 0 M271.44 1470.77 L276.324 1470.77 L276.324 1476.65 L271.44 1476.65 L271.44 1470.77 Z" fill="#000000" fill-rule="evenodd" fill-opacity="1" /><path clip-path="url(#clip930)" d="M 0 0 M291.393 1445.17 Q287.782 1445.17 285.954 1448.74 Q284.148 1452.28 284.148 1459.41 Q284.148 1466.51 285.954 1470.08 Q287.782 1473.62 291.393 1473.62 Q295.028 1473.62 296.833 1470.08 Q298.662 1466.51 298.662 1459.41 Q298.662 1452.28 296.833 1448.74 Q295.028 1445.17 291.393 1445.17 M291.393 1441.47 Q297.204 1441.47 300.259 1446.07 Q303.338 1450.66 303.338 1459.41 Q303.338 1468.13 300.259 1472.74 Q297.204 1477.32 291.393 1477.32 Q285.583 1477.32 282.505 1472.74 Q279.449 1468.13 279.449 1459.41 Q279.449 1450.66 282.505 1446.07 Q285.583 1441.47 291.393 1441.47 Z" fill="#000000" fill-rule="evenodd" fill-opacity="1" /><path clip-path="url(#clip930)" d="M 0 0 M318.407 1445.17 Q314.796 1445.17 312.967 1448.74 Q311.162 1452.28 311.162 1459.41 Q311.162 1466.51 312.967 1470.08 Q314.796 1473.62 318.407 1473.62 Q322.041 1473.62 323.847 1470.08 Q325.676 1466.51 325.676 1459.41 Q325.676 1452.28 323.847 1448.74 Q322.041 1445.17 318.407 1445.17 M318.407 1441.47 Q324.217 1441.47 327.273 1446.07 Q330.352 1450.66 330.352 1459.41 Q330.352 1468.13 327.273 1472.74 Q324.217 1477.32 318.407 1477.32 Q312.597 1477.32 309.518 1472.74 Q306.463 1468.13 306.463 1459.41 Q306.463 1450.66 309.518 1446.07 Q312.597 1441.47 318.407 1441.47 Z" fill="#000000" fill-rule="evenodd" fill-opacity="1" /><path clip-path="url(#clip930)" d="M 0 0 M757.261 1445.17 Q753.65 1445.17 751.821 1448.74 Q750.016 1452.28 750.016 1459.41 Q750.016 1466.51 751.821 1470.08 Q753.65 1473.62 757.261 1473.62 Q760.895 1473.62 762.701 1470.08 Q764.529 1466.51 764.529 1459.41 Q764.529 1452.28 762.701 1448.74 Q760.895 1445.17 757.261 1445.17 M757.261 1441.47 Q763.071 1441.47 766.127 1446.07 Q769.205 1450.66 769.205 1459.41 Q769.205 1468.13 766.127 1472.74 Q763.071 1477.32 757.261 1477.32 Q751.451 1477.32 748.372 1472.74 Q745.317 1468.13 745.317 1459.41 Q745.317 1450.66 748.372 1446.07 Q751.451 1441.47 757.261 1441.47 Z" fill="#000000" fill-rule="evenodd" fill-opacity="1" /><path clip-path="url(#clip930)" d="M 0 0 M774.275 1470.77 L779.159 1470.77 L779.159 1476.65 L774.275 1476.65 L774.275 1470.77 Z" fill="#000000" fill-rule="evenodd" fill-opacity="1" /><path clip-path="url(#clip930)" d="M 0 0 M788.256 1472.72 L804.576 1472.72 L804.576 1476.65 L782.631 1476.65 L782.631 1472.72 Q785.293 1469.96 789.877 1465.33 Q794.483 1460.68 795.664 1459.34 Q797.909 1456.81 798.789 1455.08 Q799.691 1453.32 799.691 1451.63 Q799.691 1448.87 797.747 1447.14 Q795.826 1445.4 792.724 1445.4 Q790.525 1445.4 788.071 1446.17 Q785.64 1446.93 782.863 1448.48 L782.863 1443.76 Q785.687 1442.62 788.14 1442.05 Q790.594 1441.47 792.631 1441.47 Q798.002 1441.47 801.196 1444.15 Q804.39 1446.84 804.39 1451.33 Q804.39 1453.46 803.58 1455.38 Q802.793 1457.28 800.687 1459.87 Q800.108 1460.54 797.006 1463.76 Q793.904 1466.95 788.256 1472.72 Z" fill="#000000" fill-rule="evenodd" fill-opacity="1" /><path clip-path="url(#clip930)" d="M 0 0 M809.691 1442.09 L828.048 1442.09 L828.048 1446.03 L813.974 1446.03 L813.974 1454.5 Q814.992 1454.15 816.011 1453.99 Q817.029 1453.8 818.048 1453.8 Q823.835 1453.8 827.214 1456.98 Q830.594 1460.15 830.594 1465.56 Q830.594 1471.14 827.122 1474.24 Q823.65 1477.32 817.33 1477.32 Q815.154 1477.32 812.886 1476.95 Q810.64 1476.58 808.233 1475.84 L808.233 1471.14 Q810.316 1472.28 812.538 1472.83 Q814.761 1473.39 817.238 1473.39 Q821.242 1473.39 823.58 1471.28 Q825.918 1469.18 825.918 1465.56 Q825.918 1461.95 823.58 1459.85 Q821.242 1457.74 817.238 1457.74 Q815.363 1457.74 813.488 1458.16 Q811.636 1458.57 809.691 1459.45 L809.691 1442.09 Z" fill="#000000" fill-rule="evenodd" fill-opacity="1" /><path clip-path="url(#clip930)" d="M 0 0 M1258 1445.17 Q1254.39 1445.17 1252.56 1448.74 Q1250.76 1452.28 1250.76 1459.41 Q1250.76 1466.51 1252.56 1470.08 Q1254.39 1473.62 1258 1473.62 Q1261.64 1473.62 1263.44 1470.08 Q1265.27 1466.51 1265.27 1459.41 Q1265.27 1452.28 1263.44 1448.74 Q1261.64 1445.17 1258 1445.17 M1258 1441.47 Q1263.81 1441.47 1266.87 1446.07 Q1269.95 1450.66 1269.95 1459.41 Q1269.95 1468.13 1266.87 1472.74 Q1263.81 1477.32 1258 1477.32 Q1252.19 1477.32 1249.11 1472.74 Q1246.06 1468.13 1246.06 1459.41 Q1246.06 1450.66 1249.11 1446.07 Q1252.19 1441.47 1258 1441.47 Z" fill="#000000" fill-rule="evenodd" fill-opacity="1" /><path clip-path="url(#clip930)" d="M 0 0 M1275.01 1470.77 L1279.9 1470.77 L1279.9 1476.65 L1275.01 1476.65 L1275.01 1470.77 Z" fill="#000000" fill-rule="evenodd" fill-opacity="1" /><path clip-path="url(#clip930)" d="M 0 0 M1285.01 1442.09 L1303.37 1442.09 L1303.37 1446.03 L1289.3 1446.03 L1289.3 1454.5 Q1290.32 1454.15 1291.33 1453.99 Q1292.35 1453.8 1293.37 1453.8 Q1299.16 1453.8 1302.54 1456.98 Q1305.92 1460.15 1305.92 1465.56 Q1305.92 1471.14 1302.45 1474.24 Q1298.97 1477.32 1292.65 1477.32 Q1290.48 1477.32 1288.21 1476.95 Q1285.96 1476.58 1283.56 1475.84 L1283.56 1471.14 Q1285.64 1472.28 1287.86 1472.83 Q1290.08 1473.39 1292.56 1473.39 Q1296.57 1473.39 1298.9 1471.28 Q1301.24 1469.18 1301.24 1465.56 Q1301.24 1461.95 1298.9 1459.85 Q1296.57 1457.74 1292.56 1457.74 Q1290.69 1457.74 1288.81 1458.16 Q1286.96 1458.57 1285.01 1459.45 L1285.01 1442.09 Z" fill="#000000" fill-rule="evenodd" fill-opacity="1" /><path clip-path="url(#clip930)" d="M 0 0 M1320.99 1445.17 Q1317.38 1445.17 1315.55 1448.74 Q1313.74 1452.28 1313.74 1459.41 Q1313.74 1466.51 1315.55 1470.08 Q1317.38 1473.62 1320.99 1473.62 Q1324.62 1473.62 1326.43 1470.08 Q1328.26 1466.51 1328.26 1459.41 Q1328.26 1452.28 1326.43 1448.74 Q1324.62 1445.17 1320.99 1445.17 M1320.99 1441.47 Q1326.8 1441.47 1329.85 1446.07 Q1332.93 1450.66 1332.93 1459.41 Q1332.93 1468.13 1329.85 1472.74 Q1326.8 1477.32 1320.99 1477.32 Q1315.18 1477.32 1312.1 1472.74 Q1309.04 1468.13 1309.04 1459.41 Q1309.04 1450.66 1312.1 1446.07 Q1315.18 1441.47 1320.99 1441.47 Z" fill="#000000" fill-rule="evenodd" fill-opacity="1" /><path clip-path="url(#clip930)" d="M 0 0 M1759.99 1445.17 Q1756.38 1445.17 1754.55 1448.74 Q1752.75 1452.28 1752.75 1459.41 Q1752.75 1466.51 1754.55 1470.08 Q1756.38 1473.62 1759.99 1473.62 Q1763.63 1473.62 1765.43 1470.08 Q1767.26 1466.51 1767.26 1459.41 Q1767.26 1452.28 1765.43 1448.74 Q1763.63 1445.17 1759.99 1445.17 M1759.99 1441.47 Q1765.8 1441.47 1768.86 1446.07 Q1771.94 1450.66 1771.94 1459.41 Q1771.94 1468.13 1768.86 1472.74 Q1765.8 1477.32 1759.99 1477.32 Q1754.18 1477.32 1751.1 1472.74 Q1748.05 1468.13 1748.05 1459.41 Q1748.05 1450.66 1751.1 1446.07 Q1754.18 1441.47 1759.99 1441.47 Z" fill="#000000" fill-rule="evenodd" fill-opacity="1" /><path clip-path="url(#clip930)" d="M 0 0 M1777 1470.77 L1781.89 1470.77 L1781.89 1476.65 L1777 1476.65 L1777 1470.77 Z" fill="#000000" fill-rule="evenodd" fill-opacity="1" /><path clip-path="url(#clip930)" d="M 0 0 M1785.78 1442.09 L1808 1442.09 L1808 1444.08 L1795.45 1476.65 L1790.57 1476.65 L1802.38 1446.03 L1785.78 1446.03 L1785.78 1442.09 Z" fill="#000000" fill-rule="evenodd" fill-opacity="1" /><path clip-path="url(#clip930)" d="M 0 0 M1813.12 1442.09 L1831.47 1442.09 L1831.47 1446.03 L1817.4 1446.03 L1817.4 1454.5 Q1818.42 1454.15 1819.44 1453.99 Q1820.45 1453.8 1821.47 1453.8 Q1827.26 1453.8 1830.64 1456.98 Q1834.02 1460.15 1834.02 1465.56 Q1834.02 1471.14 1830.55 1474.24 Q1827.07 1477.32 1820.75 1477.32 Q1818.58 1477.32 1816.31 1476.95 Q1814.06 1476.58 1811.66 1475.84 L1811.66 1471.14 Q1813.74 1472.28 1815.96 1472.83 Q1818.19 1473.39 1820.66 1473.39 Q1824.67 1473.39 1827 1471.28 Q1829.34 1469.18 1829.34 1465.56 Q1829.34 1461.95 1827 1459.85 Q1824.67 1457.74 1820.66 1457.74 Q1818.79 1457.74 1816.91 1458.16 Q1815.06 1458.57 1813.12 1459.45 L1813.12 1442.09 Z" fill="#000000" fill-rule="evenodd" fill-opacity="1" /><path clip-path="url(#clip930)" d="M 0 0 M2250.96 1472.72 L2258.6 1472.72 L2258.6 1446.35 L2250.29 1448.02 L2250.29 1443.76 L2258.56 1442.09 L2263.23 1442.09 L2263.23 1472.72 L2270.87 1472.72 L2270.87 1476.65 L2250.96 1476.65 L2250.96 1472.72 Z" fill="#000000" fill-rule="evenodd" fill-opacity="1" /><path clip-path="url(#clip930)" d="M 0 0 M2275.94 1470.77 L2280.82 1470.77 L2280.82 1476.65 L2275.94 1476.65 L2275.94 1470.77 Z" fill="#000000" fill-rule="evenodd" fill-opacity="1" /><path clip-path="url(#clip930)" d="M 0 0 M2295.89 1445.17 Q2292.28 1445.17 2290.45 1448.74 Q2288.65 1452.28 2288.65 1459.41 Q2288.65 1466.51 2290.45 1470.08 Q2292.28 1473.62 2295.89 1473.62 Q2299.53 1473.62 2301.33 1470.08 Q2303.16 1466.51 2303.16 1459.41 Q2303.16 1452.28 2301.33 1448.74 Q2299.53 1445.17 2295.89 1445.17 M2295.89 1441.47 Q2301.7 1441.47 2304.76 1446.07 Q2307.84 1450.66 2307.84 1459.41 Q2307.84 1468.13 2304.76 1472.74 Q2301.7 1477.32 2295.89 1477.32 Q2290.08 1477.32 2287 1472.74 Q2283.95 1468.13 2283.95 1459.41 Q2283.95 1450.66 2287 1446.07 Q2290.08 1441.47 2295.89 1441.47 Z" fill="#000000" fill-rule="evenodd" fill-opacity="1" /><path clip-path="url(#clip930)" d="M 0 0 M2322.91 1445.17 Q2319.3 1445.17 2317.47 1448.74 Q2315.66 1452.28 2315.66 1459.41 Q2315.66 1466.51 2317.47 1470.08 Q2319.3 1473.62 2322.91 1473.62 Q2326.54 1473.62 2328.35 1470.08 Q2330.18 1466.51 2330.18 1459.41 Q2330.18 1452.28 2328.35 1448.74 Q2326.54 1445.17 2322.91 1445.17 M2322.91 1441.47 Q2328.72 1441.47 2331.77 1446.07 Q2334.85 1450.66 2334.85 1459.41 Q2334.85 1468.13 2331.77 1472.74 Q2328.72 1477.32 2322.91 1477.32 Q2317.1 1477.32 2314.02 1472.74 Q2310.96 1468.13 2310.96 1459.41 Q2310.96 1450.66 2314.02 1446.07 Q2317.1 1441.47 2322.91 1441.47 Z" fill="#000000" fill-rule="evenodd" fill-opacity="1" /><path clip-path="url(#clip930)" d="M 0 0 M190.288 1372.19 Q186.677 1372.19 184.848 1375.76 Q183.042 1379.3 183.042 1386.43 Q183.042 1393.54 184.848 1397.1 Q186.677 1400.64 190.288 1400.64 Q193.922 1400.64 195.727 1397.1 Q197.556 1393.54 197.556 1386.43 Q197.556 1379.3 195.727 1375.76 Q193.922 1372.19 190.288 1372.19 M190.288 1368.49 Q196.098 1368.49 199.153 1373.1 Q202.232 1377.68 202.232 1386.43 Q202.232 1395.16 199.153 1399.76 Q196.098 1404.35 190.288 1404.35 Q184.477 1404.35 181.399 1399.76 Q178.343 1395.16 178.343 1386.43 Q178.343 1377.68 181.399 1373.1 Q184.477 1368.49 190.288 1368.49 Z" fill="#000000" fill-rule="evenodd" fill-opacity="1" /><path clip-path="url(#clip930)" d="M 0 0 M154.316 1128.7 L172.672 1128.7 L172.672 1132.63 L158.598 1132.63 L158.598 1141.1 Q159.616 1140.76 160.635 1140.59 Q161.653 1140.41 162.672 1140.41 Q168.459 1140.41 171.839 1143.58 Q175.218 1146.75 175.218 1152.17 Q175.218 1157.75 171.746 1160.85 Q168.274 1163.93 161.954 1163.93 Q159.778 1163.93 157.51 1163.56 Q155.265 1163.19 152.857 1162.45 L152.857 1157.75 Q154.941 1158.88 157.163 1159.44 Q159.385 1159.99 161.862 1159.99 Q165.866 1159.99 168.204 1157.89 Q170.542 1155.78 170.542 1152.17 Q170.542 1148.56 168.204 1146.45 Q165.866 1144.34 161.862 1144.34 Q159.987 1144.34 158.112 1144.76 Q156.26 1145.18 154.316 1146.06 L154.316 1128.7 Z" fill="#000000" fill-rule="evenodd" fill-opacity="1" /><path clip-path="url(#clip930)" d="M 0 0 M190.288 1131.77 Q186.677 1131.77 184.848 1135.34 Q183.042 1138.88 183.042 1146.01 Q183.042 1153.12 184.848 1156.68 Q186.677 1160.22 190.288 1160.22 Q193.922 1160.22 195.727 1156.68 Q197.556 1153.12 197.556 1146.01 Q197.556 1138.88 195.727 1135.34 Q193.922 1131.77 190.288 1131.77 M190.288 1128.07 Q196.098 1128.07 199.153 1132.68 Q202.232 1137.26 202.232 1146.01 Q202.232 1154.74 199.153 1159.34 Q196.098 1163.93 190.288 1163.93 Q184.477 1163.93 181.399 1159.34 Q178.343 1154.74 178.343 1146.01 Q178.343 1137.26 181.399 1132.68 Q184.477 1128.07 190.288 1128.07 Z" fill="#000000" fill-rule="evenodd" fill-opacity="1" /><path clip-path="url(#clip930)" d="M 0 0 M128.297 918.902 L135.936 918.902 L135.936 892.536 L127.626 894.203 L127.626 889.943 L135.89 888.277 L140.566 888.277 L140.566 918.902 L148.204 918.902 L148.204 922.837 L128.297 922.837 L128.297 918.902 Z" fill="#000000" fill-rule="evenodd" fill-opacity="1" /><path clip-path="url(#clip930)" d="M 0 0 M163.274 891.355 Q159.663 891.355 157.834 894.92 Q156.029 898.462 156.029 905.591 Q156.029 912.698 157.834 916.263 Q159.663 919.804 163.274 919.804 Q166.908 919.804 168.714 916.263 Q170.542 912.698 170.542 905.591 Q170.542 898.462 168.714 894.92 Q166.908 891.355 163.274 891.355 M163.274 887.652 Q169.084 887.652 172.14 892.258 Q175.218 896.841 175.218 905.591 Q175.218 914.318 172.14 918.925 Q169.084 923.508 163.274 923.508 Q157.464 923.508 154.385 918.925 Q151.329 914.318 151.329 905.591 Q151.329 896.841 154.385 892.258 Q157.464 887.652 163.274 887.652 Z" fill="#000000" fill-rule="evenodd" fill-opacity="1" /><path clip-path="url(#clip930)" d="M 0 0 M190.288 891.355 Q186.677 891.355 184.848 894.92 Q183.042 898.462 183.042 905.591 Q183.042 912.698 184.848 916.263 Q186.677 919.804 190.288 919.804 Q193.922 919.804 195.727 916.263 Q197.556 912.698 197.556 905.591 Q197.556 898.462 195.727 894.92 Q193.922 891.355 190.288 891.355 M190.288 887.652 Q196.098 887.652 199.153 892.258 Q202.232 896.841 202.232 905.591 Q202.232 914.318 199.153 918.925 Q196.098 923.508 190.288 923.508 Q184.477 923.508 181.399 918.925 Q178.343 914.318 178.343 905.591 Q178.343 896.841 181.399 892.258 Q184.477 887.652 190.288 887.652 Z" fill="#000000" fill-rule="evenodd" fill-opacity="1" /><path clip-path="url(#clip930)" d="M 0 0 M129.293 678.482 L136.931 678.482 L136.931 652.116 L128.621 653.783 L128.621 649.524 L136.885 647.857 L141.561 647.857 L141.561 678.482 L149.2 678.482 L149.2 682.417 L129.293 682.417 L129.293 678.482 Z" fill="#000000" fill-rule="evenodd" fill-opacity="1" /><path clip-path="url(#clip930)" d="M 0 0 M154.316 647.857 L172.672 647.857 L172.672 651.792 L158.598 651.792 L158.598 660.265 Q159.616 659.917 160.635 659.755 Q161.653 659.57 162.672 659.57 Q168.459 659.57 171.839 662.741 Q175.218 665.913 175.218 671.329 Q175.218 676.908 171.746 680.01 Q168.274 683.089 161.954 683.089 Q159.778 683.089 157.51 682.718 Q155.265 682.348 152.857 681.607 L152.857 676.908 Q154.941 678.042 157.163 678.598 Q159.385 679.153 161.862 679.153 Q165.866 679.153 168.204 677.047 Q170.542 674.94 170.542 671.329 Q170.542 667.718 168.204 665.612 Q165.866 663.505 161.862 663.505 Q159.987 663.505 158.112 663.922 Q156.26 664.339 154.316 665.218 L154.316 647.857 Z" fill="#000000" fill-rule="evenodd" fill-opacity="1" /><path clip-path="url(#clip930)" d="M 0 0 M190.288 650.936 Q186.677 650.936 184.848 654.501 Q183.042 658.042 183.042 665.172 Q183.042 672.278 184.848 675.843 Q186.677 679.385 190.288 679.385 Q193.922 679.385 195.727 675.843 Q197.556 672.278 197.556 665.172 Q197.556 658.042 195.727 654.501 Q193.922 650.936 190.288 650.936 M190.288 647.232 Q196.098 647.232 199.153 651.839 Q202.232 656.422 202.232 665.172 Q202.232 673.899 199.153 678.505 Q196.098 683.089 190.288 683.089 Q184.477 683.089 181.399 678.505 Q178.343 673.899 178.343 665.172 Q178.343 656.422 181.399 651.839 Q184.477 647.232 190.288 647.232 Z" fill="#000000" fill-rule="evenodd" fill-opacity="1" /><path clip-path="url(#clip930)" d="M 0 0 M131.885 438.063 L148.204 438.063 L148.204 441.998 L126.26 441.998 L126.26 438.063 Q128.922 435.308 133.505 430.678 Q138.112 426.026 139.292 424.683 Q141.538 422.16 142.417 420.424 Q143.32 418.665 143.32 416.975 Q143.32 414.22 141.376 412.484 Q139.455 410.748 136.353 410.748 Q134.154 410.748 131.7 411.512 Q129.269 412.276 126.492 413.827 L126.492 409.104 Q129.316 407.97 131.769 407.391 Q134.223 406.813 136.26 406.813 Q141.63 406.813 144.825 409.498 Q148.019 412.183 148.019 416.674 Q148.019 418.803 147.209 420.725 Q146.422 422.623 144.316 425.215 Q143.737 425.887 140.635 429.104 Q137.533 432.299 131.885 438.063 Z" fill="#000000" fill-rule="evenodd" fill-opacity="1" /><path clip-path="url(#clip930)" d="M 0 0 M163.274 410.516 Q159.663 410.516 157.834 414.081 Q156.029 417.623 156.029 424.752 Q156.029 431.859 157.834 435.424 Q159.663 438.965 163.274 438.965 Q166.908 438.965 168.714 435.424 Q170.542 431.859 170.542 424.752 Q170.542 417.623 168.714 414.081 Q166.908 410.516 163.274 410.516 M163.274 406.813 Q169.084 406.813 172.14 411.419 Q175.218 416.003 175.218 424.752 Q175.218 433.479 172.14 438.086 Q169.084 442.669 163.274 442.669 Q157.464 442.669 154.385 438.086 Q151.329 433.479 151.329 424.752 Q151.329 416.003 154.385 411.419 Q157.464 406.813 163.274 406.813 Z" fill="#000000" fill-rule="evenodd" fill-opacity="1" /><path clip-path="url(#clip930)" d="M 0 0 M190.288 410.516 Q186.677 410.516 184.848 414.081 Q183.042 417.623 183.042 424.752 Q183.042 431.859 184.848 435.424 Q186.677 438.965 190.288 438.965 Q193.922 438.965 195.727 435.424 Q197.556 431.859 197.556 424.752 Q197.556 417.623 195.727 414.081 Q193.922 410.516 190.288 410.516 M190.288 406.813 Q196.098 406.813 199.153 411.419 Q202.232 416.003 202.232 424.752 Q202.232 433.479 199.153 438.086 Q196.098 442.669 190.288 442.669 Q184.477 442.669 181.399 438.086 Q178.343 433.479 178.343 424.752 Q178.343 416.003 181.399 411.419 Q184.477 406.813 190.288 406.813 Z" fill="#000000" fill-rule="evenodd" fill-opacity="1" /><path clip-path="url(#clip930)" d="M 0 0 M132.88 197.643 L149.2 197.643 L149.2 201.578 L127.256 201.578 L127.256 197.643 Q129.918 194.888 134.501 190.259 Q139.107 185.606 140.288 184.264 Q142.533 181.74 143.413 180.004 Q144.316 178.245 144.316 176.555 Q144.316 173.801 142.371 172.065 Q140.45 170.328 137.348 170.328 Q135.149 170.328 132.695 171.092 Q130.265 171.856 127.487 173.407 L127.487 168.685 Q130.311 167.551 132.765 166.972 Q135.218 166.393 137.255 166.393 Q142.626 166.393 145.82 169.078 Q149.015 171.764 149.015 176.254 Q149.015 178.384 148.204 180.305 Q147.417 182.203 145.311 184.796 Q144.732 185.467 141.63 188.685 Q138.529 191.879 132.88 197.643 Z" fill="#000000" fill-rule="evenodd" fill-opacity="1" /><path clip-path="url(#clip930)" d="M 0 0 M154.316 167.018 L172.672 167.018 L172.672 170.953 L158.598 170.953 L158.598 179.426 Q159.616 179.078 160.635 178.916 Q161.653 178.731 162.672 178.731 Q168.459 178.731 171.839 181.902 Q175.218 185.074 175.218 190.49 Q175.218 196.069 171.746 199.171 Q168.274 202.25 161.954 202.25 Q159.778 202.25 157.51 201.879 Q155.265 201.509 152.857 200.768 L152.857 196.069 Q154.941 197.203 157.163 197.759 Q159.385 198.314 161.862 198.314 Q165.866 198.314 168.204 196.208 Q170.542 194.101 170.542 190.49 Q170.542 186.879 168.204 184.773 Q165.866 182.666 161.862 182.666 Q159.987 182.666 158.112 183.083 Q156.26 183.5 154.316 184.379 L154.316 167.018 Z" fill="#000000" fill-rule="evenodd" fill-opacity="1" /><path clip-path="url(#clip930)" d="M 0 0 M190.288 170.097 Q186.677 170.097 184.848 173.662 Q183.042 177.203 183.042 184.333 Q183.042 191.439 184.848 195.004 Q186.677 198.546 190.288 198.546 Q193.922 198.546 195.727 195.004 Q197.556 191.439 197.556 184.333 Q197.556 177.203 195.727 173.662 Q193.922 170.097 190.288 170.097 M190.288 166.393 Q196.098 166.393 199.153 171 Q202.232 175.583 202.232 184.333 Q202.232 193.06 199.153 197.666 Q196.098 202.25 190.288 202.25 Q184.477 202.25 181.399 197.666 Q178.343 193.06 178.343 184.333 Q178.343 175.583 181.399 171 Q184.477 166.393 190.288 166.393 Z" fill="#000000" fill-rule="evenodd" fill-opacity="1" /><path clip-path="url(#clip930)" d="M 0 0 M1033.56 12.096 L1071.8 12.096 L1071.8 18.9825 L1041.74 18.9825 L1041.74 36.8875 L1070.54 36.8875 L1070.54 43.7741 L1041.74 43.7741 L1041.74 65.6895 L1072.53 65.6895 L1072.53 72.576 L1033.56 72.576 L1033.56 12.096 Z" fill="#000000" fill-rule="evenodd" fill-opacity="1" /><path clip-path="url(#clip930)" d="M 0 0 M1118.06 27.2059 L1101.65 49.2833 L1118.91 72.576 L1110.12 72.576 L1096.91 54.752 L1083.71 72.576 L1074.92 72.576 L1092.54 48.8377 L1076.42 27.2059 L1085.21 27.2059 L1097.24 43.369 L1109.27 27.2059 L1118.06 27.2059 Z" fill="#000000" fill-rule="evenodd" fill-opacity="1" /><path clip-path="url(#clip930)" d="M 0 0 M1147.35 49.7694 Q1138.31 49.7694 1134.83 51.8354 Q1131.35 53.9013 1131.35 58.8839 Q1131.35 62.8538 1133.94 65.2034 Q1136.57 67.5124 1141.07 67.5124 Q1147.27 67.5124 1150.99 63.1374 Q1154.76 58.7219 1154.76 51.4303 L1154.76 49.7694 L1147.35 49.7694 M1162.21 46.6907 L1162.21 72.576 L1154.76 72.576 L1154.76 65.6895 Q1152.21 69.8214 1148.4 71.8063 Q1144.59 73.7508 1139.08 73.7508 Q1132.12 73.7508 1127.98 69.8619 Q1123.89 65.9325 1123.89 59.3701 Q1123.89 51.7138 1129 47.825 Q1134.14 43.9361 1144.31 43.9361 L1154.76 43.9361 L1154.76 43.2069 Q1154.76 38.0623 1151.36 35.2672 Q1148 32.4315 1141.88 32.4315 Q1137.99 32.4315 1134.3 33.3632 Q1130.62 34.295 1127.21 36.1584 L1127.21 29.2718 Q1131.31 27.692 1135.15 26.9223 Q1139 26.1121 1142.65 26.1121 Q1152.49 26.1121 1157.35 31.2163 Q1162.21 36.3204 1162.21 46.6907 Z" fill="#000000" fill-rule="evenodd" fill-opacity="1" /><path clip-path="url(#clip930)" d="M 0 0 M1202.68 28.9478 L1202.68 35.9153 Q1199.52 34.1734 1196.32 33.3227 Q1193.16 32.4315 1189.92 32.4315 Q1182.67 32.4315 1178.66 37.0496 Q1174.65 41.6271 1174.65 49.9314 Q1174.65 58.2358 1178.66 62.8538 Q1182.67 67.4314 1189.92 67.4314 Q1193.16 67.4314 1196.32 66.5807 Q1199.52 65.6895 1202.68 63.9476 L1202.68 70.8341 Q1199.56 72.2924 1196.2 73.0216 Q1192.88 73.7508 1189.11 73.7508 Q1178.86 73.7508 1172.83 67.3098 Q1166.79 60.8689 1166.79 49.9314 Q1166.79 38.832 1172.87 32.472 Q1178.99 26.1121 1189.6 26.1121 Q1193.04 26.1121 1196.32 26.8413 Q1199.6 27.5299 1202.68 28.9478 Z" fill="#000000" fill-rule="evenodd" fill-opacity="1" /><path clip-path="url(#clip930)" d="M 0 0 M1217.87 14.324 L1217.87 27.2059 L1233.23 27.2059 L1233.23 32.9987 L1217.87 32.9987 L1217.87 57.6282 Q1217.87 63.1779 1219.37 64.7578 Q1220.91 66.3376 1225.57 66.3376 L1233.23 66.3376 L1233.23 72.576 L1225.57 72.576 Q1216.94 72.576 1213.66 69.3758 Q1210.38 66.1351 1210.38 57.6282 L1210.38 32.9987 L1204.91 32.9987 L1204.91 27.2059 L1210.38 27.2059 L1210.38 14.324 L1217.87 14.324 Z" fill="#000000" fill-rule="evenodd" fill-opacity="1" /><path clip-path="url(#clip930)" d="M 0 0 M1262.07 27.2059 L1269.97 27.2059 L1284.15 65.2844 L1298.32 27.2059 L1306.22 27.2059 L1289.21 72.576 L1279.08 72.576 L1262.07 27.2059 Z" fill="#000000" fill-rule="evenodd" fill-opacity="1" /><path clip-path="url(#clip930)" d="M 0 0 M1342.97 28.5427 L1342.97 35.5912 Q1339.81 33.9709 1336.4 33.1607 Q1333 32.3505 1329.35 32.3505 Q1323.81 32.3505 1321.01 34.0519 Q1318.26 35.7533 1318.26 39.156 Q1318.26 41.7486 1320.24 43.2475 Q1322.23 44.7058 1328.22 46.0426 L1330.77 46.6097 Q1338.71 48.3111 1342.03 51.4303 Q1345.4 54.509 1345.4 60.0587 Q1345.4 66.3781 1340.37 70.0644 Q1335.39 73.7508 1326.64 73.7508 Q1322.99 73.7508 1319.03 73.0216 Q1315.1 72.3329 1310.72 70.9151 L1310.72 63.2184 Q1314.85 65.3654 1318.86 66.4591 Q1322.87 67.5124 1326.8 67.5124 Q1332.07 67.5124 1334.9 65.73 Q1337.74 63.9071 1337.74 60.6258 Q1337.74 57.5877 1335.67 55.9673 Q1333.65 54.3469 1326.72 52.8481 L1324.13 52.2405 Q1317.2 50.7821 1314.12 47.7845 Q1311.04 44.7463 1311.04 39.4801 Q1311.04 33.0797 1315.58 29.5959 Q1320.12 26.1121 1328.46 26.1121 Q1332.6 26.1121 1336.24 26.7198 Q1339.89 27.3274 1342.97 28.5427 Z" fill="#000000" fill-rule="evenodd" fill-opacity="1" /><path clip-path="url(#clip930)" d="M 0 0 M1354.27 62.2867 L1362.82 62.2867 L1362.82 72.576 L1354.27 72.576 L1354.27 62.2867 Z" fill="#000000" fill-rule="evenodd" fill-opacity="1" /><path clip-path="url(#clip930)" d="M 0 0 M1404.22 65.7705 L1404.22 89.8329 L1396.72 89.8329 L1396.72 27.2059 L1404.22 27.2059 L1404.22 34.0924 Q1406.57 30.0415 1410.13 28.0971 Q1413.74 26.1121 1418.72 26.1121 Q1426.98 26.1121 1432.13 32.6746 Q1437.31 39.2371 1437.31 49.9314 Q1437.31 60.6258 1432.13 67.1883 Q1426.98 73.7508 1418.72 73.7508 Q1413.74 73.7508 1410.13 71.8063 Q1406.57 69.8214 1404.22 65.7705 M1429.57 49.9314 Q1429.57 41.7081 1426.17 37.0496 Q1422.81 32.3505 1416.89 32.3505 Q1410.98 32.3505 1407.58 37.0496 Q1404.22 41.7081 1404.22 49.9314 Q1404.22 58.1548 1407.58 62.8538 Q1410.98 67.5124 1416.89 67.5124 Q1422.81 67.5124 1426.17 62.8538 Q1429.57 58.1548 1429.57 49.9314 Z" fill="#000000" fill-rule="evenodd" fill-opacity="1" /><path clip-path="url(#clip930)" d="M 0 0 M1462.71 32.4315 Q1456.72 32.4315 1453.23 37.1306 Q1449.75 41.7891 1449.75 49.9314 Q1449.75 58.0738 1453.19 62.7728 Q1456.67 67.4314 1462.71 67.4314 Q1468.67 67.4314 1472.15 62.7323 Q1475.63 58.0333 1475.63 49.9314 Q1475.63 41.8701 1472.15 37.1711 Q1468.67 32.4315 1462.71 32.4315 M1462.71 26.1121 Q1472.43 26.1121 1477.98 32.4315 Q1483.53 38.7509 1483.53 49.9314 Q1483.53 61.0714 1477.98 67.4314 Q1472.43 73.7508 1462.71 73.7508 Q1452.95 73.7508 1447.4 67.4314 Q1441.89 61.0714 1441.89 49.9314 Q1441.89 38.7509 1447.4 32.4315 Q1452.95 26.1121 1462.71 26.1121 Z" fill="#000000" fill-rule="evenodd" fill-opacity="1" /><path clip-path="url(#clip930)" d="M 0 0 M1491.35 9.54393 L1498.8 9.54393 L1498.8 72.576 L1491.35 72.576 L1491.35 9.54393 Z" fill="#000000" fill-rule="evenodd" fill-opacity="1" /><path clip-path="url(#clip930)" d="M 0 0 M1525.5 76.7889 Q1522.34 84.8907 1519.34 87.3618 Q1516.34 89.8329 1511.32 89.8329 L1505.37 89.8329 L1505.37 83.5945 L1509.74 83.5945 Q1512.82 83.5945 1514.52 82.1361 Q1516.22 80.6778 1518.29 75.2496 L1519.63 71.8468 L1501.28 27.2059 L1509.17 27.2059 L1523.35 62.6918 L1537.53 27.2059 L1545.43 27.2059 L1525.5 76.7889 Z" fill="#000000" fill-rule="evenodd" fill-opacity="1" /><path clip-path="url(#clip930)" d="M 0 0 M1193.42 1525.81 L1193.42 1506.52 L1199.28 1506.52 L1199.28 1556.04 L1193.42 1556.04 L1193.42 1550.7 Q1191.57 1553.88 1188.74 1555.44 Q1185.94 1556.97 1181.99 1556.97 Q1175.53 1556.97 1171.46 1551.81 Q1167.42 1546.65 1167.42 1538.25 Q1167.42 1529.85 1171.46 1524.69 Q1175.53 1519.54 1181.99 1519.54 Q1185.94 1519.54 1188.74 1521.1 Q1191.57 1522.62 1193.42 1525.81 M1173.46 1538.25 Q1173.46 1544.71 1176.1 1548.4 Q1178.78 1552.07 1183.43 1552.07 Q1188.07 1552.07 1190.75 1548.4 Q1193.42 1544.71 1193.42 1538.25 Q1193.42 1531.79 1190.75 1528.13 Q1188.07 1524.44 1183.43 1524.44 Q1178.78 1524.44 1176.1 1528.13 Q1173.46 1531.79 1173.46 1538.25 Z" fill="#000000" fill-rule="evenodd" fill-opacity="1" /><path clip-path="url(#clip930)" d="M 0 0 M1235.91 1536.76 L1235.91 1539.62 L1208.98 1539.62 Q1209.37 1545.67 1212.61 1548.85 Q1215.89 1552 1221.72 1552 Q1225.09 1552 1228.24 1551.17 Q1231.42 1550.35 1234.54 1548.69 L1234.54 1554.23 Q1231.39 1555.57 1228.08 1556.27 Q1224.77 1556.97 1221.36 1556.97 Q1212.83 1556.97 1207.84 1552 Q1202.87 1547.04 1202.87 1538.57 Q1202.87 1529.82 1207.58 1524.69 Q1212.33 1519.54 1220.35 1519.54 Q1227.54 1519.54 1231.71 1524.18 Q1235.91 1528.8 1235.91 1536.76 M1230.05 1535.04 Q1229.99 1530.23 1227.35 1527.37 Q1224.74 1524.5 1220.41 1524.5 Q1215.51 1524.5 1212.55 1527.27 Q1209.62 1530.04 1209.17 1535.07 L1230.05 1535.04 Z" fill="#000000" fill-rule="evenodd" fill-opacity="1" /><path clip-path="url(#clip930)" d="M 0 0 M1267.71 1521.76 L1267.71 1527.24 Q1265.22 1525.87 1262.71 1525.2 Q1260.23 1524.5 1257.68 1524.5 Q1251.98 1524.5 1248.83 1528.13 Q1245.68 1531.73 1245.68 1538.25 Q1245.68 1544.78 1248.83 1548.4 Q1251.98 1552 1257.68 1552 Q1260.23 1552 1262.71 1551.33 Q1265.22 1550.63 1267.71 1549.26 L1267.71 1554.68 Q1265.26 1555.82 1262.61 1556.39 Q1260 1556.97 1257.04 1556.97 Q1248.99 1556.97 1244.25 1551.91 Q1239.51 1546.85 1239.51 1538.25 Q1239.51 1529.53 1244.28 1524.53 Q1249.09 1519.54 1257.43 1519.54 Q1260.13 1519.54 1262.71 1520.11 Q1265.29 1520.65 1267.71 1521.76 Z" fill="#000000" fill-rule="evenodd" fill-opacity="1" /><path clip-path="url(#clip930)" d="M 0 0 M1287.66 1524.5 Q1282.95 1524.5 1280.22 1528.19 Q1277.48 1531.85 1277.48 1538.25 Q1277.48 1544.65 1280.18 1548.34 Q1282.92 1552 1287.66 1552 Q1292.34 1552 1295.08 1548.31 Q1297.82 1544.62 1297.82 1538.25 Q1297.82 1531.92 1295.08 1528.23 Q1292.34 1524.5 1287.66 1524.5 M1287.66 1519.54 Q1295.3 1519.54 1299.66 1524.5 Q1304.02 1529.47 1304.02 1538.25 Q1304.02 1547 1299.66 1552 Q1295.3 1556.97 1287.66 1556.97 Q1279.99 1556.97 1275.63 1552 Q1271.3 1547 1271.3 1538.25 Q1271.3 1529.47 1275.63 1524.5 Q1279.99 1519.54 1287.66 1519.54 Z" fill="#000000" fill-rule="evenodd" fill-opacity="1" /><path clip-path="url(#clip930)" d="M 0 0 M1333.62 1525.81 L1333.62 1506.52 L1339.48 1506.52 L1339.48 1556.04 L1333.62 1556.04 L1333.62 1550.7 Q1331.78 1553.88 1328.95 1555.44 Q1326.14 1556.97 1322.2 1556.97 Q1315.74 1556.97 1311.66 1551.81 Q1307.62 1546.65 1307.62 1538.25 Q1307.62 1529.85 1311.66 1524.69 Q1315.74 1519.54 1322.2 1519.54 Q1326.14 1519.54 1328.95 1521.1 Q1331.78 1522.62 1333.62 1525.81 M1313.67 1538.25 Q1313.67 1544.71 1316.31 1548.4 Q1318.98 1552.07 1323.63 1552.07 Q1328.28 1552.07 1330.95 1548.4 Q1333.62 1544.71 1333.62 1538.25 Q1333.62 1531.79 1330.95 1528.13 Q1328.28 1524.44 1323.63 1524.44 Q1318.98 1524.44 1316.31 1528.13 Q1313.67 1531.79 1313.67 1538.25 Z" fill="#000000" fill-rule="evenodd" fill-opacity="1" /><path clip-path="url(#clip930)" d="M 0 0 M1376.12 1536.76 L1376.12 1539.62 L1349.19 1539.62 Q1349.57 1545.67 1352.82 1548.85 Q1356.1 1552 1361.92 1552 Q1365.29 1552 1368.44 1551.17 Q1371.63 1550.35 1374.75 1548.69 L1374.75 1554.23 Q1371.6 1555.57 1368.29 1556.27 Q1364.98 1556.97 1361.57 1556.97 Q1353.04 1556.97 1348.04 1552 Q1343.08 1547.04 1343.08 1538.57 Q1343.08 1529.82 1347.79 1524.69 Q1352.53 1519.54 1360.55 1519.54 Q1367.74 1519.54 1371.91 1524.18 Q1376.12 1528.8 1376.12 1536.76 M1370.26 1535.04 Q1370.2 1530.23 1367.55 1527.37 Q1364.94 1524.5 1360.61 1524.5 Q1355.71 1524.5 1352.75 1527.27 Q1349.82 1530.04 1349.38 1535.07 L1370.26 1535.04 Z" fill="#000000" fill-rule="evenodd" fill-opacity="1" /><path clip-path="url(#clip930)" d="M 0 0 M1405.72 1525.81 L1405.72 1506.52 L1411.57 1506.52 L1411.57 1556.04 L1405.72 1556.04 L1405.72 1550.7 Q1403.87 1553.88 1401.04 1555.44 Q1398.24 1556.97 1394.29 1556.97 Q1387.83 1556.97 1383.75 1551.81 Q1379.71 1546.65 1379.71 1538.25 Q1379.71 1529.85 1383.75 1524.69 Q1387.83 1519.54 1394.29 1519.54 Q1398.24 1519.54 1401.04 1521.1 Q1403.87 1522.62 1405.72 1525.81 M1385.76 1538.25 Q1385.76 1544.71 1388.4 1548.4 Q1391.07 1552.07 1395.72 1552.07 Q1400.37 1552.07 1403.04 1548.4 Q1405.72 1544.71 1405.72 1538.25 Q1405.72 1531.79 1403.04 1528.13 Q1400.37 1524.44 1395.72 1524.44 Q1391.07 1524.44 1388.4 1528.13 Q1385.76 1531.79 1385.76 1538.25 Z" fill="#000000" fill-rule="evenodd" fill-opacity="1" /><path clip-path="url(#clip930)" d="M 0 0 M68.7161 862.525 L71.5806 862.525 L71.5806 889.452 Q77.6281 889.07 80.8109 885.824 Q83.9619 882.546 83.9619 876.721 Q83.9619 873.347 83.1344 870.196 Q82.3069 867.013 80.6518 863.894 L86.1899 863.894 Q87.5267 867.045 88.227 870.355 Q88.9272 873.665 88.9272 877.071 Q88.9272 885.601 83.9619 890.598 Q78.9967 895.563 70.5303 895.563 Q61.7774 895.563 56.6531 890.853 Q51.4968 886.11 51.4968 878.09 Q51.4968 870.896 56.1438 866.727 Q60.7589 862.525 68.7161 862.525 M66.9973 868.382 Q62.1912 868.446 59.3266 871.087 Q56.4621 873.697 56.4621 878.026 Q56.4621 882.928 59.2312 885.888 Q62.0002 888.816 67.0292 889.261 L66.9973 868.382 Z" fill="#000000" fill-rule="evenodd" fill-opacity="1" /><path clip-path="url(#clip930)" d="M 0 0 M66.4881 826.75 L88.0042 826.75 L88.0042 832.607 L66.679 832.607 Q61.6183 832.607 59.1038 834.58 Q56.5894 836.553 56.5894 840.5 Q56.5894 845.243 59.6131 847.98 Q62.6368 850.717 67.8567 850.717 L88.0042 850.717 L88.0042 856.605 L52.3562 856.605 L52.3562 850.717 L57.8944 850.717 Q54.6797 848.616 53.0883 845.784 Q51.4968 842.919 51.4968 839.195 Q51.4968 833.052 55.3163 829.901 Q59.1038 826.75 66.4881 826.75 Z" fill="#000000" fill-rule="evenodd" fill-opacity="1" /><path clip-path="url(#clip930)" d="M 0 0 M53.7248 794.953 L59.1993 794.953 Q57.8307 797.436 57.1623 799.951 Q56.4621 802.433 56.4621 804.979 Q56.4621 810.677 60.0905 813.828 Q63.6872 816.979 70.212 816.979 Q76.7369 816.979 80.3653 813.828 Q83.9619 810.677 83.9619 804.979 Q83.9619 802.433 83.2935 799.951 Q82.5933 797.436 81.2247 794.953 L86.6355 794.953 Q87.7814 797.404 88.3543 800.046 Q88.9272 802.656 88.9272 805.616 Q88.9272 813.669 83.8664 818.411 Q78.8057 823.154 70.212 823.154 Q61.491 823.154 56.4939 818.379 Q51.4968 813.573 51.4968 805.234 Q51.4968 802.529 52.0697 799.951 Q52.6108 797.372 53.7248 794.953 Z" fill="#000000" fill-rule="evenodd" fill-opacity="1" /><path clip-path="url(#clip930)" d="M 0 0 M56.4621 774.997 Q56.4621 779.708 60.1542 782.445 Q63.8145 785.182 70.212 785.182 Q76.6095 785.182 80.3017 782.477 Q83.9619 779.739 83.9619 774.997 Q83.9619 770.318 80.2698 767.581 Q76.5777 764.844 70.212 764.844 Q63.8781 764.844 60.186 767.581 Q56.4621 770.318 56.4621 774.997 M51.4968 774.997 Q51.4968 767.358 56.4621 762.998 Q61.4273 758.637 70.212 758.637 Q78.9649 758.637 83.9619 762.998 Q88.9272 767.358 88.9272 774.997 Q88.9272 782.668 83.9619 787.028 Q78.9649 791.357 70.212 791.357 Q61.4273 791.357 56.4621 787.028 Q51.4968 782.668 51.4968 774.997 Z" fill="#000000" fill-rule="evenodd" fill-opacity="1" /><path clip-path="url(#clip930)" d="M 0 0 M57.7671 729.037 L38.479 729.037 L38.479 723.18 L88.0042 723.18 L88.0042 729.037 L82.657 729.037 Q85.8398 730.883 87.3994 733.715 Q88.9272 736.516 88.9272 740.463 Q88.9272 746.924 83.771 750.998 Q78.6147 755.04 70.212 755.04 Q61.8093 755.04 56.6531 750.998 Q51.4968 746.924 51.4968 740.463 Q51.4968 736.516 53.0564 733.715 Q54.5842 730.883 57.7671 729.037 M70.212 748.993 Q76.6732 748.993 80.3653 746.351 Q84.0256 743.678 84.0256 739.031 Q84.0256 734.384 80.3653 731.71 Q76.6732 729.037 70.212 729.037 Q63.7508 729.037 60.0905 731.71 Q56.3984 734.384 56.3984 739.031 Q56.3984 743.678 60.0905 746.351 Q63.7508 748.993 70.212 748.993 Z" fill="#000000" fill-rule="evenodd" fill-opacity="1" /><path clip-path="url(#clip930)" d="M 0 0 M68.7161 686.545 L71.5806 686.545 L71.5806 713.472 Q77.6281 713.09 80.8109 709.844 Q83.9619 706.566 83.9619 700.741 Q83.9619 697.367 83.1344 694.216 Q82.3069 691.033 80.6518 687.914 L86.1899 687.914 Q87.5267 691.065 88.227 694.375 Q88.9272 697.685 88.9272 701.091 Q88.9272 709.621 83.9619 714.618 Q78.9967 719.584 70.5303 719.584 Q61.7774 719.584 56.6531 714.873 Q51.4968 710.13 51.4968 702.11 Q51.4968 694.916 56.1438 690.747 Q60.7589 686.545 68.7161 686.545 M66.9973 692.402 Q62.1912 692.466 59.3266 695.107 Q56.4621 697.717 56.4621 702.046 Q56.4621 706.948 59.2312 709.908 Q62.0002 712.836 67.0292 713.281 L66.9973 692.402 Z" fill="#000000" fill-rule="evenodd" fill-opacity="1" /><path clip-path="url(#clip930)" d="M 0 0 M57.7671 656.945 L38.479 656.945 L38.479 651.089 L88.0042 651.089 L88.0042 656.945 L82.657 656.945 Q85.8398 658.791 87.3994 661.624 Q88.9272 664.425 88.9272 668.371 Q88.9272 674.833 83.771 678.907 Q78.6147 682.949 70.212 682.949 Q61.8093 682.949 56.6531 678.907 Q51.4968 674.833 51.4968 668.371 Q51.4968 664.425 53.0564 661.624 Q54.5842 658.791 57.7671 656.945 M70.212 676.901 Q76.6732 676.901 80.3653 674.26 Q84.0256 671.586 84.0256 666.939 Q84.0256 662.292 80.3653 659.619 Q76.6732 656.945 70.212 656.945 Q63.7508 656.945 60.0905 659.619 Q56.3984 662.292 56.3984 666.939 Q56.3984 671.586 60.0905 674.26 Q63.7508 676.901 70.212 676.901 Z" fill="#000000" fill-rule="evenodd" fill-opacity="1" /><polyline clip-path="url(#clip932)" style="stroke:#009af9; stroke-width:4; stroke-opacity:1; fill:none" points="
  286.417,1386.4 288.423,1371.97 290.429,1352.74 292.435,1338.31 294.441,1323.89 296.447,1309.46 298.454,1299.84 300.46,1290.23 302.466,1280.61 304.472,1270.99 
  306.478,1266.19 308.484,1256.57 310.49,1246.95 312.497,1242.14 314.503,1237.34 316.509,1227.72 318.515,1222.91 320.521,1218.1 322.527,1213.29 324.534,1203.68 
  326.54,1198.87 328.546,1194.06 330.552,1189.25 332.558,1184.44 334.564,1179.63 336.57,1174.83 338.577,1170.02 340.583,1165.21 342.589,1160.4 344.595,1155.59 
  346.601,1155.59 348.607,1150.78 350.614,1145.98 352.62,1141.17 354.626,1136.36 356.632,1131.55 358.638,1131.55 360.644,1126.74 362.65,1121.93 364.657,1117.13 
  366.663,1117.13 368.669,1112.32 370.675,1107.51 372.681,1107.51 374.687,1102.7 376.694,1097.89 378.7,1093.08 380.706,1093.08 382.712,1088.28 384.718,1083.47 
  386.724,1083.47 388.73,1078.66 390.737,1078.66 392.743,1073.85 394.749,1069.04 396.755,1069.04 398.761,1064.23 400.767,1059.43 402.774,1059.43 404.78,1054.62 
  406.786,1054.62 408.792,1049.81 410.798,1049.81 412.804,1045 414.811,1040.19 416.817,1040.19 418.823,1035.38 420.829,1035.38 422.835,1030.57 424.841,1030.57 
  426.847,1025.77 428.854,1025.77 430.86,1020.96 432.866,1020.96 434.872,1016.15 436.878,1016.15 438.884,1011.34 440.891,1011.34 442.897,1006.53 444.903,1006.53 
  446.909,1001.72 448.915,1001.72 450.921,996.916 452.927,996.916 454.934,992.108 456.94,992.108 458.946,987.299 460.952,987.299 462.958,982.491 464.964,982.491 
  466.971,977.683 468.977,977.683 470.983,972.874 472.989,972.874 474.995,972.874 477.001,968.066 479.007,968.066 481.014,963.257 483.02,963.257 485.026,958.449 
  487.032,958.449 489.038,958.449 491.044,953.641 493.051,953.641 495.057,948.832 497.063,948.832 499.069,944.024 501.075,944.024 503.081,944.024 505.087,939.215 
  507.094,939.215 509.1,934.407 511.106,934.407 513.112,934.407 515.118,929.599 517.124,929.599 519.131,924.79 521.137,924.79 523.143,924.79 525.149,919.982 
  527.155,919.982 529.161,915.173 531.167,915.173 533.174,915.173 535.18,910.365 537.186,910.365 539.192,910.365 541.198,905.557 543.204,905.557 545.211,900.748 
  547.217,900.748 549.223,900.748 551.229,895.94 553.235,895.94 555.241,895.94 557.247,891.132 559.254,891.132 561.26,891.132 563.266,886.323 565.272,886.323 
  567.278,881.515 569.284,881.515 571.291,881.515 573.297,876.706 575.303,876.706 577.309,876.706 579.315,871.898 581.321,871.898 583.328,871.898 585.334,867.09 
  587.34,867.09 589.346,867.09 591.352,862.281 593.358,862.281 595.364,862.281 597.371,857.473 599.377,857.473 601.383,857.473 603.389,852.664 605.395,852.664 
  607.401,852.664 609.408,847.856 611.414,847.856 613.42,847.856 615.426,843.048 617.432,843.048 619.438,843.048 621.444,838.239 623.451,838.239 625.457,838.239 
  627.463,833.431 629.469,833.431 631.475,833.431 633.481,833.431 635.488,828.622 637.494,828.622 639.5,828.622 641.506,823.814 643.512,823.814 645.518,823.814 
  647.524,819.006 649.531,819.006 651.537,819.006 653.543,814.197 655.549,814.197 657.555,814.197 659.561,814.197 661.568,809.389 663.574,809.389 665.58,809.389 
  667.586,804.581 669.592,804.581 671.598,804.581 673.604,799.772 675.611,799.772 677.617,799.772 679.623,799.772 681.629,794.964 683.635,794.964 685.641,794.964 
  687.648,790.155 689.654,790.155 691.66,790.155 693.666,790.155 695.672,785.347 697.678,785.347 699.684,785.347 701.691,780.539 703.697,780.539 705.703,780.539 
  707.709,780.539 709.715,775.73 711.721,775.73 713.728,775.73 715.734,775.73 717.74,770.922 719.746,770.922 721.752,770.922 723.758,766.113 725.764,766.113 
  727.771,766.113 729.777,766.113 731.783,761.305 733.789,761.305 735.795,761.305 737.801,761.305 739.808,756.497 741.814,756.497 743.82,756.497 745.826,751.688 
  747.832,751.688 749.838,751.688 751.844,751.688 753.851,746.88 755.857,746.88 757.863,746.88 759.869,746.88 761.875,742.071 763.881,742.071 765.888,742.071 
  767.894,742.071 769.9,737.263 771.906,737.263 773.912,737.263 775.918,737.263 777.925,732.455 779.931,732.455 781.937,732.455 783.943,732.455 785.949,727.646 
  787.955,727.646 789.961,727.646 791.968,727.646 793.974,722.838 795.98,722.838 797.986,722.838 799.992,722.838 801.998,718.03 804.005,718.03 806.011,718.03 
  808.017,718.03 810.023,713.221 812.029,713.221 814.035,713.221 816.041,713.221 818.048,708.413 820.054,708.413 822.06,708.413 824.066,708.413 826.072,703.604 
  828.078,703.604 830.085,703.604 832.091,703.604 834.097,698.796 836.103,698.796 838.109,698.796 840.115,698.796 842.121,693.988 844.128,693.988 846.134,693.988 
  848.14,693.988 850.146,693.988 852.152,689.179 854.158,689.179 856.165,689.179 858.171,689.179 860.177,684.371 862.183,684.371 864.189,684.371 866.195,684.371 
  868.201,679.562 870.208,679.562 872.214,679.562 874.22,679.562 876.226,674.754 878.232,674.754 880.238,674.754 882.245,674.754 884.251,674.754 886.257,669.946 
  888.263,669.946 890.269,669.946 892.275,669.946 894.281,665.137 896.288,665.137 898.294,665.137 900.3,665.137 902.306,665.137 904.312,660.329 906.318,660.329 
  908.325,660.329 910.331,660.329 912.337,655.52 914.343,655.52 916.349,655.52 918.355,655.52 920.361,655.52 922.368,650.712 924.374,650.712 926.38,650.712 
  928.386,650.712 930.392,645.904 932.398,645.904 934.405,645.904 936.411,645.904 938.417,645.904 940.423,641.095 942.429,641.095 944.435,641.095 946.441,641.095 
  948.448,641.095 950.454,636.287 952.46,636.287 954.466,636.287 956.472,636.287 958.478,631.478 960.485,631.478 962.491,631.478 964.497,631.478 966.503,631.478 
  968.509,626.67 970.515,626.67 972.522,626.67 974.528,626.67 976.534,626.67 978.54,621.862 980.546,621.862 982.552,621.862 984.558,621.862 986.565,621.862 
  988.571,617.053 990.577,617.053 992.583,617.053 994.589,617.053 996.595,612.245 998.602,612.245 1000.61,612.245 1002.61,612.245 1004.62,612.245 1006.63,607.437 
  1008.63,607.437 1010.64,607.437 1012.64,607.437 1014.65,607.437 1016.66,602.628 1018.66,602.628 1020.67,602.628 1022.68,602.628 1024.68,602.628 1026.69,597.82 
  1028.69,597.82 1030.7,597.82 1032.71,597.82 1034.71,597.82 1036.72,593.011 1038.72,593.011 1040.73,593.011 1042.74,593.011 1044.74,593.011 1046.75,588.203 
  1048.76,588.203 1050.76,588.203 1052.77,588.203 1054.77,588.203 1056.78,583.395 1058.79,583.395 1060.79,583.395 1062.8,583.395 1064.8,583.395 1066.81,578.586 
  1068.82,578.586 1070.82,578.586 1072.83,578.586 1074.84,578.586 1076.84,578.586 1078.85,573.778 1080.85,573.778 1082.86,573.778 1084.87,573.778 1086.87,573.778 
  1088.88,568.969 1090.88,568.969 1092.89,568.969 1094.9,568.969 1096.9,568.969 1098.91,564.161 1100.92,564.161 1102.92,564.161 1104.93,564.161 1106.93,564.161 
  1108.94,559.353 1110.95,559.353 1112.95,559.353 1114.96,559.353 1116.96,559.353 1118.97,559.353 1120.98,554.544 1122.98,554.544 1124.99,554.544 1127,554.544 
  1129,554.544 1131.01,549.736 1133.01,549.736 1135.02,549.736 1137.03,549.736 1139.03,549.736 1141.04,544.927 1143.04,544.927 1145.05,544.927 1147.06,544.927 
  1149.06,544.927 1151.07,544.927 1153.08,540.119 1155.08,540.119 1157.09,540.119 1159.09,540.119 1161.1,540.119 1163.11,535.311 1165.11,535.311 1167.12,535.311 
  1169.12,535.311 1171.13,535.311 1173.14,535.311 1175.14,530.502 1177.15,530.502 1179.16,530.502 1181.16,530.502 1183.17,530.502 1185.17,525.694 1187.18,525.694 
  1189.19,525.694 1191.19,525.694 1193.2,525.694 1195.2,525.694 1197.21,520.886 1199.22,520.886 1201.22,520.886 1203.23,520.886 1205.24,520.886 1207.24,520.886 
  1209.25,516.077 1211.25,516.077 1213.26,516.077 1215.27,516.077 1217.27,516.077 1219.28,511.269 1221.28,511.269 1223.29,511.269 1225.3,511.269 1227.3,511.269 
  1229.31,511.269 1231.32,506.46 1233.32,506.46 1235.33,506.46 1237.33,506.46 1239.34,506.46 1241.35,506.46 1243.35,501.652 1245.36,501.652 1247.36,501.652 
  1249.37,501.652 1251.38,501.652 1253.38,501.652 1255.39,496.844 1257.4,496.844 1259.4,496.844 1261.41,496.844 1263.41,496.844 1265.42,496.844 1267.43,492.035 
  1269.43,492.035 1271.44,492.035 1273.44,492.035 1275.45,492.035 1277.46,487.227 1279.46,487.227 1281.47,487.227 1283.48,487.227 1285.48,487.227 1287.49,487.227 
  1289.49,482.418 1291.5,482.418 1293.51,482.418 1295.51,482.418 1297.52,482.418 1299.52,482.418 1301.53,477.61 1303.54,477.61 1305.54,477.61 1307.55,477.61 
  1309.56,477.61 1311.56,477.61 1313.57,472.802 1315.57,472.802 1317.58,472.802 1319.59,472.802 1321.59,472.802 1323.6,472.802 1325.6,467.993 1327.61,467.993 
  1329.62,467.993 1331.62,467.993 1333.63,467.993 1335.64,467.993 1337.64,467.993 1339.65,463.185 1341.65,463.185 1343.66,463.185 1345.67,463.185 1347.67,463.185 
  1349.68,463.185 1351.68,458.376 1353.69,458.376 1355.7,458.376 1357.7,458.376 1359.71,458.376 1361.72,458.376 1363.72,453.568 1365.73,453.568 1367.73,453.568 
  1369.74,453.568 1371.75,453.568 1373.75,453.568 1375.76,448.76 1377.76,448.76 1379.77,448.76 1381.78,448.76 1383.78,448.76 1385.79,448.76 1387.8,443.951 
  1389.8,443.951 1391.81,443.951 1393.81,443.951 1395.82,443.951 1397.83,443.951 1399.83,443.951 1401.84,439.143 1403.84,439.143 1405.85,439.143 1407.86,439.143 
  1409.86,439.143 1411.87,439.143 1413.88,434.335 1415.88,434.335 1417.89,434.335 1419.89,434.335 1421.9,434.335 1423.91,434.335 1425.91,429.526 1427.92,429.526 
  1429.92,429.526 1431.93,429.526 1433.94,429.526 1435.94,429.526 1437.95,429.526 1439.96,424.718 1441.96,424.718 1443.97,424.718 1445.97,424.718 1447.98,424.718 
  1449.99,424.718 1451.99,419.909 1454,419.909 1456,419.909 1458.01,419.909 1460.02,419.909 1462.02,419.909 1464.03,419.909 1466.04,415.101 1468.04,415.101 
  1470.05,415.101 1472.05,415.101 1474.06,415.101 1476.07,415.101 1478.07,410.293 1480.08,410.293 1482.08,410.293 1484.09,410.293 1486.1,410.293 1488.1,410.293 
  1490.11,410.293 1492.12,405.484 1494.12,405.484 1496.13,405.484 1498.13,405.484 1500.14,405.484 1502.15,405.484 1504.15,405.484 1506.16,400.676 1508.16,400.676 
  1510.17,400.676 1512.18,400.676 1514.18,400.676 1516.19,400.676 1518.2,395.867 1520.2,395.867 1522.21,395.867 1524.21,395.867 1526.22,395.867 1528.23,395.867 
  1530.23,395.867 1532.24,391.059 1534.24,391.059 1536.25,391.059 1538.26,391.059 1540.26,391.059 1542.27,391.059 1544.28,391.059 1546.28,386.251 1548.29,386.251 
  1550.29,386.251 1552.3,386.251 1554.31,386.251 1556.31,386.251 1558.32,386.251 1560.32,381.442 1562.33,381.442 1564.34,381.442 1566.34,381.442 1568.35,381.442 
  1570.36,381.442 1572.36,381.442 1574.37,376.634 1576.37,376.634 1578.38,376.634 1580.39,376.634 1582.39,376.634 1584.4,376.634 1586.4,371.825 1588.41,371.825 
  1590.42,371.825 1592.42,371.825 1594.43,371.825 1596.44,371.825 1598.44,371.825 1600.45,367.017 1602.45,367.017 1604.46,367.017 1606.47,367.017 1608.47,367.017 
  1610.48,367.017 1612.48,367.017 1614.49,362.209 1616.5,362.209 1618.5,362.209 1620.51,362.209 1622.52,362.209 1624.52,362.209 1626.53,362.209 1628.53,357.4 
  1630.54,357.4 1632.55,357.4 1634.55,357.4 1636.56,357.4 1638.56,357.4 1640.57,357.4 1642.58,352.592 1644.58,352.592 1646.59,352.592 1648.6,352.592 
  1650.6,352.592 1652.61,352.592 1654.61,352.592 1656.62,352.592 1658.63,347.784 1660.63,347.784 1662.64,347.784 1664.64,347.784 1666.65,347.784 1668.66,347.784 
  1670.66,347.784 1672.67,342.975 1674.68,342.975 1676.68,342.975 1678.69,342.975 1680.69,342.975 1682.7,342.975 1684.71,342.975 1686.71,338.167 1688.72,338.167 
  1690.72,338.167 1692.73,338.167 1694.74,338.167 1696.74,338.167 1698.75,338.167 1700.76,333.358 1702.76,333.358 1704.77,333.358 1706.77,333.358 1708.78,333.358 
  1710.79,333.358 1712.79,333.358 1714.8,333.358 1716.8,328.55 1718.81,328.55 1720.82,328.55 1722.82,328.55 1724.83,328.55 1726.84,328.55 1728.84,328.55 
  1730.85,323.742 1732.85,323.742 1734.86,323.742 1736.87,323.742 1738.87,323.742 1740.88,323.742 1742.88,323.742 1744.89,318.933 1746.9,318.933 1748.9,318.933 
  1750.91,318.933 1752.92,318.933 1754.92,318.933 1756.93,318.933 1758.93,318.933 1760.94,314.125 1762.95,314.125 1764.95,314.125 1766.96,314.125 1768.96,314.125 
  1770.97,314.125 1772.98,314.125 1774.98,309.316 1776.99,309.316 1779,309.316 1781,309.316 1783.01,309.316 1785.01,309.316 1787.02,309.316 1789.03,309.316 
  1791.03,304.508 1793.04,304.508 1795.04,304.508 1797.05,304.508 1799.06,304.508 1801.06,304.508 1803.07,304.508 1805.08,299.7 1807.08,299.7 1809.09,299.7 
  1811.09,299.7 1813.1,299.7 1815.11,299.7 1817.11,299.7 1819.12,299.7 1821.12,294.891 1823.13,294.891 1825.14,294.891 1827.14,294.891 1829.15,294.891 
  1831.16,294.891 1833.16,294.891 1835.17,290.083 1837.17,290.083 1839.18,290.083 1841.19,290.083 1843.19,290.083 1845.2,290.083 1847.2,290.083 1849.21,290.083 
  1851.22,285.274 1853.22,285.274 1855.23,285.274 1857.24,285.274 1859.24,285.274 1861.25,285.274 1863.25,285.274 1865.26,285.274 1867.27,280.466 1869.27,280.466 
  1871.28,280.466 1873.28,280.466 1875.29,280.466 1877.3,280.466 1879.3,280.466 1881.31,280.466 1883.32,275.658 1885.32,275.658 1887.33,275.658 1889.33,275.658 
  1891.34,275.658 1893.35,275.658 1895.35,275.658 1897.36,275.658 1899.36,270.849 1901.37,270.849 1903.38,270.849 1905.38,270.849 1907.39,270.849 1909.4,270.849 
  1911.4,270.849 1913.41,266.041 1915.41,266.041 1917.42,266.041 1919.43,266.041 1921.43,266.041 1923.44,266.041 1925.44,266.041 1927.45,266.041 1929.46,261.232 
  1931.46,261.232 1933.47,261.232 1935.48,261.232 1937.48,261.232 1939.49,261.232 1941.49,261.232 1943.5,261.232 1945.51,256.424 1947.51,256.424 1949.52,256.424 
  1951.52,256.424 1953.53,256.424 1955.54,256.424 1957.54,256.424 1959.55,256.424 1961.56,251.616 1963.56,251.616 1965.57,251.616 1967.57,251.616 1969.58,251.616 
  1971.59,251.616 1973.59,251.616 1975.6,251.616 1977.6,246.807 1979.61,246.807 1981.62,246.807 1983.62,246.807 1985.63,246.807 1987.64,246.807 1989.64,246.807 
  1991.65,246.807 1993.65,241.999 1995.66,241.999 1997.67,241.999 1999.67,241.999 2001.68,241.999 2003.68,241.999 2005.69,241.999 2007.7,241.999 2009.7,241.999 
  2011.71,237.191 2013.72,237.191 2015.72,237.191 2017.73,237.191 2019.73,237.191 2021.74,237.191 2023.75,237.191 2025.75,237.191 2027.76,232.382 2029.77,232.382 
  2031.77,232.382 2033.78,232.382 2035.78,232.382 2037.79,232.382 2039.8,232.382 2041.8,232.382 2043.81,227.574 2045.81,227.574 2047.82,227.574 2049.83,227.574 
  2051.83,227.574 2053.84,227.574 2055.85,227.574 2057.85,227.574 2059.86,222.765 2061.86,222.765 2063.87,222.765 2065.88,222.765 2067.88,222.765 2069.89,222.765 
  2071.89,222.765 2073.9,222.765 2075.91,222.765 2077.91,217.957 2079.92,217.957 2081.93,217.957 2083.93,217.957 2085.94,217.957 2087.94,217.957 2089.95,217.957 
  2091.96,217.957 2093.96,213.149 2095.97,213.149 2097.97,213.149 2099.98,213.149 2101.99,213.149 2103.99,213.149 2106,213.149 2108.01,213.149 2110.01,208.34 
  2112.02,208.34 2114.02,208.34 2116.03,208.34 2118.04,208.34 2120.04,208.34 2122.05,208.34 2124.05,208.34 2126.06,208.34 2128.07,203.532 2130.07,203.532 
  2132.08,203.532 2134.09,203.532 2136.09,203.532 2138.1,203.532 2140.1,203.532 2142.11,203.532 2144.12,198.723 2146.12,198.723 2148.13,198.723 2150.13,198.723 
  2152.14,198.723 2154.15,198.723 2156.15,198.723 2158.16,198.723 2160.17,198.723 2162.17,193.915 2164.18,193.915 2166.18,193.915 2168.19,193.915 2170.2,193.915 
  2172.2,193.915 2174.21,193.915 2176.21,193.915 2178.22,189.107 2180.23,189.107 2182.23,189.107 2184.24,189.107 2186.25,189.107 2188.25,189.107 2190.26,189.107 
  2192.26,189.107 2194.27,189.107 2196.28,184.298 2198.28,184.298 2200.29,184.298 2202.29,184.298 2204.3,184.298 2206.31,184.298 2208.31,184.298 2210.32,184.298 
  2212.33,184.298 2214.33,179.49 2216.34,179.49 2218.34,179.49 2220.35,179.49 2222.36,179.49 2224.36,179.49 2226.37,179.49 2228.37,179.49 2230.38,179.49 
  2232.39,174.681 2234.39,174.681 2236.4,174.681 2238.41,174.681 2240.41,174.681 2242.42,174.681 2244.42,174.681 2246.43,174.681 2248.44,169.873 2250.44,169.873 
  2252.45,169.873 2254.45,169.873 2256.46,169.873 2258.47,169.873 2260.47,169.873 2262.48,169.873 2264.49,169.873 2266.49,165.065 2268.5,165.065 2270.5,165.065 
  2272.51,165.065 2274.52,165.065 2276.52,165.065 2278.53,165.065 2280.53,165.065 2282.54,165.065 2284.55,160.256 2286.55,160.256 2288.56,160.256 2290.57,160.256 
  2292.57,160.256 
  "/>
<polyline clip-path="url(#clip932)" style="stroke:#e26f46; stroke-width:4; stroke-opacity:1; fill:none" points="
  286.417,1386.4 288.423,1371.97 290.429,1357.55 292.435,1338.31 294.441,1323.89 296.447,1314.27 298.454,1299.84 300.46,1290.23 302.466,1280.61 304.472,1275.8 
  306.478,1266.19 308.484,1256.57 310.49,1246.95 312.497,1242.14 314.503,1237.34 316.509,1227.72 318.515,1222.91 320.521,1218.1 322.527,1213.29 324.534,1203.68 
  326.54,1198.87 328.546,1194.06 330.552,1189.25 332.558,1184.44 334.564,1179.63 336.57,1174.83 338.577,1170.02 340.583,1165.21 342.589,1160.4 344.595,1160.4 
  346.601,1155.59 348.607,1150.78 350.614,1145.98 352.62,1141.17 354.626,1136.36 356.632,1131.55 358.638,1126.74 360.644,1126.74 362.65,1121.93 364.657,1117.13 
  366.663,1112.32 368.669,1112.32 370.675,1112.32 372.681,1107.51 374.687,1102.7 376.694,1097.89 378.7,1097.89 380.706,1093.08 382.712,1088.28 384.718,1083.47 
  386.724,1083.47 388.73,1083.47 390.737,1078.66 392.743,1073.85 394.749,1069.04 396.755,1069.04 398.761,1064.23 400.767,1064.23 402.774,1059.43 404.78,1054.62 
  406.786,1054.62 408.792,1049.81 410.798,1049.81 412.804,1045 414.811,1040.19 416.817,1040.19 418.823,1040.19 420.829,1035.38 422.835,1030.57 424.841,1025.77 
  426.847,1025.77 428.854,1025.77 430.86,1020.96 432.866,1020.96 434.872,1016.15 436.878,1016.15 438.884,1011.34 440.891,1011.34 442.897,1006.53 444.903,1001.72 
  446.909,1001.72 448.915,1001.72 450.921,996.916 452.927,996.916 454.934,992.108 456.94,987.299 458.946,987.299 460.952,987.299 462.958,982.491 464.964,982.491 
  466.971,977.683 468.977,977.683 470.983,977.683 472.989,972.874 474.995,972.874 477.001,968.066 479.007,963.257 481.014,963.257 483.02,963.257 485.026,958.449 
  487.032,958.449 489.038,953.641 491.044,953.641 493.051,953.641 495.057,948.832 497.063,948.832 499.069,944.024 501.075,944.024 503.081,944.024 505.087,944.024 
  507.094,939.215 509.1,934.407 511.106,934.407 513.112,929.599 515.118,929.599 517.124,929.599 519.131,929.599 521.137,924.79 523.143,919.982 525.149,919.982 
  527.155,919.982 529.161,919.982 531.167,915.173 533.174,915.173 535.18,910.365 537.186,910.365 539.192,910.365 541.198,910.365 543.204,905.557 545.211,900.748 
  547.217,900.748 549.223,895.94 551.229,895.94 553.235,895.94 555.241,895.94 557.247,891.132 559.254,891.132 561.26,886.323 563.266,886.323 565.272,886.323 
  567.278,886.323 569.284,881.515 571.291,881.515 573.297,876.706 575.303,876.706 577.309,876.706 579.315,876.706 581.321,871.898 583.328,871.898 585.334,867.09 
  587.34,867.09 589.346,867.09 591.352,867.09 593.358,862.281 595.364,862.281 597.371,857.473 599.377,857.473 601.383,852.664 603.389,852.664 605.395,852.664 
  607.401,852.664 609.408,847.856 611.414,847.856 613.42,843.048 615.426,843.048 617.432,843.048 619.438,843.048 621.444,838.239 623.451,838.239 625.457,838.239 
  627.463,833.431 629.469,833.431 631.475,833.431 633.481,833.431 635.488,828.622 637.494,828.622 639.5,823.814 641.506,823.814 643.512,823.814 645.518,823.814 
  647.524,823.814 649.531,819.006 651.537,819.006 653.543,814.197 655.549,814.197 657.555,814.197 659.561,814.197 661.568,809.389 663.574,809.389 665.58,804.581 
  667.586,804.581 669.592,804.581 671.598,804.581 673.604,804.581 675.611,799.772 677.617,799.772 679.623,794.964 681.629,794.964 683.635,794.964 685.641,794.964 
  687.648,794.964 689.654,790.155 691.66,790.155 693.666,785.347 695.672,785.347 697.678,785.347 699.684,785.347 701.691,785.347 703.697,780.539 705.703,780.539 
  707.709,775.73 709.715,775.73 711.721,775.73 713.728,775.73 715.734,775.73 717.74,770.922 719.746,770.922 721.752,770.922 723.758,766.113 725.764,766.113 
  727.771,766.113 729.777,766.113 731.783,766.113 733.789,761.305 735.795,761.305 737.801,756.497 739.808,756.497 741.814,756.497 743.82,756.497 745.826,756.497 
  747.832,751.688 749.838,751.688 751.844,751.688 753.851,746.88 755.857,746.88 757.863,746.88 759.869,746.88 761.875,746.88 763.881,742.071 765.888,742.071 
  767.894,737.263 769.9,737.263 771.906,737.263 773.912,737.263 775.918,737.263 777.925,732.455 779.931,732.455 781.937,732.455 783.943,727.646 785.949,727.646 
  787.955,727.646 789.961,727.646 791.968,727.646 793.974,722.838 795.98,722.838 797.986,722.838 799.992,718.03 801.998,718.03 804.005,718.03 806.011,718.03 
  808.017,718.03 810.023,713.221 812.029,713.221 814.035,713.221 816.041,708.413 818.048,708.413 820.054,708.413 822.06,708.413 824.066,708.413 826.072,703.604 
  828.078,703.604 830.085,703.604 832.091,698.796 834.097,698.796 836.103,698.796 838.109,698.796 840.115,698.796 842.121,693.988 844.128,693.988 846.134,693.988 
  848.14,693.988 850.146,693.988 852.152,693.988 854.158,689.179 856.165,689.179 858.171,689.179 860.177,684.371 862.183,684.371 864.189,684.371 866.195,684.371 
  868.201,684.371 870.208,679.562 872.214,679.562 874.22,679.562 876.226,674.754 878.232,674.754 880.238,674.754 882.245,674.754 884.251,674.754 886.257,674.754 
  888.263,669.946 890.269,669.946 892.275,669.946 894.281,665.137 896.288,665.137 898.294,665.137 900.3,665.137 902.306,665.137 904.312,660.329 906.318,660.329 
  908.325,660.329 910.331,655.52 912.337,655.52 914.343,655.52 916.349,655.52 918.355,655.52 920.361,655.52 922.368,650.712 924.374,650.712 926.38,650.712 
  928.386,645.904 930.392,645.904 932.398,645.904 934.405,645.904 936.411,645.904 938.417,645.904 940.423,641.095 942.429,641.095 944.435,641.095 946.441,641.095 
  948.448,641.095 950.454,641.095 952.46,636.287 954.466,636.287 956.472,636.287 958.478,631.478 960.485,631.478 962.491,631.478 964.497,631.478 966.503,631.478 
  968.509,631.478 970.515,626.67 972.522,626.67 974.528,626.67 976.534,621.862 978.54,621.862 980.546,621.862 982.552,621.862 984.558,621.862 986.565,621.862 
  988.571,617.053 990.577,617.053 992.583,617.053 994.589,612.245 996.595,612.245 998.602,612.245 1000.61,612.245 1002.61,612.245 1004.62,612.245 1006.63,612.245 
  1008.63,607.437 1010.64,607.437 1012.64,607.437 1014.65,607.437 1016.66,607.437 1018.66,607.437 1020.67,602.628 1022.68,602.628 1024.68,602.628 1026.69,597.82 
  1028.69,597.82 1030.7,597.82 1032.71,597.82 1034.71,597.82 1036.72,597.82 1038.72,593.011 1040.73,593.011 1042.74,593.011 1044.74,593.011 1046.75,588.203 
  1048.76,588.203 1050.76,588.203 1052.77,588.203 1054.77,588.203 1056.78,588.203 1058.79,583.395 1060.79,583.395 1062.8,583.395 1064.8,578.586 1066.81,578.586 
  1068.82,578.586 1070.82,578.586 1072.83,578.586 1074.84,578.586 1076.84,578.586 1078.85,573.778 1080.85,573.778 1082.86,573.778 1084.87,573.778 1086.87,573.778 
  1088.88,573.778 1090.88,568.969 1092.89,568.969 1094.9,568.969 1096.9,568.969 1098.91,564.161 1100.92,564.161 1102.92,564.161 1104.93,564.161 1106.93,564.161 
  1108.94,564.161 1110.95,559.353 1112.95,559.353 1114.96,559.353 1116.96,559.353 1118.97,554.544 1120.98,554.544 1122.98,554.544 1124.99,554.544 1127,554.544 
  1129,554.544 1131.01,549.736 1133.01,549.736 1135.02,549.736 1137.03,549.736 1139.03,544.927 1141.04,544.927 1143.04,544.927 1145.05,544.927 1147.06,544.927 
  1149.06,544.927 1151.07,544.927 1153.08,540.119 1155.08,540.119 1157.09,540.119 1159.09,540.119 1161.1,540.119 1163.11,540.119 1165.11,540.119 1167.12,535.311 
  1169.12,535.311 1171.13,535.311 1173.14,530.502 1175.14,530.502 1177.15,530.502 1179.16,530.502 1181.16,530.502 1183.17,530.502 1185.17,530.502 1187.18,525.694 
  1189.19,525.694 1191.19,525.694 1193.2,525.694 1195.2,520.886 1197.21,520.886 1199.22,520.886 1201.22,520.886 1203.23,520.886 1205.24,520.886 1207.24,520.886 
  1209.25,516.077 1211.25,516.077 1213.26,516.077 1215.27,516.077 1217.27,516.077 1219.28,516.077 1221.28,516.077 1223.29,511.269 1225.3,511.269 1227.3,511.269 
  1229.31,506.46 1231.32,506.46 1233.32,506.46 1235.33,506.46 1237.33,506.46 1239.34,506.46 1241.35,506.46 1243.35,501.652 1245.36,501.652 1247.36,501.652 
  1249.37,501.652 1251.38,496.844 1253.38,496.844 1255.39,496.844 1257.4,496.844 1259.4,496.844 1261.41,496.844 1263.41,496.844 1265.42,492.035 1267.43,492.035 
  1269.43,492.035 1271.44,492.035 1273.44,492.035 1275.45,492.035 1277.46,492.035 1279.46,492.035 1281.47,487.227 1283.48,487.227 1285.48,487.227 1287.49,482.418 
  1289.49,482.418 1291.5,482.418 1293.51,482.418 1295.51,482.418 1297.52,482.418 1299.52,482.418 1301.53,482.418 1303.54,477.61 1305.54,477.61 1307.55,477.61 
  1309.56,477.61 1311.56,477.61 1313.57,477.61 1315.57,477.61 1317.58,472.802 1319.59,472.802 1321.59,472.802 1323.6,472.802 1325.6,467.993 1327.61,467.993 
  1329.62,467.993 1331.62,467.993 1333.63,467.993 1335.64,467.993 1337.64,467.993 1339.65,463.185 1341.65,463.185 1343.66,463.185 1345.67,463.185 1347.67,458.376 
  1349.68,458.376 1351.68,458.376 1353.69,458.376 1355.7,458.376 1357.7,458.376 1359.71,458.376 1361.72,458.376 1363.72,453.568 1365.73,453.568 1367.73,453.568 
  1369.74,453.568 1371.75,453.568 1373.75,453.568 1375.76,453.568 1377.76,453.568 1379.77,448.76 1381.78,448.76 1383.78,448.76 1385.79,443.951 1387.8,443.951 
  1389.8,443.951 1391.81,443.951 1393.81,443.951 1395.82,443.951 1397.83,443.951 1399.83,443.951 1401.84,439.143 1403.84,439.143 1405.85,439.143 1407.86,439.143 
  1409.86,439.143 1411.87,439.143 1413.88,439.143 1415.88,439.143 1417.89,434.335 1419.89,434.335 1421.9,434.335 1423.91,434.335 1425.91,429.526 1427.92,429.526 
  1429.92,429.526 1431.93,429.526 1433.94,429.526 1435.94,429.526 1437.95,429.526 1439.96,429.526 1441.96,424.718 1443.97,424.718 1445.97,424.718 1447.98,424.718 
  1449.99,419.909 1451.99,419.909 1454,419.909 1456,419.909 1458.01,419.909 1460.02,419.909 1462.02,419.909 1464.03,419.909 1466.04,415.101 1468.04,415.101 
  1470.05,415.101 1472.05,415.101 1474.06,415.101 1476.07,415.101 1478.07,415.101 1480.08,415.101 1482.08,410.293 1484.09,410.293 1486.1,410.293 1488.1,410.293 
  1490.11,405.484 1492.12,405.484 1494.12,405.484 1496.13,405.484 1498.13,405.484 1500.14,405.484 1502.15,405.484 1504.15,405.484 1506.16,400.676 1508.16,400.676 
  1510.17,400.676 1512.18,400.676 1514.18,400.676 1516.19,400.676 1518.2,400.676 1520.2,400.676 1522.21,395.867 1524.21,395.867 1526.22,395.867 1528.23,395.867 
  1530.23,391.059 1532.24,391.059 1534.24,391.059 1536.25,391.059 1538.26,391.059 1540.26,391.059 1542.27,391.059 1544.28,391.059 1546.28,386.251 1548.29,386.251 
  1550.29,386.251 1552.3,386.251 1554.31,386.251 1556.31,386.251 1558.32,386.251 1560.32,386.251 1562.33,386.251 1564.34,381.442 1566.34,381.442 1568.35,381.442 
  1570.36,381.442 1572.36,376.634 1574.37,376.634 1576.37,376.634 1578.38,376.634 1580.39,376.634 1582.39,376.634 1584.4,376.634 1586.4,376.634 1588.41,371.825 
  1590.42,371.825 1592.42,371.825 1594.43,371.825 1596.44,371.825 1598.44,367.017 1600.45,367.017 1602.45,367.017 1604.46,367.017 1606.47,367.017 1608.47,367.017 
  1610.48,367.017 1612.48,367.017 1614.49,362.209 1616.5,362.209 1618.5,362.209 1620.51,362.209 1622.52,362.209 1624.52,362.209 1626.53,362.209 1628.53,362.209 
  1630.54,362.209 1632.55,357.4 1634.55,357.4 1636.56,357.4 1638.56,357.4 1640.57,352.592 1642.58,352.592 1644.58,352.592 1646.59,352.592 1648.6,352.592 
  1650.6,352.592 1652.61,352.592 1654.61,352.592 1656.62,347.784 1658.63,347.784 1660.63,347.784 1662.64,347.784 1664.64,347.784 1666.65,347.784 1668.66,347.784 
  1670.66,347.784 1672.67,347.784 1674.68,342.975 1676.68,342.975 1678.69,342.975 1680.69,342.975 1682.7,338.167 1684.71,338.167 1686.71,338.167 1688.72,338.167 
  1690.72,338.167 1692.73,338.167 1694.74,338.167 1696.74,338.167 1698.75,338.167 1700.76,333.358 1702.76,333.358 1704.77,333.358 1706.77,333.358 1708.78,333.358 
  1710.79,333.358 1712.79,333.358 1714.8,333.358 1716.8,333.358 1718.81,328.55 1720.82,328.55 1722.82,328.55 1724.83,328.55 1726.84,323.742 1728.84,323.742 
  1730.85,323.742 1732.85,323.742 1734.86,323.742 1736.87,323.742 1738.87,323.742 1740.88,323.742 1742.88,323.742 1744.89,318.933 1746.9,318.933 1748.9,318.933 
  1750.91,318.933 1752.92,318.933 1754.92,318.933 1756.93,318.933 1758.93,318.933 1760.94,318.933 1762.95,314.125 1764.95,314.125 1766.96,314.125 1768.96,314.125 
  1770.97,314.125 1772.98,309.316 1774.98,309.316 1776.99,309.316 1779,309.316 1781,309.316 1783.01,309.316 1785.01,309.316 1787.02,309.316 1789.03,309.316 
  1791.03,304.508 1793.04,304.508 1795.04,304.508 1797.05,304.508 1799.06,304.508 1801.06,304.508 1803.07,304.508 1805.08,304.508 1807.08,304.508 1809.09,299.7 
  1811.09,299.7 1813.1,299.7 1815.11,299.7 1817.11,294.891 1819.12,294.891 1821.12,294.891 1823.13,294.891 1825.14,294.891 1827.14,294.891 1829.15,294.891 
  1831.16,294.891 1833.16,294.891 1835.17,290.083 1837.17,290.083 1839.18,290.083 1841.19,290.083 1843.19,290.083 1845.2,290.083 1847.2,290.083 1849.21,290.083 
  1851.22,290.083 1853.22,290.083 1855.23,285.274 1857.24,285.274 1859.24,285.274 1861.25,285.274 1863.25,280.466 1865.26,280.466 1867.27,280.466 1869.27,280.466 
  1871.28,280.466 1873.28,280.466 1875.29,280.466 1877.3,280.466 1879.3,280.466 1881.31,280.466 1883.32,275.658 1885.32,275.658 1887.33,275.658 1889.33,275.658 
  1891.34,275.658 1893.35,275.658 1895.35,275.658 1897.36,275.658 1899.36,275.658 1901.37,270.849 1903.38,270.849 1905.38,270.849 1907.39,270.849 1909.4,270.849 
  1911.4,266.041 1913.41,266.041 1915.41,266.041 1917.42,266.041 1919.43,266.041 1921.43,266.041 1923.44,266.041 1925.44,266.041 1927.45,266.041 1929.46,261.232 
  1931.46,261.232 1933.47,261.232 1935.48,261.232 1937.48,261.232 1939.49,261.232 1941.49,261.232 1943.5,261.232 1945.51,261.232 1947.51,256.424 1949.52,256.424 
  1951.52,256.424 1953.53,256.424 1955.54,256.424 1957.54,251.616 1959.55,251.616 1961.56,251.616 1963.56,251.616 1965.57,251.616 1967.57,251.616 1969.58,251.616 
  1971.59,251.616 1973.59,251.616 1975.6,251.616 1977.6,246.807 1979.61,246.807 1981.62,246.807 1983.62,246.807 1985.63,246.807 1987.64,246.807 1989.64,246.807 
  1991.65,246.807 1993.65,246.807 1995.66,241.999 1997.67,241.999 1999.67,241.999 2001.68,241.999 2003.68,241.999 2005.69,237.191 2007.7,237.191 2009.7,237.191 
  2011.71,237.191 2013.72,237.191 2015.72,237.191 2017.73,237.191 2019.73,237.191 2021.74,237.191 2023.75,237.191 2025.75,232.382 2027.76,232.382 2029.77,232.382 
  2031.77,232.382 2033.78,232.382 2035.78,232.382 2037.79,232.382 2039.8,232.382 2041.8,232.382 2043.81,232.382 2045.81,227.574 2047.82,227.574 2049.83,227.574 
  2051.83,227.574 2053.84,227.574 2055.85,227.574 2057.85,227.574 2059.86,227.574 2061.86,227.574 2063.87,222.765 2065.88,222.765 2067.88,222.765 2069.89,222.765 
  2071.89,222.765 2073.9,217.957 2075.91,217.957 2077.91,217.957 2079.92,217.957 2081.93,217.957 2083.93,217.957 2085.94,217.957 2087.94,217.957 2089.95,217.957 
  2091.96,217.957 2093.96,213.149 2095.97,213.149 2097.97,213.149 2099.98,213.149 2101.99,213.149 2103.99,213.149 2106,213.149 2108.01,213.149 2110.01,213.149 
  2112.02,213.149 2114.02,208.34 2116.03,208.34 2118.04,208.34 2120.04,208.34 2122.05,208.34 2124.05,203.532 2126.06,203.532 2128.07,203.532 2130.07,203.532 
  2132.08,203.532 2134.09,203.532 2136.09,203.532 2138.1,203.532 2140.1,203.532 2142.11,203.532 2144.12,198.723 2146.12,198.723 2148.13,198.723 2150.13,198.723 
  2152.14,198.723 2154.15,198.723 2156.15,198.723 2158.16,198.723 2160.17,198.723 2162.17,198.723 2164.18,193.915 2166.18,193.915 2168.19,193.915 2170.2,193.915 
  2172.2,193.915 2174.21,189.107 2176.21,189.107 2178.22,189.107 2180.23,189.107 2182.23,189.107 2184.24,189.107 2186.25,189.107 2188.25,189.107 2190.26,189.107 
  2192.26,189.107 2194.27,189.107 2196.28,184.298 2198.28,184.298 2200.29,184.298 2202.29,184.298 2204.3,184.298 2206.31,184.298 2208.31,184.298 2210.32,184.298 
  2212.33,184.298 2214.33,184.298 2216.34,179.49 2218.34,179.49 2220.35,179.49 2222.36,179.49 2224.36,179.49 2226.37,179.49 2228.37,179.49 2230.38,179.49 
  2232.39,179.49 2234.39,179.49 2236.4,174.681 2238.41,174.681 2240.41,174.681 2242.42,174.681 2244.42,174.681 2246.43,169.873 2248.44,169.873 2250.44,169.873 
  2252.45,169.873 2254.45,169.873 2256.46,169.873 2258.47,169.873 2260.47,169.873 2262.48,169.873 2264.49,169.873 2266.49,165.065 2268.5,165.065 2270.5,165.065 
  2272.51,165.065 2274.52,165.065 2276.52,165.065 2278.53,165.065 2280.53,165.065 2282.54,165.065 2284.55,165.065 2286.55,165.065 2288.56,160.256 2290.57,160.256 
  2292.57,160.256 
  "/>
<path clip-path="url(#clip930)" d="
M1930.57 1379.86 L2281.87 1379.86 L2281.87 1198.42 L1930.57 1198.42  Z
  " fill="#ffffff" fill-rule="evenodd" fill-opacity="1"/>
<polyline clip-path="url(#clip930)" style="stroke:#000000; stroke-width:4; stroke-opacity:1; fill:none" points="
  1930.57,1379.86 2281.87,1379.86 2281.87,1198.42 1930.57,1198.42 1930.57,1379.86 
  "/>
<polyline clip-path="url(#clip930)" style="stroke:#009af9; stroke-width:4; stroke-opacity:1; fill:none" points="
  1954.2,1258.9 2095.97,1258.9 
  "/>
<path clip-path="url(#clip930)" d="M 0 0 M2143.62 1262.15 L2143.62 1264.23 L2124.04 1264.23 Q2124.32 1268.63 2126.68 1270.94 Q2129.06 1273.24 2133.3 1273.24 Q2135.75 1273.24 2138.04 1272.63 Q2140.36 1272.03 2142.63 1270.83 L2142.63 1274.86 Q2140.33 1275.83 2137.93 1276.34 Q2135.52 1276.85 2133.04 1276.85 Q2126.84 1276.85 2123.2 1273.24 Q2119.59 1269.63 2119.59 1263.47 Q2119.59 1257.1 2123.02 1253.38 Q2126.47 1249.63 2132.3 1249.63 Q2137.53 1249.63 2140.57 1253.01 Q2143.62 1256.36 2143.62 1262.15 M2139.36 1260.9 Q2139.32 1257.4 2137.39 1255.32 Q2135.5 1253.24 2132.35 1253.24 Q2128.78 1253.24 2126.63 1255.25 Q2124.5 1257.26 2124.18 1260.92 L2139.36 1260.9 Z" fill="#000000" fill-rule="evenodd" fill-opacity="1" /><path clip-path="url(#clip930)" d="M 0 0 M2168.81 1250.25 L2159.43 1262.87 L2169.29 1276.18 L2164.27 1276.18 L2156.72 1265.99 L2149.18 1276.18 L2144.15 1276.18 L2154.22 1262.61 L2145.01 1250.25 L2150.03 1250.25 L2156.91 1259.49 L2163.78 1250.25 L2168.81 1250.25 Z" fill="#000000" fill-rule="evenodd" fill-opacity="1" /><path clip-path="url(#clip930)" d="M 0 0 M2185.54 1263.14 Q2180.38 1263.14 2178.39 1264.32 Q2176.4 1265.51 2176.4 1268.35 Q2176.4 1270.62 2177.88 1271.96 Q2179.38 1273.28 2181.95 1273.28 Q2185.5 1273.28 2187.63 1270.78 Q2189.78 1268.26 2189.78 1264.09 L2189.78 1263.14 L2185.54 1263.14 M2194.04 1261.38 L2194.04 1276.18 L2189.78 1276.18 L2189.78 1272.24 Q2188.32 1274.6 2186.14 1275.74 Q2183.97 1276.85 2180.82 1276.85 Q2176.84 1276.85 2174.48 1274.63 Q2172.14 1272.38 2172.14 1268.63 Q2172.14 1264.26 2175.06 1262.03 Q2178 1259.81 2183.81 1259.81 L2189.78 1259.81 L2189.78 1259.39 Q2189.78 1256.45 2187.83 1254.86 Q2185.91 1253.24 2182.42 1253.24 Q2180.19 1253.24 2178.09 1253.77 Q2175.98 1254.3 2174.04 1255.37 L2174.04 1251.43 Q2176.38 1250.53 2178.57 1250.09 Q2180.77 1249.63 2182.86 1249.63 Q2188.48 1249.63 2191.26 1252.54 Q2194.04 1255.46 2194.04 1261.38 Z" fill="#000000" fill-rule="evenodd" fill-opacity="1" /><path clip-path="url(#clip930)" d="M 0 0 M2217.16 1251.25 L2217.16 1255.23 Q2215.36 1254.23 2213.53 1253.75 Q2211.72 1253.24 2209.87 1253.24 Q2205.73 1253.24 2203.44 1255.88 Q2201.14 1258.49 2201.14 1263.24 Q2201.14 1267.98 2203.44 1270.62 Q2205.73 1273.24 2209.87 1273.24 Q2211.72 1273.24 2213.53 1272.75 Q2215.36 1272.24 2217.16 1271.25 L2217.16 1275.18 Q2215.38 1276.01 2213.46 1276.43 Q2211.56 1276.85 2209.41 1276.85 Q2203.55 1276.85 2200.1 1273.17 Q2196.65 1269.49 2196.65 1263.24 Q2196.65 1256.89 2200.13 1253.26 Q2203.62 1249.63 2209.69 1249.63 Q2211.65 1249.63 2213.53 1250.04 Q2215.4 1250.44 2217.16 1251.25 Z" fill="#000000" fill-rule="evenodd" fill-opacity="1" /><path clip-path="url(#clip930)" d="M 0 0 M2225.84 1242.89 L2225.84 1250.25 L2234.62 1250.25 L2234.62 1253.56 L2225.84 1253.56 L2225.84 1267.63 Q2225.84 1270.81 2226.7 1271.71 Q2227.58 1272.61 2230.24 1272.61 L2234.62 1272.61 L2234.62 1276.18 L2230.24 1276.18 Q2225.31 1276.18 2223.44 1274.35 Q2221.56 1272.5 2221.56 1267.63 L2221.56 1253.56 L2218.44 1253.56 L2218.44 1250.25 L2221.56 1250.25 L2221.56 1242.89 L2225.84 1242.89 Z" fill="#000000" fill-rule="evenodd" fill-opacity="1" /><polyline clip-path="url(#clip930)" style="stroke:#e26f46; stroke-width:4; stroke-opacity:1; fill:none" points="
  1954.2,1319.38 2095.97,1319.38 
  "/>
<path clip-path="url(#clip930)" d="M 0 0 M2123.88 1332.77 L2123.88 1346.52 L2119.59 1346.52 L2119.59 1310.73 L2123.88 1310.73 L2123.88 1314.67 Q2125.22 1312.35 2127.26 1311.24 Q2129.32 1310.11 2132.16 1310.11 Q2136.88 1310.11 2139.82 1313.86 Q2142.79 1317.61 2142.79 1323.72 Q2142.79 1329.83 2139.82 1333.58 Q2136.88 1337.33 2132.16 1337.33 Q2129.32 1337.33 2127.26 1336.22 Q2125.22 1335.08 2123.88 1332.77 M2138.37 1323.72 Q2138.37 1319.02 2136.42 1316.36 Q2134.5 1313.67 2131.12 1313.67 Q2127.74 1313.67 2125.8 1316.36 Q2123.88 1319.02 2123.88 1323.72 Q2123.88 1328.42 2125.8 1331.1 Q2127.74 1333.76 2131.12 1333.76 Q2134.5 1333.76 2136.42 1331.1 Q2138.37 1328.42 2138.37 1323.72 Z" fill="#000000" fill-rule="evenodd" fill-opacity="1" /><path clip-path="url(#clip930)" d="M 0 0 M2157.3 1313.72 Q2153.88 1313.72 2151.88 1316.4 Q2149.89 1319.06 2149.89 1323.72 Q2149.89 1328.37 2151.86 1331.05 Q2153.85 1333.72 2157.3 1333.72 Q2160.7 1333.72 2162.69 1331.03 Q2164.69 1328.35 2164.69 1323.72 Q2164.69 1319.11 2162.69 1316.42 Q2160.7 1313.72 2157.3 1313.72 M2157.3 1310.11 Q2162.86 1310.11 2166.03 1313.72 Q2169.2 1317.33 2169.2 1323.72 Q2169.2 1330.08 2166.03 1333.72 Q2162.86 1337.33 2157.3 1337.33 Q2151.72 1337.33 2148.55 1333.72 Q2145.4 1330.08 2145.4 1323.72 Q2145.4 1317.33 2148.55 1313.72 Q2151.72 1310.11 2157.3 1310.11 Z" fill="#000000" fill-rule="evenodd" fill-opacity="1" /><path clip-path="url(#clip930)" d="M 0 0 M2173.67 1300.64 L2177.93 1300.64 L2177.93 1336.66 L2173.67 1336.66 L2173.67 1300.64 Z" fill="#000000" fill-rule="evenodd" fill-opacity="1" /><path clip-path="url(#clip930)" d="M 0 0 M2193.18 1339.06 Q2191.38 1343.69 2189.66 1345.11 Q2187.95 1346.52 2185.08 1346.52 L2181.68 1346.52 L2181.68 1342.95 L2184.18 1342.95 Q2185.94 1342.95 2186.91 1342.12 Q2187.88 1341.29 2189.06 1338.18 L2189.82 1336.24 L2179.34 1310.73 L2183.85 1310.73 L2191.95 1331.01 L2200.06 1310.73 L2204.57 1310.73 L2193.18 1339.06 Z" fill="#000000" fill-rule="evenodd" fill-opacity="1" /></svg>
