<?xml version="1.0" encoding="utf-8"?>
<svg xmlns="http://www.w3.org/2000/svg" xmlns:xlink="http://www.w3.org/1999/xlink" width="600" height="400" viewBox="0 0 2400 1600">
<defs>
  <clipPath id="clip770">
    <rect x="0" y="0" width="2400" height="1600"/>
  </clipPath>
</defs>
<path clip-path="url(#clip770)" d="
M0 1600 L2400 1600 L2400 0 L0 0  Z
  " fill="#ffffff" fill-rule="evenodd" fill-opacity="1"/>
<defs>
  <clipPath id="clip771">
    <rect x="480" y="0" width="1681" height="1600"/>
  </clipPath>
</defs>
<path clip-path="url(#clip770)" d="
M162.964 1486.45 L2352.76 1486.45 L2352.76 47.2441 L162.964 47.2441  Z
  " fill="#ffffff" fill-rule="evenodd" fill-opacity="1"/>
<defs>
  <clipPath id="clip772">
    <rect x="162" y="47" width="2191" height="1440"/>
  </clipPath>
</defs>
<polyline clip-path="url(#clip772)" style="stroke:#000000; stroke-width:2; stroke-opacity:0.1; fill:none" points="
  219.545,1486.45 219.545,47.2441 
  "/>
<polyline clip-path="url(#clip772)" style="stroke:#000000; stroke-width:2; stroke-opacity:0.1; fill:none" points="
  758.93,1486.45 758.93,47.2441 
  "/>
<polyline clip-path="url(#clip772)" style="stroke:#000000; stroke-width:2; stroke-opacity:0.1; fill:none" points="
  1298.31,1486.45 1298.31,47.2441 
  "/>
<polyline clip-path="url(#clip772)" style="stroke:#000000; stroke-width:2; stroke-opacity:0.1; fill:none" points="
  1837.7,1486.45 1837.7,47.2441 
  "/>
<polyline clip-path="url(#clip772)" style="stroke:#000000; stroke-width:2; stroke-opacity:0.1; fill:none" points="
  162.964,1445.72 2352.76,1445.72 
  "/>
<polyline clip-path="url(#clip772)" style="stroke:#000000; stroke-width:2; stroke-opacity:0.1; fill:none" points="
  162.964,1179.49 2352.76,1179.49 
  "/>
<polyline clip-path="url(#clip772)" style="stroke:#000000; stroke-width:2; stroke-opacity:0.1; fill:none" points="
  162.964,913.269 2352.76,913.269 
  "/>
<polyline clip-path="url(#clip772)" style="stroke:#000000; stroke-width:2; stroke-opacity:0.1; fill:none" points="
  162.964,647.045 2352.76,647.045 
  "/>
<polyline clip-path="url(#clip772)" style="stroke:#000000; stroke-width:2; stroke-opacity:0.1; fill:none" points="
  162.964,380.822 2352.76,380.822 
  "/>
<polyline clip-path="url(#clip772)" style="stroke:#000000; stroke-width:2; stroke-opacity:0.1; fill:none" points="
  162.964,114.599 2352.76,114.599 
  "/>
<polyline clip-path="url(#clip770)" style="stroke:#000000; stroke-width:4; stroke-opacity:1; fill:none" points="
  162.964,1486.45 2352.76,1486.45 
  "/>
<polyline clip-path="url(#clip770)" style="stroke:#000000; stroke-width:4; stroke-opacity:1; fill:none" points="
  162.964,1486.45 162.964,47.2441 
  "/>
<polyline clip-path="url(#clip770)" style="stroke:#000000; stroke-width:4; stroke-opacity:1; fill:none" points="
  219.545,1486.45 219.545,1469.18 
  "/>
<polyline clip-path="url(#clip770)" style="stroke:#000000; stroke-width:4; stroke-opacity:1; fill:none" points="
  758.93,1486.45 758.93,1469.18 
  "/>
<polyline clip-path="url(#clip770)" style="stroke:#000000; stroke-width:4; stroke-opacity:1; fill:none" points="
  1298.31,1486.45 1298.31,1469.18 
  "/>
<polyline clip-path="url(#clip770)" style="stroke:#000000; stroke-width:4; stroke-opacity:1; fill:none" points="
  1837.7,1486.45 1837.7,1469.18 
  "/>
<polyline clip-path="url(#clip770)" style="stroke:#000000; stroke-width:4; stroke-opacity:1; fill:none" points="
  162.964,1445.72 189.241,1445.72 
  "/>
<polyline clip-path="url(#clip770)" style="stroke:#000000; stroke-width:4; stroke-opacity:1; fill:none" points="
  162.964,1179.49 189.241,1179.49 
  "/>
<polyline clip-path="url(#clip770)" style="stroke:#000000; stroke-width:4; stroke-opacity:1; fill:none" points="
  162.964,913.269 189.241,913.269 
  "/>
<polyline clip-path="url(#clip770)" style="stroke:#000000; stroke-width:4; stroke-opacity:1; fill:none" points="
  162.964,647.045 189.241,647.045 
  "/>
<polyline clip-path="url(#clip770)" style="stroke:#000000; stroke-width:4; stroke-opacity:1; fill:none" points="
  162.964,380.822 189.241,380.822 
  "/>
<polyline clip-path="url(#clip770)" style="stroke:#000000; stroke-width:4; stroke-opacity:1; fill:none" points="
  162.964,114.599 189.241,114.599 
  "/>
<path clip-path="url(#clip770)" d="M 0 0 M219.545 1508.44 Q215.934 1508.44 214.106 1512 Q212.3 1515.55 212.3 1522.67 Q212.3 1529.78 214.106 1533.35 Q215.934 1536.89 219.545 1536.89 Q223.18 1536.89 224.985 1533.35 Q226.814 1529.78 226.814 1522.67 Q226.814 1515.55 224.985 1512 Q223.18 1508.44 219.545 1508.44 M219.545 1504.73 Q225.355 1504.73 228.411 1509.34 Q231.49 1513.92 231.49 1522.67 Q231.49 1531.4 228.411 1536.01 Q225.355 1540.59 219.545 1540.59 Q213.735 1540.59 210.657 1536.01 Q207.601 1531.4 207.601 1522.67 Q207.601 1513.92 210.657 1509.34 Q213.735 1504.73 219.545 1504.73 Z" fill="#000000" fill-rule="evenodd" fill-opacity="1" /><path clip-path="url(#clip770)" d="M 0 0 M722.298 1535.98 L729.937 1535.98 L729.937 1509.62 L721.626 1511.29 L721.626 1507.03 L729.89 1505.36 L734.566 1505.36 L734.566 1535.98 L742.205 1535.98 L742.205 1539.92 L722.298 1539.92 L722.298 1535.98 Z" fill="#000000" fill-rule="evenodd" fill-opacity="1" /><path clip-path="url(#clip770)" d="M 0 0 M757.274 1508.44 Q753.663 1508.44 751.835 1512 Q750.029 1515.55 750.029 1522.67 Q750.029 1529.78 751.835 1533.35 Q753.663 1536.89 757.274 1536.89 Q760.909 1536.89 762.714 1533.35 Q764.543 1529.78 764.543 1522.67 Q764.543 1515.55 762.714 1512 Q760.909 1508.44 757.274 1508.44 M757.274 1504.73 Q763.085 1504.73 766.14 1509.34 Q769.219 1513.92 769.219 1522.67 Q769.219 1531.4 766.14 1536.01 Q763.085 1540.59 757.274 1540.59 Q751.464 1540.59 748.386 1536.01 Q745.33 1531.4 745.33 1522.67 Q745.33 1513.92 748.386 1509.34 Q751.464 1504.73 757.274 1504.73 Z" fill="#000000" fill-rule="evenodd" fill-opacity="1" /><path clip-path="url(#clip770)" d="M 0 0 M784.288 1508.44 Q780.677 1508.44 778.848 1512 Q777.043 1515.55 777.043 1522.67 Q777.043 1529.78 778.848 1533.35 Q780.677 1536.89 784.288 1536.89 Q787.922 1536.89 789.728 1533.35 Q791.557 1529.78 791.557 1522.67 Q791.557 1515.55 789.728 1512 Q787.922 1508.44 784.288 1508.44 M784.288 1504.73 Q790.098 1504.73 793.154 1509.34 Q796.233 1513.92 796.233 1522.67 Q796.233 1531.4 793.154 1536.01 Q790.098 1540.59 784.288 1540.59 Q778.478 1540.59 775.399 1536.01 Q772.344 1531.4 772.344 1522.67 Q772.344 1513.92 775.399 1509.34 Q778.478 1504.73 784.288 1504.73 Z" fill="#000000" fill-rule="evenodd" fill-opacity="1" /><path clip-path="url(#clip770)" d="M 0 0 M1265.95 1535.98 L1282.27 1535.98 L1282.27 1539.92 L1260.33 1539.92 L1260.33 1535.98 Q1262.99 1533.23 1267.57 1528.6 Q1272.18 1523.95 1273.36 1522.61 Q1275.61 1520.08 1276.49 1518.35 Q1277.39 1516.59 1277.39 1514.9 Q1277.39 1512.14 1275.44 1510.41 Q1273.52 1508.67 1270.42 1508.67 Q1268.22 1508.67 1265.77 1509.43 Q1263.34 1510.2 1260.56 1511.75 L1260.56 1507.03 Q1263.38 1505.89 1265.84 1505.31 Q1268.29 1504.73 1270.33 1504.73 Q1275.7 1504.73 1278.89 1507.42 Q1282.09 1510.11 1282.09 1514.6 Q1282.09 1516.73 1281.28 1518.65 Q1280.49 1520.54 1278.38 1523.14 Q1277.8 1523.81 1274.7 1527.03 Q1271.6 1530.22 1265.95 1535.98 Z" fill="#000000" fill-rule="evenodd" fill-opacity="1" /><path clip-path="url(#clip770)" d="M 0 0 M1297.34 1508.44 Q1293.73 1508.44 1291.9 1512 Q1290.1 1515.55 1290.1 1522.67 Q1290.1 1529.78 1291.9 1533.35 Q1293.73 1536.89 1297.34 1536.89 Q1300.98 1536.89 1302.78 1533.35 Q1304.61 1529.78 1304.61 1522.67 Q1304.61 1515.55 1302.78 1512 Q1300.98 1508.44 1297.34 1508.44 M1297.34 1504.73 Q1303.15 1504.73 1306.21 1509.34 Q1309.29 1513.92 1309.29 1522.67 Q1309.29 1531.4 1306.21 1536.01 Q1303.15 1540.59 1297.34 1540.59 Q1291.53 1540.59 1288.45 1536.01 Q1285.4 1531.4 1285.4 1522.67 Q1285.4 1513.92 1288.45 1509.34 Q1291.53 1504.73 1297.34 1504.73 Z" fill="#000000" fill-rule="evenodd" fill-opacity="1" /><path clip-path="url(#clip770)" d="M 0 0 M1324.36 1508.44 Q1320.74 1508.44 1318.92 1512 Q1317.11 1515.55 1317.11 1522.67 Q1317.11 1529.78 1318.92 1533.35 Q1320.74 1536.89 1324.36 1536.89 Q1327.99 1536.89 1329.8 1533.35 Q1331.62 1529.78 1331.62 1522.67 Q1331.62 1515.55 1329.8 1512 Q1327.99 1508.44 1324.36 1508.44 M1324.36 1504.73 Q1330.17 1504.73 1333.22 1509.34 Q1336.3 1513.92 1336.3 1522.67 Q1336.3 1531.4 1333.22 1536.01 Q1330.17 1540.59 1324.36 1540.59 Q1318.55 1540.59 1315.47 1536.01 Q1312.41 1531.4 1312.41 1522.67 Q1312.41 1513.92 1315.47 1509.34 Q1318.55 1504.73 1324.36 1504.73 Z" fill="#000000" fill-rule="evenodd" fill-opacity="1" /><path clip-path="url(#clip770)" d="M 0 0 M1814.93 1521.29 Q1818.29 1522 1820.16 1524.27 Q1822.06 1526.54 1822.06 1529.87 Q1822.06 1534.99 1818.54 1537.79 Q1815.02 1540.59 1808.54 1540.59 Q1806.37 1540.59 1804.05 1540.15 Q1801.76 1539.73 1799.31 1538.88 L1799.31 1534.36 Q1801.25 1535.5 1803.57 1536.08 Q1805.88 1536.66 1808.4 1536.66 Q1812.8 1536.66 1815.09 1534.92 Q1817.41 1533.18 1817.41 1529.87 Q1817.41 1526.82 1815.26 1525.11 Q1813.13 1523.37 1809.31 1523.37 L1805.28 1523.37 L1805.28 1519.53 L1809.49 1519.53 Q1812.94 1519.53 1814.77 1518.16 Q1816.6 1516.77 1816.6 1514.18 Q1816.6 1511.52 1814.7 1510.11 Q1812.83 1508.67 1809.31 1508.67 Q1807.39 1508.67 1805.19 1509.09 Q1802.99 1509.5 1800.35 1510.38 L1800.35 1506.22 Q1803.01 1505.48 1805.33 1505.11 Q1807.66 1504.73 1809.72 1504.73 Q1815.05 1504.73 1818.15 1507.17 Q1821.25 1509.57 1821.25 1513.69 Q1821.25 1516.56 1819.61 1518.55 Q1817.96 1520.52 1814.93 1521.29 Z" fill="#000000" fill-rule="evenodd" fill-opacity="1" /><path clip-path="url(#clip770)" d="M 0 0 M1837.13 1508.44 Q1833.52 1508.44 1831.69 1512 Q1829.89 1515.55 1829.89 1522.67 Q1829.89 1529.78 1831.69 1533.35 Q1833.52 1536.89 1837.13 1536.89 Q1840.77 1536.89 1842.57 1533.35 Q1844.4 1529.78 1844.4 1522.67 Q1844.4 1515.55 1842.57 1512 Q1840.77 1508.44 1837.13 1508.44 M1837.13 1504.73 Q1842.94 1504.73 1846 1509.34 Q1849.08 1513.92 1849.08 1522.67 Q1849.08 1531.4 1846 1536.01 Q1842.94 1540.59 1837.13 1540.59 Q1831.32 1540.59 1828.24 1536.01 Q1825.19 1531.4 1825.19 1522.67 Q1825.19 1513.92 1828.24 1509.34 Q1831.32 1504.73 1837.13 1504.73 Z" fill="#000000" fill-rule="evenodd" fill-opacity="1" /><path clip-path="url(#clip770)" d="M 0 0 M1864.14 1508.44 Q1860.53 1508.44 1858.7 1512 Q1856.9 1515.55 1856.9 1522.67 Q1856.9 1529.78 1858.7 1533.35 Q1860.53 1536.89 1864.14 1536.89 Q1867.78 1536.89 1869.58 1533.35 Q1871.41 1529.78 1871.41 1522.67 Q1871.41 1515.55 1869.58 1512 Q1867.78 1508.44 1864.14 1508.44 M1864.14 1504.73 Q1869.95 1504.73 1873.01 1509.34 Q1876.09 1513.92 1876.09 1522.67 Q1876.09 1531.4 1873.01 1536.01 Q1869.95 1540.59 1864.14 1540.59 Q1858.33 1540.59 1855.26 1536.01 Q1852.2 1531.4 1852.2 1522.67 Q1852.2 1513.92 1855.26 1509.34 Q1858.33 1504.73 1864.14 1504.73 Z" fill="#000000" fill-rule="evenodd" fill-opacity="1" /><path clip-path="url(#clip770)" d="M 0 0 M127.02 1431.51 Q123.408 1431.51 121.58 1435.08 Q119.774 1438.62 119.774 1445.75 Q119.774 1452.86 121.58 1456.42 Q123.408 1459.96 127.02 1459.96 Q130.654 1459.96 132.459 1456.42 Q134.288 1452.86 134.288 1445.75 Q134.288 1438.62 132.459 1435.08 Q130.654 1431.51 127.02 1431.51 M127.02 1427.81 Q132.83 1427.81 135.885 1432.42 Q138.964 1437 138.964 1445.75 Q138.964 1454.48 135.885 1459.08 Q132.83 1463.67 127.02 1463.67 Q121.209 1463.67 118.131 1459.08 Q115.075 1454.48 115.075 1445.75 Q115.075 1437 118.131 1432.42 Q121.209 1427.81 127.02 1427.81 Z" fill="#000000" fill-rule="evenodd" fill-opacity="1" /><path clip-path="url(#clip770)" d="M 0 0 M91.0475 1162.21 L109.404 1162.21 L109.404 1166.15 L95.3299 1166.15 L95.3299 1174.62 Q96.3484 1174.27 97.3669 1174.11 Q98.3855 1173.93 99.404 1173.93 Q105.191 1173.93 108.571 1177.1 Q111.95 1180.27 111.95 1185.68 Q111.95 1191.26 108.478 1194.36 Q105.006 1197.44 98.6864 1197.44 Q96.5105 1197.44 94.242 1197.07 Q91.9966 1196.7 89.5892 1195.96 L89.5892 1191.26 Q91.6725 1192.4 93.8947 1192.95 Q96.1169 1193.51 98.5938 1193.51 Q102.598 1193.51 104.936 1191.4 Q107.274 1189.3 107.274 1185.68 Q107.274 1182.07 104.936 1179.97 Q102.598 1177.86 98.5938 1177.86 Q96.7188 1177.86 94.8438 1178.28 Q92.992 1178.69 91.0475 1179.57 L91.0475 1162.21 Z" fill="#000000" fill-rule="evenodd" fill-opacity="1" /><path clip-path="url(#clip770)" d="M 0 0 M127.02 1165.29 Q123.408 1165.29 121.58 1168.86 Q119.774 1172.4 119.774 1179.53 Q119.774 1186.63 121.58 1190.2 Q123.408 1193.74 127.02 1193.74 Q130.654 1193.74 132.459 1190.2 Q134.288 1186.63 134.288 1179.53 Q134.288 1172.4 132.459 1168.86 Q130.654 1165.29 127.02 1165.29 M127.02 1161.59 Q132.83 1161.59 135.885 1166.19 Q138.964 1170.78 138.964 1179.53 Q138.964 1188.25 135.885 1192.86 Q132.83 1197.44 127.02 1197.44 Q121.209 1197.44 118.131 1192.86 Q115.075 1188.25 115.075 1179.53 Q115.075 1170.78 118.131 1166.19 Q121.209 1161.59 127.02 1161.59 Z" fill="#000000" fill-rule="evenodd" fill-opacity="1" /><path clip-path="url(#clip770)" d="M 0 0 M65.0292 926.614 L72.668 926.614 L72.668 900.248 L64.3579 901.915 L64.3579 897.656 L72.6217 895.989 L77.2976 895.989 L77.2976 926.614 L84.9365 926.614 L84.9365 930.549 L65.0292 930.549 L65.0292 926.614 Z" fill="#000000" fill-rule="evenodd" fill-opacity="1" /><path clip-path="url(#clip770)" d="M 0 0 M100.006 899.068 Q96.3947 899.068 94.566 902.632 Q92.7605 906.174 92.7605 913.304 Q92.7605 920.41 94.566 923.975 Q96.3947 927.516 100.006 927.516 Q103.64 927.516 105.446 923.975 Q107.274 920.41 107.274 913.304 Q107.274 906.174 105.446 902.632 Q103.64 899.068 100.006 899.068 M100.006 895.364 Q105.816 895.364 108.872 899.97 Q111.95 904.554 111.95 913.304 Q111.95 922.03 108.872 926.637 Q105.816 931.22 100.006 931.22 Q94.1957 931.22 91.117 926.637 Q88.0614 922.03 88.0614 913.304 Q88.0614 904.554 91.117 899.97 Q94.1957 895.364 100.006 895.364 Z" fill="#000000" fill-rule="evenodd" fill-opacity="1" /><path clip-path="url(#clip770)" d="M 0 0 M127.02 899.068 Q123.408 899.068 121.58 902.632 Q119.774 906.174 119.774 913.304 Q119.774 920.41 121.58 923.975 Q123.408 927.516 127.02 927.516 Q130.654 927.516 132.459 923.975 Q134.288 920.41 134.288 913.304 Q134.288 906.174 132.459 902.632 Q130.654 899.068 127.02 899.068 M127.02 895.364 Q132.83 895.364 135.885 899.97 Q138.964 904.554 138.964 913.304 Q138.964 922.03 135.885 926.637 Q132.83 931.22 127.02 931.22 Q121.209 931.22 118.131 926.637 Q115.075 922.03 115.075 913.304 Q115.075 904.554 118.131 899.97 Q121.209 895.364 127.02 895.364 Z" fill="#000000" fill-rule="evenodd" fill-opacity="1" /><path clip-path="url(#clip770)" d="M 0 0 M66.0245 660.39 L73.6634 660.39 L73.6634 634.025 L65.3532 635.691 L65.3532 631.432 L73.6171 629.765 L78.293 629.765 L78.293 660.39 L85.9318 660.39 L85.9318 664.325 L66.0245 664.325 L66.0245 660.39 Z" fill="#000000" fill-rule="evenodd" fill-opacity="1" /><path clip-path="url(#clip770)" d="M 0 0 M91.0475 629.765 L109.404 629.765 L109.404 633.701 L95.3299 633.701 L95.3299 642.173 Q96.3484 641.826 97.3669 641.664 Q98.3855 641.478 99.404 641.478 Q105.191 641.478 108.571 644.65 Q111.95 647.821 111.95 653.238 Q111.95 658.816 108.478 661.918 Q105.006 664.997 98.6864 664.997 Q96.5105 664.997 94.242 664.626 Q91.9966 664.256 89.5892 663.515 L89.5892 658.816 Q91.6725 659.95 93.8947 660.506 Q96.1169 661.062 98.5938 661.062 Q102.598 661.062 104.936 658.955 Q107.274 656.849 107.274 653.238 Q107.274 649.626 104.936 647.52 Q102.598 645.414 98.5938 645.414 Q96.7188 645.414 94.8438 645.83 Q92.992 646.247 91.0475 647.126 L91.0475 629.765 Z" fill="#000000" fill-rule="evenodd" fill-opacity="1" /><path clip-path="url(#clip770)" d="M 0 0 M127.02 632.844 Q123.408 632.844 121.58 636.409 Q119.774 639.951 119.774 647.08 Q119.774 654.187 121.58 657.751 Q123.408 661.293 127.02 661.293 Q130.654 661.293 132.459 657.751 Q134.288 654.187 134.288 647.08 Q134.288 639.951 132.459 636.409 Q130.654 632.844 127.02 632.844 M127.02 629.14 Q132.83 629.14 135.885 633.747 Q138.964 638.33 138.964 647.08 Q138.964 655.807 135.885 660.413 Q132.83 664.997 127.02 664.997 Q121.209 664.997 118.131 660.413 Q115.075 655.807 115.075 647.08 Q115.075 638.33 118.131 633.747 Q121.209 629.14 127.02 629.14 Z" fill="#000000" fill-rule="evenodd" fill-opacity="1" /><path clip-path="url(#clip770)" d="M 0 0 M68.6171 394.167 L84.9365 394.167 L84.9365 398.102 L62.9921 398.102 L62.9921 394.167 Q65.6541 391.412 70.2375 386.783 Q74.8439 382.13 76.0245 380.787 Q78.2698 378.264 79.1494 376.528 Q80.0522 374.769 80.0522 373.079 Q80.0522 370.324 78.1078 368.588 Q76.1865 366.852 73.0847 366.852 Q70.8856 366.852 68.4319 367.616 Q66.0014 368.38 63.2236 369.931 L63.2236 365.209 Q66.0477 364.074 68.5014 363.496 Q70.955 362.917 72.9921 362.917 Q78.3624 362.917 81.5568 365.602 Q84.7513 368.287 84.7513 372.778 Q84.7513 374.908 83.9411 376.829 Q83.1541 378.727 81.0476 381.32 Q80.4689 381.991 77.367 385.209 Q74.2652 388.403 68.6171 394.167 Z" fill="#000000" fill-rule="evenodd" fill-opacity="1" /><path clip-path="url(#clip770)" d="M 0 0 M100.006 366.621 Q96.3947 366.621 94.566 370.186 Q92.7605 373.727 92.7605 380.857 Q92.7605 387.963 94.566 391.528 Q96.3947 395.07 100.006 395.07 Q103.64 395.07 105.446 391.528 Q107.274 387.963 107.274 380.857 Q107.274 373.727 105.446 370.186 Q103.64 366.621 100.006 366.621 M100.006 362.917 Q105.816 362.917 108.872 367.523 Q111.95 372.107 111.95 380.857 Q111.95 389.584 108.872 394.19 Q105.816 398.773 100.006 398.773 Q94.1957 398.773 91.117 394.19 Q88.0614 389.584 88.0614 380.857 Q88.0614 372.107 91.117 367.523 Q94.1957 362.917 100.006 362.917 Z" fill="#000000" fill-rule="evenodd" fill-opacity="1" /><path clip-path="url(#clip770)" d="M 0 0 M127.02 366.621 Q123.408 366.621 121.58 370.186 Q119.774 373.727 119.774 380.857 Q119.774 387.963 121.58 391.528 Q123.408 395.07 127.02 395.07 Q130.654 395.07 132.459 391.528 Q134.288 387.963 134.288 380.857 Q134.288 373.727 132.459 370.186 Q130.654 366.621 127.02 366.621 M127.02 362.917 Q132.83 362.917 135.885 367.523 Q138.964 372.107 138.964 380.857 Q138.964 389.584 135.885 394.19 Q132.83 398.773 127.02 398.773 Q121.209 398.773 118.131 394.19 Q115.075 389.584 115.075 380.857 Q115.075 372.107 118.131 367.523 Q121.209 362.917 127.02 362.917 Z" fill="#000000" fill-rule="evenodd" fill-opacity="1" /><path clip-path="url(#clip770)" d="M 0 0 M69.6125 127.943 L85.9318 127.943 L85.9318 131.879 L63.9875 131.879 L63.9875 127.943 Q66.6495 125.189 71.2328 120.559 Q75.8393 115.906 77.0198 114.564 Q79.2652 112.041 80.1448 110.305 Q81.0476 108.545 81.0476 106.856 Q81.0476 104.101 79.1032 102.365 Q77.1819 100.629 74.08 100.629 Q71.881 100.629 69.4273 101.393 Q66.9967 102.157 64.219 103.707 L64.219 98.9853 Q67.043 97.851 69.4967 97.2723 Q71.9504 96.6936 73.9874 96.6936 Q79.3578 96.6936 82.5522 99.3788 Q85.7466 102.064 85.7466 106.555 Q85.7466 108.684 84.9365 110.606 Q84.1494 112.504 82.0429 115.096 Q81.4642 115.768 78.3624 118.985 Q75.2606 122.18 69.6125 127.943 Z" fill="#000000" fill-rule="evenodd" fill-opacity="1" /><path clip-path="url(#clip770)" d="M 0 0 M91.0475 97.3186 L109.404 97.3186 L109.404 101.254 L95.3299 101.254 L95.3299 109.726 Q96.3484 109.379 97.3669 109.217 Q98.3855 109.032 99.404 109.032 Q105.191 109.032 108.571 112.203 Q111.95 115.374 111.95 120.791 Q111.95 126.369 108.478 129.471 Q105.006 132.55 98.6864 132.55 Q96.5105 132.55 94.242 132.18 Q91.9966 131.809 89.5892 131.068 L89.5892 126.369 Q91.6725 127.504 93.8947 128.059 Q96.1169 128.615 98.5938 128.615 Q102.598 128.615 104.936 126.508 Q107.274 124.402 107.274 120.791 Q107.274 117.18 104.936 115.073 Q102.598 112.967 98.5938 112.967 Q96.7188 112.967 94.8438 113.383 Q92.992 113.8 91.0475 114.68 L91.0475 97.3186 Z" fill="#000000" fill-rule="evenodd" fill-opacity="1" /><path clip-path="url(#clip770)" d="M 0 0 M127.02 100.397 Q123.408 100.397 121.58 103.962 Q119.774 107.504 119.774 114.633 Q119.774 121.74 121.58 125.305 Q123.408 128.846 127.02 128.846 Q130.654 128.846 132.459 125.305 Q134.288 121.74 134.288 114.633 Q134.288 107.504 132.459 103.962 Q130.654 100.397 127.02 100.397 M127.02 96.6936 Q132.83 96.6936 135.885 101.3 Q138.964 105.883 138.964 114.633 Q138.964 123.36 135.885 127.967 Q132.83 132.55 127.02 132.55 Q121.209 132.55 118.131 127.967 Q115.075 123.36 115.075 114.633 Q115.075 105.883 118.131 101.3 Q121.209 96.6936 127.02 96.6936 Z" fill="#000000" fill-rule="evenodd" fill-opacity="1" /><polyline clip-path="url(#clip772)" style="stroke:#009af9; stroke-width:4; stroke-opacity:1; fill:none" points="
  224.939,1445.72 230.333,1445.72 235.727,1445.72 241.121,1445.72 246.515,1445.72 251.908,1440.39 257.302,1440.39 262.696,1440.39 268.09,1440.39 273.484,1435.07 
  278.878,1435.07 284.271,1429.74 289.665,1429.74 295.059,1424.42 300.453,1424.42 305.847,1419.09 311.241,1413.77 316.634,1413.77 322.028,1408.44 327.422,1403.12 
  332.816,1397.8 338.21,1392.47 343.604,1387.15 348.998,1381.82 354.391,1376.5 359.785,1371.17 365.179,1365.85 370.573,1365.85 375.967,1360.52 381.361,1355.2 
  386.754,1349.88 392.148,1344.55 397.542,1339.23 402.936,1333.9 408.33,1328.58 413.724,1323.25 419.117,1323.25 424.511,1317.93 429.905,1312.6 435.299,1307.28 
  440.693,1301.96 446.087,1296.63 451.481,1291.31 456.874,1291.31 462.268,1285.98 467.662,1280.66 473.056,1275.33 478.45,1270.01 483.844,1264.68 489.237,1264.68 
  494.631,1259.36 500.025,1254.03 505.419,1248.71 510.813,1243.39 516.207,1238.06 521.6,1238.06 526.994,1232.74 532.388,1227.41 537.782,1222.09 543.176,1216.76 
  548.57,1216.76 553.964,1211.44 559.357,1206.11 564.751,1200.79 570.145,1195.47 575.539,1195.47 580.933,1190.14 586.327,1184.82 591.72,1179.49 597.114,1179.49 
  602.508,1174.17 607.902,1168.84 613.296,1163.52 618.69,1158.19 624.083,1158.19 629.477,1152.87 634.871,1147.55 640.265,1142.22 645.659,1142.22 651.053,1136.9 
  656.447,1131.57 661.84,1126.25 667.234,1126.25 672.628,1120.92 678.022,1115.6 683.416,1110.27 688.81,1110.27 694.203,1104.95 699.597,1099.63 704.991,1094.3 
  710.385,1094.3 715.779,1088.98 721.173,1083.65 726.566,1078.33 731.96,1078.33 737.354,1073 742.748,1067.68 748.142,1062.35 753.536,1062.35 758.93,1057.03 
  764.323,1051.71 769.717,1046.38 775.111,1046.38 780.505,1041.06 785.899,1035.73 791.293,1035.73 796.686,1030.41 802.08,1025.08 807.474,1019.76 812.868,1019.76 
  818.262,1014.43 823.656,1009.11 829.049,1003.78 834.443,1003.78 839.837,998.46 845.231,993.136 850.625,993.136 856.019,987.811 861.413,982.487 866.806,977.162 
  872.2,977.162 877.594,971.838 882.988,966.514 888.382,966.514 893.776,961.189 899.169,955.865 904.563,955.865 909.957,950.54 915.351,945.216 920.745,939.891 
  926.139,939.891 931.532,934.567 936.926,929.242 942.32,929.242 947.714,923.918 953.108,918.593 958.502,918.593 963.896,913.269 969.289,907.944 974.683,902.62 
  980.077,902.62 985.471,897.295 990.865,891.971 996.259,891.971 1001.65,886.647 1007.05,881.322 1012.44,881.322 1017.83,875.998 1023.23,870.673 1028.62,870.673 
  1034.02,865.349 1039.41,860.024 1044.8,854.7 1050.2,854.7 1055.59,849.375 1060.98,844.051 1066.38,844.051 1071.77,838.726 1077.17,833.402 1082.56,833.402 
  1087.95,828.077 1093.35,822.753 1098.74,822.753 1104.14,817.428 1109.53,812.104 1114.92,812.104 1120.32,806.779 1125.71,801.455 1131.1,801.455 1136.5,796.131 
  1141.89,790.806 1147.29,790.806 1152.68,785.482 1158.07,780.157 1163.47,780.157 1168.86,774.833 1174.26,769.508 1179.65,769.508 1185.04,764.184 1190.44,758.859 
  1195.83,758.859 1201.22,753.535 1206.62,748.21 1212.01,748.21 1217.41,742.886 1222.8,737.561 1228.19,737.561 1233.59,732.237 1238.98,726.912 1244.38,726.912 
  1249.77,721.588 1255.16,716.264 1260.56,716.264 1265.95,710.939 1271.34,705.615 1276.74,705.615 1282.13,700.29 1287.53,694.966 1292.92,694.966 1298.31,689.641 
  1303.71,684.317 1309.1,684.317 1314.5,678.992 1319.89,678.992 1325.28,673.668 1330.68,668.343 1336.07,668.343 1341.46,663.019 1346.86,657.694 1352.25,657.694 
  1357.65,652.37 1363.04,647.045 1368.43,647.045 1373.83,641.721 1379.22,636.397 1384.62,636.397 1390.01,631.072 1395.4,625.748 1400.8,625.748 1406.19,620.423 
  1411.58,620.423 1416.98,615.099 1422.37,609.774 1427.77,609.774 1433.16,604.45 1438.55,599.125 1443.95,599.125 1449.34,593.801 1454.74,588.476 1460.13,588.476 
  1465.52,583.152 1470.92,583.152 1476.31,577.827 1481.7,572.503 1487.1,572.503 1492.49,567.178 1497.89,561.854 1503.28,561.854 1508.67,556.529 1514.07,551.205 
  1519.46,551.205 1524.86,545.881 1530.25,545.881 1535.64,540.556 1541.04,535.232 1546.43,535.232 1551.82,529.907 1557.22,524.583 1562.61,524.583 1568.01,519.258 
  1573.4,513.934 1578.79,513.934 1584.19,508.609 1589.58,508.609 1594.98,503.285 1600.37,497.96 1605.76,497.96 1611.16,492.636 1616.55,487.311 1621.94,487.311 
  1627.34,481.987 1632.73,481.987 1638.13,476.662 1643.52,471.338 1648.91,471.338 1654.31,466.014 1659.7,460.689 1665.09,460.689 1670.49,455.365 1675.88,455.365 
  1681.28,450.04 1686.67,444.716 1692.06,444.716 1697.46,439.391 1702.85,439.391 1708.25,434.067 1713.64,428.742 1719.03,428.742 1724.43,423.418 1729.82,418.093 
  1735.21,418.093 1740.61,412.769 1746,412.769 1751.4,407.444 1756.79,402.12 1762.18,402.12 1767.58,396.795 1772.97,396.795 1778.37,391.471 1783.76,386.147 
  1789.15,386.147 1794.55,380.822 1799.94,375.498 1805.33,375.498 1810.73,370.173 1816.12,370.173 1821.52,364.849 1826.91,359.524 1832.3,359.524 1837.7,354.2 
  1843.09,354.2 1848.49,348.875 1853.88,343.551 1859.27,343.551 1864.67,338.226 1870.06,338.226 1875.45,332.902 1880.85,327.577 1886.24,327.577 1891.64,322.253 
  1897.03,316.928 1902.42,316.928 1907.82,311.604 1913.21,311.604 1918.61,306.279 1924,300.955 1929.39,300.955 1934.79,295.631 1940.18,295.631 1945.57,290.306 
  1950.97,284.982 1956.36,284.982 1961.76,279.657 1967.15,279.657 1972.54,274.333 1977.94,269.008 1983.33,269.008 1988.73,263.684 1994.12,263.684 1999.51,258.359 
  2004.91,253.035 2010.3,253.035 2015.69,247.71 2021.09,247.71 2026.48,242.386 2031.88,237.061 2037.27,237.061 2042.66,231.737 2048.06,231.737 2053.45,226.412 
  2058.85,221.088 2064.24,221.088 2069.63,215.764 2075.03,215.764 2080.42,210.439 2085.81,205.115 2091.21,205.115 2096.6,199.79 2102,199.79 2107.39,194.466 
  2112.78,189.141 2118.18,189.141 2123.57,183.817 2128.97,183.817 2134.36,178.492 2139.75,173.168 2145.15,173.168 2150.54,167.843 2155.93,167.843 2161.33,162.519 
  2166.72,162.519 2172.12,157.194 2177.51,151.87 2182.9,151.87 2188.3,146.545 2193.69,146.545 2199.09,141.221 2204.48,135.896 2209.87,135.896 2215.27,130.572 
  2220.66,130.572 2226.05,125.248 2231.45,119.923 2236.84,119.923 2242.24,114.599 2247.63,114.599 2253.02,109.274 2258.42,109.274 2263.81,103.95 2269.21,98.6252 
  2274.6,98.6252 2279.99,93.3007 2285.39,93.3007 2290.78,87.9763 
  "/>
<path clip-path="url(#clip770)" d="
M1985.43 216.178 L2279.76 216.178 L2279.76 95.2176 L1985.43 95.2176  Z
  " fill="#ffffff" fill-rule="evenodd" fill-opacity="1"/>
<polyline clip-path="url(#clip770)" style="stroke:#000000; stroke-width:4; stroke-opacity:1; fill:none" points="
  1985.43,216.178 2279.76,216.178 2279.76,95.2176 1985.43,95.2176 1985.43,216.178 
  "/>
<polyline clip-path="url(#clip770)" style="stroke:#009af9; stroke-width:4; stroke-opacity:1; fill:none" points="
  2009.77,155.698 2155.75,155.698 
  "/>
<path clip-path="url(#clip770)" d="M 0 0 M2193.93 175.385 Q2192.12 180.015 2190.41 181.427 Q2188.69 182.839 2185.82 182.839 L2182.42 182.839 L2182.42 179.274 L2184.92 179.274 Q2186.68 179.274 2187.65 178.44 Q2188.62 177.607 2189.8 174.505 L2190.57 172.561 L2180.08 147.052 L2184.6 147.052 L2192.7 167.329 L2200.8 147.052 L2205.31 147.052 L2193.93 175.385 Z" fill="#000000" fill-rule="evenodd" fill-opacity="1" /><path clip-path="url(#clip770)" d="M 0 0 M2211.19 169.042 L2218.83 169.042 L2218.83 142.677 L2210.52 144.343 L2210.52 140.084 L2218.79 138.418 L2223.46 138.418 L2223.46 169.042 L2231.1 169.042 L2231.1 172.978 L2211.19 172.978 L2211.19 169.042 Z" fill="#000000" fill-rule="evenodd" fill-opacity="1" /></svg>
