<?xml version="1.0" encoding="utf-8"?>
<svg xmlns="http://www.w3.org/2000/svg" xmlns:xlink="http://www.w3.org/1999/xlink" width="600" height="400" viewBox="0 0 2400 1600">
<defs>
  <clipPath id="clip650">
    <rect x="0" y="0" width="2400" height="1600"/>
  </clipPath>
</defs>
<path clip-path="url(#clip650)" d="
M0 1600 L2400 1600 L2400 0 L0 0  Z
  " fill="#ffffff" fill-rule="evenodd" fill-opacity="1"/>
<defs>
  <clipPath id="clip651">
    <rect x="480" y="0" width="1681" height="1600"/>
  </clipPath>
</defs>
<path clip-path="url(#clip650)" d="
M162.964 1486.45 L2352.76 1486.45 L2352.76 47.2441 L162.964 47.2441  Z
  " fill="#ffffff" fill-rule="evenodd" fill-opacity="1"/>
<defs>
  <clipPath id="clip652">
    <rect x="162" y="47" width="2191" height="1440"/>
  </clipPath>
</defs>
<polyline clip-path="url(#clip652)" style="stroke:#000000; stroke-width:2; stroke-opacity:0.1; fill:none" points="
  224.293,1486.45 224.293,47.2441 
  "/>
<polyline clip-path="url(#clip652)" style="stroke:#000000; stroke-width:2; stroke-opacity:0.1; fill:none" points="
  870.071,1486.45 870.071,47.2441 
  "/>
<polyline clip-path="url(#clip652)" style="stroke:#000000; stroke-width:2; stroke-opacity:0.1; fill:none" points="
  1515.85,1486.45 1515.85,47.2441 
  "/>
<polyline clip-path="url(#clip652)" style="stroke:#000000; stroke-width:2; stroke-opacity:0.1; fill:none" points="
  2161.63,1486.45 2161.63,47.2441 
  "/>
<polyline clip-path="url(#clip652)" style="stroke:#000000; stroke-width:2; stroke-opacity:0.1; fill:none" points="
  162.964,1445.72 2352.76,1445.72 
  "/>
<polyline clip-path="url(#clip652)" style="stroke:#000000; stroke-width:2; stroke-opacity:0.1; fill:none" points="
  162.964,1179.49 2352.76,1179.49 
  "/>
<polyline clip-path="url(#clip652)" style="stroke:#000000; stroke-width:2; stroke-opacity:0.1; fill:none" points="
  162.964,913.269 2352.76,913.269 
  "/>
<polyline clip-path="url(#clip652)" style="stroke:#000000; stroke-width:2; stroke-opacity:0.1; fill:none" points="
  162.964,647.045 2352.76,647.045 
  "/>
<polyline clip-path="url(#clip652)" style="stroke:#000000; stroke-width:2; stroke-opacity:0.1; fill:none" points="
  162.964,380.822 2352.76,380.822 
  "/>
<polyline clip-path="url(#clip652)" style="stroke:#000000; stroke-width:2; stroke-opacity:0.1; fill:none" points="
  162.964,114.599 2352.76,114.599 
  "/>
<polyline clip-path="url(#clip650)" style="stroke:#000000; stroke-width:4; stroke-opacity:1; fill:none" points="
  162.964,1486.45 2352.76,1486.45 
  "/>
<polyline clip-path="url(#clip650)" style="stroke:#000000; stroke-width:4; stroke-opacity:1; fill:none" points="
  162.964,1486.45 162.964,47.2441 
  "/>
<polyline clip-path="url(#clip650)" style="stroke:#000000; stroke-width:4; stroke-opacity:1; fill:none" points="
  224.293,1486.45 224.293,1469.18 
  "/>
<polyline clip-path="url(#clip650)" style="stroke:#000000; stroke-width:4; stroke-opacity:1; fill:none" points="
  870.071,1486.45 870.071,1469.18 
  "/>
<polyline clip-path="url(#clip650)" style="stroke:#000000; stroke-width:4; stroke-opacity:1; fill:none" points="
  1515.85,1486.45 1515.85,1469.18 
  "/>
<polyline clip-path="url(#clip650)" style="stroke:#000000; stroke-width:4; stroke-opacity:1; fill:none" points="
  2161.63,1486.45 2161.63,1469.18 
  "/>
<polyline clip-path="url(#clip650)" style="stroke:#000000; stroke-width:4; stroke-opacity:1; fill:none" points="
  162.964,1445.72 189.241,1445.72 
  "/>
<polyline clip-path="url(#clip650)" style="stroke:#000000; stroke-width:4; stroke-opacity:1; fill:none" points="
  162.964,1179.49 189.241,1179.49 
  "/>
<polyline clip-path="url(#clip650)" style="stroke:#000000; stroke-width:4; stroke-opacity:1; fill:none" points="
  162.964,913.269 189.241,913.269 
  "/>
<polyline clip-path="url(#clip650)" style="stroke:#000000; stroke-width:4; stroke-opacity:1; fill:none" points="
  162.964,647.045 189.241,647.045 
  "/>
<polyline clip-path="url(#clip650)" style="stroke:#000000; stroke-width:4; stroke-opacity:1; fill:none" points="
  162.964,380.822 189.241,380.822 
  "/>
<polyline clip-path="url(#clip650)" style="stroke:#000000; stroke-width:4; stroke-opacity:1; fill:none" points="
  162.964,114.599 189.241,114.599 
  "/>
<path clip-path="url(#clip650)" d="M 0 0 M224.293 1508.44 Q220.682 1508.44 218.854 1512 Q217.048 1515.55 217.048 1522.67 Q217.048 1529.78 218.854 1533.35 Q220.682 1536.89 224.293 1536.89 Q227.928 1536.89 229.733 1533.35 Q231.562 1529.78 231.562 1522.67 Q231.562 1515.55 229.733 1512 Q227.928 1508.44 224.293 1508.44 M224.293 1504.73 Q230.104 1504.73 233.159 1509.34 Q236.238 1513.92 236.238 1522.67 Q236.238 1531.4 233.159 1536.01 Q230.104 1540.59 224.293 1540.59 Q218.483 1540.59 215.405 1536.01 Q212.349 1531.4 212.349 1522.67 Q212.349 1513.92 215.405 1509.34 Q218.483 1504.73 224.293 1504.73 Z" fill="#000000" fill-rule="evenodd" fill-opacity="1" /><path clip-path="url(#clip650)" d="M 0 0 M819.932 1535.98 L827.571 1535.98 L827.571 1509.62 L819.261 1511.29 L819.261 1507.03 L827.525 1505.36 L832.201 1505.36 L832.201 1535.98 L839.839 1535.98 L839.839 1539.92 L819.932 1539.92 L819.932 1535.98 Z" fill="#000000" fill-rule="evenodd" fill-opacity="1" /><path clip-path="url(#clip650)" d="M 0 0 M854.909 1508.44 Q851.298 1508.44 849.469 1512 Q847.663 1515.55 847.663 1522.67 Q847.663 1529.78 849.469 1533.35 Q851.298 1536.89 854.909 1536.89 Q858.543 1536.89 860.349 1533.35 Q862.177 1529.78 862.177 1522.67 Q862.177 1515.55 860.349 1512 Q858.543 1508.44 854.909 1508.44 M854.909 1504.73 Q860.719 1504.73 863.774 1509.34 Q866.853 1513.92 866.853 1522.67 Q866.853 1531.4 863.774 1536.01 Q860.719 1540.59 854.909 1540.59 Q849.099 1540.59 846.02 1536.01 Q842.964 1531.4 842.964 1522.67 Q842.964 1513.92 846.02 1509.34 Q849.099 1504.73 854.909 1504.73 Z" fill="#000000" fill-rule="evenodd" fill-opacity="1" /><path clip-path="url(#clip650)" d="M 0 0 M881.922 1508.44 Q878.311 1508.44 876.483 1512 Q874.677 1515.55 874.677 1522.67 Q874.677 1529.78 876.483 1533.35 Q878.311 1536.89 881.922 1536.89 Q885.557 1536.89 887.362 1533.35 Q889.191 1529.78 889.191 1522.67 Q889.191 1515.55 887.362 1512 Q885.557 1508.44 881.922 1508.44 M881.922 1504.73 Q887.733 1504.73 890.788 1509.34 Q893.867 1513.92 893.867 1522.67 Q893.867 1531.4 890.788 1536.01 Q887.733 1540.59 881.922 1540.59 Q876.112 1540.59 873.034 1536.01 Q869.978 1531.4 869.978 1522.67 Q869.978 1513.92 873.034 1509.34 Q876.112 1504.73 881.922 1504.73 Z" fill="#000000" fill-rule="evenodd" fill-opacity="1" /><path clip-path="url(#clip650)" d="M 0 0 M908.936 1508.44 Q905.325 1508.44 903.496 1512 Q901.691 1515.55 901.691 1522.67 Q901.691 1529.78 903.496 1533.35 Q905.325 1536.89 908.936 1536.89 Q912.57 1536.89 914.376 1533.35 Q916.205 1529.78 916.205 1522.67 Q916.205 1515.55 914.376 1512 Q912.57 1508.44 908.936 1508.44 M908.936 1504.73 Q914.746 1504.73 917.802 1509.34 Q920.881 1513.92 920.881 1522.67 Q920.881 1531.4 917.802 1536.01 Q914.746 1540.59 908.936 1540.59 Q903.126 1540.59 900.047 1536.01 Q896.992 1531.4 896.992 1522.67 Q896.992 1513.92 900.047 1509.34 Q903.126 1504.73 908.936 1504.73 Z" fill="#000000" fill-rule="evenodd" fill-opacity="1" /><path clip-path="url(#clip650)" d="M 0 0 M1469.98 1535.98 L1486.3 1535.98 L1486.3 1539.92 L1464.36 1539.92 L1464.36 1535.98 Q1467.02 1533.23 1471.6 1528.6 Q1476.21 1523.95 1477.39 1522.61 Q1479.63 1520.08 1480.51 1518.35 Q1481.42 1516.59 1481.42 1514.9 Q1481.42 1512.14 1479.47 1510.41 Q1477.55 1508.67 1474.45 1508.67 Q1472.25 1508.67 1469.79 1509.43 Q1467.36 1510.2 1464.59 1511.75 L1464.59 1507.03 Q1467.41 1505.89 1469.86 1505.31 Q1472.32 1504.73 1474.36 1504.73 Q1479.73 1504.73 1482.92 1507.42 Q1486.11 1510.11 1486.11 1514.6 Q1486.11 1516.73 1485.3 1518.65 Q1484.52 1520.54 1482.41 1523.14 Q1481.83 1523.81 1478.73 1527.03 Q1475.63 1530.22 1469.98 1535.98 Z" fill="#000000" fill-rule="evenodd" fill-opacity="1" /><path clip-path="url(#clip650)" d="M 0 0 M1501.37 1508.44 Q1497.76 1508.44 1495.93 1512 Q1494.12 1515.55 1494.12 1522.67 Q1494.12 1529.78 1495.93 1533.35 Q1497.76 1536.89 1501.37 1536.89 Q1505 1536.89 1506.81 1533.35 Q1508.64 1529.78 1508.64 1522.67 Q1508.64 1515.55 1506.81 1512 Q1505 1508.44 1501.37 1508.44 M1501.37 1504.73 Q1507.18 1504.73 1510.23 1509.34 Q1513.31 1513.92 1513.31 1522.67 Q1513.31 1531.4 1510.23 1536.01 Q1507.18 1540.59 1501.37 1540.59 Q1495.56 1540.59 1492.48 1536.01 Q1489.42 1531.4 1489.42 1522.67 Q1489.42 1513.92 1492.48 1509.34 Q1495.56 1504.73 1501.37 1504.73 Z" fill="#000000" fill-rule="evenodd" fill-opacity="1" /><path clip-path="url(#clip650)" d="M 0 0 M1528.38 1508.44 Q1524.77 1508.44 1522.94 1512 Q1521.14 1515.55 1521.14 1522.67 Q1521.14 1529.78 1522.94 1533.35 Q1524.77 1536.89 1528.38 1536.89 Q1532.02 1536.89 1533.82 1533.35 Q1535.65 1529.78 1535.65 1522.67 Q1535.65 1515.55 1533.82 1512 Q1532.02 1508.44 1528.38 1508.44 M1528.38 1504.73 Q1534.19 1504.73 1537.25 1509.34 Q1540.33 1513.92 1540.33 1522.67 Q1540.33 1531.4 1537.25 1536.01 Q1534.19 1540.59 1528.38 1540.59 Q1522.57 1540.59 1519.49 1536.01 Q1516.44 1531.4 1516.44 1522.67 Q1516.44 1513.92 1519.49 1509.34 Q1522.57 1504.73 1528.38 1504.73 Z" fill="#000000" fill-rule="evenodd" fill-opacity="1" /><path clip-path="url(#clip650)" d="M 0 0 M1555.4 1508.44 Q1551.79 1508.44 1549.96 1512 Q1548.15 1515.55 1548.15 1522.67 Q1548.15 1529.78 1549.96 1533.35 Q1551.79 1536.89 1555.4 1536.89 Q1559.03 1536.89 1560.84 1533.35 Q1562.66 1529.78 1562.66 1522.67 Q1562.66 1515.55 1560.84 1512 Q1559.03 1508.44 1555.4 1508.44 M1555.4 1504.73 Q1561.21 1504.73 1564.26 1509.34 Q1567.34 1513.92 1567.34 1522.67 Q1567.34 1531.4 1564.26 1536.01 Q1561.21 1540.59 1555.4 1540.59 Q1549.59 1540.59 1546.51 1536.01 Q1543.45 1531.4 1543.45 1522.67 Q1543.45 1513.92 1546.51 1509.34 Q1549.59 1504.73 1555.4 1504.73 Z" fill="#000000" fill-rule="evenodd" fill-opacity="1" /><path clip-path="url(#clip650)" d="M 0 0 M2125.35 1521.29 Q2128.71 1522 2130.58 1524.27 Q2132.48 1526.54 2132.48 1529.87 Q2132.48 1534.99 2128.96 1537.79 Q2125.44 1540.59 2118.96 1540.59 Q2116.79 1540.59 2114.47 1540.15 Q2112.18 1539.73 2109.73 1538.88 L2109.73 1534.36 Q2111.67 1535.5 2113.99 1536.08 Q2116.3 1536.66 2118.82 1536.66 Q2123.22 1536.66 2125.51 1534.92 Q2127.83 1533.18 2127.83 1529.87 Q2127.83 1526.82 2125.68 1525.11 Q2123.55 1523.37 2119.73 1523.37 L2115.7 1523.37 L2115.7 1519.53 L2119.91 1519.53 Q2123.36 1519.53 2125.19 1518.16 Q2127.02 1516.77 2127.02 1514.18 Q2127.02 1511.52 2125.12 1510.11 Q2123.25 1508.67 2119.73 1508.67 Q2117.81 1508.67 2115.61 1509.09 Q2113.41 1509.5 2110.77 1510.38 L2110.77 1506.22 Q2113.43 1505.48 2115.75 1505.11 Q2118.08 1504.73 2120.14 1504.73 Q2125.47 1504.73 2128.57 1507.17 Q2131.67 1509.57 2131.67 1513.69 Q2131.67 1516.56 2130.03 1518.55 Q2128.38 1520.52 2125.35 1521.29 Z" fill="#000000" fill-rule="evenodd" fill-opacity="1" /><path clip-path="url(#clip650)" d="M 0 0 M2147.55 1508.44 Q2143.94 1508.44 2142.11 1512 Q2140.31 1515.55 2140.31 1522.67 Q2140.31 1529.78 2142.11 1533.35 Q2143.94 1536.89 2147.55 1536.89 Q2151.19 1536.89 2152.99 1533.35 Q2154.82 1529.78 2154.82 1522.67 Q2154.82 1515.55 2152.99 1512 Q2151.19 1508.44 2147.55 1508.44 M2147.55 1504.73 Q2153.36 1504.73 2156.42 1509.34 Q2159.5 1513.92 2159.5 1522.67 Q2159.5 1531.4 2156.42 1536.01 Q2153.36 1540.59 2147.55 1540.59 Q2141.74 1540.59 2138.66 1536.01 Q2135.61 1531.4 2135.61 1522.67 Q2135.61 1513.92 2138.66 1509.34 Q2141.74 1504.73 2147.55 1504.73 Z" fill="#000000" fill-rule="evenodd" fill-opacity="1" /><path clip-path="url(#clip650)" d="M 0 0 M2174.56 1508.44 Q2170.95 1508.44 2169.13 1512 Q2167.32 1515.55 2167.32 1522.67 Q2167.32 1529.78 2169.13 1533.35 Q2170.95 1536.89 2174.56 1536.89 Q2178.2 1536.89 2180 1533.35 Q2181.83 1529.78 2181.83 1522.67 Q2181.83 1515.55 2180 1512 Q2178.2 1508.44 2174.56 1508.44 M2174.56 1504.73 Q2180.38 1504.73 2183.43 1509.34 Q2186.51 1513.92 2186.51 1522.67 Q2186.51 1531.4 2183.43 1536.01 Q2180.38 1540.59 2174.56 1540.59 Q2168.75 1540.59 2165.68 1536.01 Q2162.62 1531.4 2162.62 1522.67 Q2162.62 1513.92 2165.68 1509.34 Q2168.75 1504.73 2174.56 1504.73 Z" fill="#000000" fill-rule="evenodd" fill-opacity="1" /><path clip-path="url(#clip650)" d="M 0 0 M2201.58 1508.44 Q2197.97 1508.44 2196.14 1512 Q2194.33 1515.55 2194.33 1522.67 Q2194.33 1529.78 2196.14 1533.35 Q2197.97 1536.89 2201.58 1536.89 Q2205.21 1536.89 2207.02 1533.35 Q2208.85 1529.78 2208.85 1522.67 Q2208.85 1515.55 2207.02 1512 Q2205.21 1508.44 2201.58 1508.44 M2201.58 1504.73 Q2207.39 1504.73 2210.44 1509.34 Q2213.52 1513.92 2213.52 1522.67 Q2213.52 1531.4 2210.44 1536.01 Q2207.39 1540.59 2201.58 1540.59 Q2195.77 1540.59 2192.69 1536.01 Q2189.63 1531.4 2189.63 1522.67 Q2189.63 1513.92 2192.69 1509.34 Q2195.77 1504.73 2201.58 1504.73 Z" fill="#000000" fill-rule="evenodd" fill-opacity="1" /><path clip-path="url(#clip650)" d="M 0 0 M127.02 1431.51 Q123.408 1431.51 121.58 1435.08 Q119.774 1438.62 119.774 1445.75 Q119.774 1452.86 121.58 1456.42 Q123.408 1459.96 127.02 1459.96 Q130.654 1459.96 132.459 1456.42 Q134.288 1452.86 134.288 1445.75 Q134.288 1438.62 132.459 1435.08 Q130.654 1431.51 127.02 1431.51 M127.02 1427.81 Q132.83 1427.81 135.885 1432.42 Q138.964 1437 138.964 1445.75 Q138.964 1454.48 135.885 1459.08 Q132.83 1463.67 127.02 1463.67 Q121.209 1463.67 118.131 1459.08 Q115.075 1454.48 115.075 1445.75 Q115.075 1437 118.131 1432.42 Q121.209 1427.81 127.02 1427.81 Z" fill="#000000" fill-rule="evenodd" fill-opacity="1" /><path clip-path="url(#clip650)" d="M 0 0 M91.0475 1162.21 L109.404 1162.21 L109.404 1166.15 L95.3299 1166.15 L95.3299 1174.62 Q96.3484 1174.27 97.3669 1174.11 Q98.3855 1173.93 99.404 1173.93 Q105.191 1173.93 108.571 1177.1 Q111.95 1180.27 111.95 1185.68 Q111.95 1191.26 108.478 1194.36 Q105.006 1197.44 98.6864 1197.44 Q96.5105 1197.44 94.242 1197.07 Q91.9966 1196.7 89.5892 1195.96 L89.5892 1191.26 Q91.6725 1192.4 93.8947 1192.95 Q96.1169 1193.51 98.5938 1193.51 Q102.598 1193.51 104.936 1191.4 Q107.274 1189.3 107.274 1185.68 Q107.274 1182.07 104.936 1179.97 Q102.598 1177.86 98.5938 1177.86 Q96.7188 1177.86 94.8438 1178.28 Q92.992 1178.69 91.0475 1179.57 L91.0475 1162.21 Z" fill="#000000" fill-rule="evenodd" fill-opacity="1" /><path clip-path="url(#clip650)" d="M 0 0 M127.02 1165.29 Q123.408 1165.29 121.58 1168.86 Q119.774 1172.4 119.774 1179.53 Q119.774 1186.63 121.58 1190.2 Q123.408 1193.74 127.02 1193.74 Q130.654 1193.74 132.459 1190.2 Q134.288 1186.63 134.288 1179.53 Q134.288 1172.4 132.459 1168.86 Q130.654 1165.29 127.02 1165.29 M127.02 1161.59 Q132.83 1161.59 135.885 1166.19 Q138.964 1170.78 138.964 1179.53 Q138.964 1188.25 135.885 1192.86 Q132.83 1197.44 127.02 1197.44 Q121.209 1197.44 118.131 1192.86 Q115.075 1188.25 115.075 1179.53 Q115.075 1170.78 118.131 1166.19 Q121.209 1161.59 127.02 1161.59 Z" fill="#000000" fill-rule="evenodd" fill-opacity="1" /><path clip-path="url(#clip650)" d="M 0 0 M65.0292 926.614 L72.668 926.614 L72.668 900.248 L64.3579 901.915 L64.3579 897.656 L72.6217 895.989 L77.2976 895.989 L77.2976 926.614 L84.9365 926.614 L84.9365 930.549 L65.0292 930.549 L65.0292 926.614 Z" fill="#000000" fill-rule="evenodd" fill-opacity="1" /><path clip-path="url(#clip650)" d="M 0 0 M100.006 899.068 Q96.3947 899.068 94.566 902.632 Q92.7605 906.174 92.7605 913.304 Q92.7605 920.41 94.566 923.975 Q96.3947 927.516 100.006 927.516 Q103.64 927.516 105.446 923.975 Q107.274 920.41 107.274 913.304 Q107.274 906.174 105.446 902.632 Q103.64 899.068 100.006 899.068 M100.006 895.364 Q105.816 895.364 108.872 899.97 Q111.95 904.554 111.95 913.304 Q111.95 922.03 108.872 926.637 Q105.816 931.22 100.006 931.22 Q94.1957 931.22 91.117 926.637 Q88.0614 922.03 88.0614 913.304 Q88.0614 904.554 91.117 899.97 Q94.1957 895.364 100.006 895.364 Z" fill="#000000" fill-rule="evenodd" fill-opacity="1" /><path clip-path="url(#clip650)" d="M 0 0 M127.02 899.068 Q123.408 899.068 121.58 902.632 Q119.774 906.174 119.774 913.304 Q119.774 920.41 121.58 923.975 Q123.408 927.516 127.02 927.516 Q130.654 927.516 132.459 923.975 Q134.288 920.41 134.288 913.304 Q134.288 906.174 132.459 902.632 Q130.654 899.068 127.02 899.068 M127.02 895.364 Q132.83 895.364 135.885 899.97 Q138.964 904.554 138.964 913.304 Q138.964 922.03 135.885 926.637 Q132.83 931.22 127.02 931.22 Q121.209 931.22 118.131 926.637 Q115.075 922.03 115.075 913.304 Q115.075 904.554 118.131 899.97 Q121.209 895.364 127.02 895.364 Z" fill="#000000" fill-rule="evenodd" fill-opacity="1" /><path clip-path="url(#clip650)" d="M 0 0 M66.0245 660.39 L73.6634 660.39 L73.6634 634.025 L65.3532 635.691 L65.3532 631.432 L73.6171 629.765 L78.293 629.765 L78.293 660.39 L85.9318 660.39 L85.9318 664.325 L66.0245 664.325 L66.0245 660.39 Z" fill="#000000" fill-rule="evenodd" fill-opacity="1" /><path clip-path="url(#clip650)" d="M 0 0 M91.0475 629.765 L109.404 629.765 L109.404 633.701 L95.3299 633.701 L95.3299 642.173 Q96.3484 641.826 97.3669 641.664 Q98.3855 641.478 99.404 641.478 Q105.191 641.478 108.571 644.65 Q111.95 647.821 111.95 653.238 Q111.95 658.816 108.478 661.918 Q105.006 664.997 98.6864 664.997 Q96.5105 664.997 94.242 664.626 Q91.9966 664.256 89.5892 663.515 L89.5892 658.816 Q91.6725 659.95 93.8947 660.506 Q96.1169 661.062 98.5938 661.062 Q102.598 661.062 104.936 658.955 Q107.274 656.849 107.274 653.238 Q107.274 649.626 104.936 647.52 Q102.598 645.414 98.5938 645.414 Q96.7188 645.414 94.8438 645.83 Q92.992 646.247 91.0475 647.126 L91.0475 629.765 Z" fill="#000000" fill-rule="evenodd" fill-opacity="1" /><path clip-path="url(#clip650)" d="M 0 0 M127.02 632.844 Q123.408 632.844 121.58 636.409 Q119.774 639.951 119.774 647.08 Q119.774 654.187 121.58 657.751 Q123.408 661.293 127.02 661.293 Q130.654 661.293 132.459 657.751 Q134.288 654.187 134.288 647.08 Q134.288 639.951 132.459 636.409 Q130.654 632.844 127.02 632.844 M127.02 629.14 Q132.83 629.14 135.885 633.747 Q138.964 638.33 138.964 647.08 Q138.964 655.807 135.885 660.413 Q132.83 664.997 127.02 664.997 Q121.209 664.997 118.131 660.413 Q115.075 655.807 115.075 647.08 Q115.075 638.33 118.131 633.747 Q121.209 629.14 127.02 629.14 Z" fill="#000000" fill-rule="evenodd" fill-opacity="1" /><path clip-path="url(#clip650)" d="M 0 0 M68.6171 394.167 L84.9365 394.167 L84.9365 398.102 L62.9921 398.102 L62.9921 394.167 Q65.6541 391.412 70.2375 386.783 Q74.8439 382.13 76.0245 380.787 Q78.2698 378.264 79.1494 376.528 Q80.0522 374.769 80.0522 373.079 Q80.0522 370.324 78.1078 368.588 Q76.1865 366.852 73.0847 366.852 Q70.8856 366.852 68.4319 367.616 Q66.0014 368.38 63.2236 369.931 L63.2236 365.209 Q66.0477 364.074 68.5014 363.496 Q70.955 362.917 72.9921 362.917 Q78.3624 362.917 81.5568 365.602 Q84.7513 368.287 84.7513 372.778 Q84.7513 374.908 83.9411 376.829 Q83.1541 378.727 81.0476 381.32 Q80.4689 381.991 77.367 385.209 Q74.2652 388.403 68.6171 394.167 Z" fill="#000000" fill-rule="evenodd" fill-opacity="1" /><path clip-path="url(#clip650)" d="M 0 0 M100.006 366.621 Q96.3947 366.621 94.566 370.186 Q92.7605 373.727 92.7605 380.857 Q92.7605 387.963 94.566 391.528 Q96.3947 395.07 100.006 395.07 Q103.64 395.07 105.446 391.528 Q107.274 387.963 107.274 380.857 Q107.274 373.727 105.446 370.186 Q103.64 366.621 100.006 366.621 M100.006 362.917 Q105.816 362.917 108.872 367.523 Q111.95 372.107 111.95 380.857 Q111.95 389.584 108.872 394.19 Q105.816 398.773 100.006 398.773 Q94.1957 398.773 91.117 394.19 Q88.0614 389.584 88.0614 380.857 Q88.0614 372.107 91.117 367.523 Q94.1957 362.917 100.006 362.917 Z" fill="#000000" fill-rule="evenodd" fill-opacity="1" /><path clip-path="url(#clip650)" d="M 0 0 M127.02 366.621 Q123.408 366.621 121.58 370.186 Q119.774 373.727 119.774 380.857 Q119.774 387.963 121.58 391.528 Q123.408 395.07 127.02 395.07 Q130.654 395.07 132.459 391.528 Q134.288 387.963 134.288 380.857 Q134.288 373.727 132.459 370.186 Q130.654 366.621 127.02 366.621 M127.02 362.917 Q132.83 362.917 135.885 367.523 Q138.964 372.107 138.964 380.857 Q138.964 389.584 135.885 394.19 Q132.83 398.773 127.02 398.773 Q121.209 398.773 118.131 394.19 Q115.075 389.584 115.075 380.857 Q115.075 372.107 118.131 367.523 Q121.209 362.917 127.02 362.917 Z" fill="#000000" fill-rule="evenodd" fill-opacity="1" /><path clip-path="url(#clip650)" d="M 0 0 M69.6125 127.943 L85.9318 127.943 L85.9318 131.879 L63.9875 131.879 L63.9875 127.943 Q66.6495 125.189 71.2328 120.559 Q75.8393 115.906 77.0198 114.564 Q79.2652 112.041 80.1448 110.305 Q81.0476 108.545 81.0476 106.856 Q81.0476 104.101 79.1032 102.365 Q77.1819 100.629 74.08 100.629 Q71.881 100.629 69.4273 101.393 Q66.9967 102.157 64.219 103.707 L64.219 98.9853 Q67.043 97.851 69.4967 97.2723 Q71.9504 96.6936 73.9874 96.6936 Q79.3578 96.6936 82.5522 99.3788 Q85.7466 102.064 85.7466 106.555 Q85.7466 108.684 84.9365 110.606 Q84.1494 112.504 82.0429 115.096 Q81.4642 115.768 78.3624 118.985 Q75.2606 122.18 69.6125 127.943 Z" fill="#000000" fill-rule="evenodd" fill-opacity="1" /><path clip-path="url(#clip650)" d="M 0 0 M91.0475 97.3186 L109.404 97.3186 L109.404 101.254 L95.3299 101.254 L95.3299 109.726 Q96.3484 109.379 97.3669 109.217 Q98.3855 109.032 99.404 109.032 Q105.191 109.032 108.571 112.203 Q111.95 115.374 111.95 120.791 Q111.95 126.369 108.478 129.471 Q105.006 132.55 98.6864 132.55 Q96.5105 132.55 94.242 132.18 Q91.9966 131.809 89.5892 131.068 L89.5892 126.369 Q91.6725 127.504 93.8947 128.059 Q96.1169 128.615 98.5938 128.615 Q102.598 128.615 104.936 126.508 Q107.274 124.402 107.274 120.791 Q107.274 117.18 104.936 115.073 Q102.598 112.967 98.5938 112.967 Q96.7188 112.967 94.8438 113.383 Q92.992 113.8 91.0475 114.68 L91.0475 97.3186 Z" fill="#000000" fill-rule="evenodd" fill-opacity="1" /><path clip-path="url(#clip650)" d="M 0 0 M127.02 100.397 Q123.408 100.397 121.58 103.962 Q119.774 107.504 119.774 114.633 Q119.774 121.74 121.58 125.305 Q123.408 128.846 127.02 128.846 Q130.654 128.846 132.459 125.305 Q134.288 121.74 134.288 114.633 Q134.288 107.504 132.459 103.962 Q130.654 100.397 127.02 100.397 M127.02 96.6936 Q132.83 96.6936 135.885 101.3 Q138.964 105.883 138.964 114.633 Q138.964 123.36 135.885 127.967 Q132.83 132.55 127.02 132.55 Q121.209 132.55 118.131 127.967 Q115.075 123.36 115.075 114.633 Q115.075 105.883 118.131 101.3 Q121.209 96.6936 127.02 96.6936 Z" fill="#000000" fill-rule="evenodd" fill-opacity="1" /><polyline clip-path="url(#clip652)" style="stroke:#009af9; stroke-width:4; stroke-opacity:1; fill:none" points="
  224.939,1445.72 225.585,1440.39 226.231,1435.07 226.877,1429.74 227.522,1424.42 228.168,1419.09 228.814,1413.77 229.46,1408.44 230.105,1403.12 230.751,1397.8 
  231.397,1392.47 232.043,1387.15 232.689,1381.82 233.334,1376.5 233.98,1371.17 234.626,1365.85 235.272,1360.52 235.917,1360.52 236.563,1355.2 237.209,1349.88 
  237.855,1349.88 238.501,1344.55 239.146,1339.23 239.792,1339.23 240.438,1333.9 241.084,1328.58 241.729,1328.58 242.375,1323.25 243.021,1323.25 243.667,1317.93 
  244.313,1317.93 244.958,1312.6 245.604,1312.6 246.25,1307.28 246.896,1307.28 247.541,1301.96 248.187,1301.96 248.833,1296.63 249.479,1296.63 250.124,1291.31 
  250.77,1291.31 251.416,1285.98 252.062,1285.98 252.708,1280.66 253.353,1280.66 253.999,1280.66 254.645,1275.33 255.291,1275.33 255.936,1270.01 256.582,1270.01 
  257.228,1264.68 257.874,1264.68 258.52,1264.68 259.165,1259.36 259.811,1259.36 260.457,1259.36 261.103,1254.03 261.748,1254.03 262.394,1248.71 263.04,1248.71 
  263.686,1248.71 264.332,1243.39 264.977,1243.39 265.623,1243.39 266.269,1238.06 266.915,1238.06 267.56,1238.06 268.206,1232.74 268.852,1232.74 269.498,1232.74 
  270.144,1227.41 270.789,1227.41 271.435,1227.41 272.081,1222.09 272.727,1222.09 273.372,1222.09 274.018,1216.76 274.664,1216.76 275.31,1216.76 275.956,1211.44 
  276.601,1211.44 277.247,1211.44 277.893,1211.44 278.539,1206.11 279.184,1206.11 279.83,1206.11 280.476,1200.79 281.122,1200.79 281.768,1200.79 282.413,1200.79 
  283.059,1195.47 283.705,1195.47 284.351,1195.47 284.996,1190.14 285.642,1190.14 286.288,1190.14 286.934,1190.14 287.58,1184.82 288.225,1184.82 288.871,1184.82 
  289.517,1184.82 290.163,1179.49 290.808,1179.49 291.454,1179.49 292.1,1174.17 292.746,1174.17 293.392,1174.17 294.037,1174.17 294.683,1168.84 295.329,1168.84 
  295.975,1168.84 296.62,1168.84 297.266,1163.52 297.912,1163.52 298.558,1163.52 299.204,1163.52 299.849,1158.19 300.495,1158.19 301.141,1158.19 301.787,1158.19 
  302.432,1158.19 303.078,1152.87 303.724,1152.87 304.37,1152.87 305.016,1152.87 305.661,1147.55 306.307,1147.55 306.953,1147.55 307.599,1147.55 308.244,1142.22 
  308.89,1142.22 309.536,1142.22 310.182,1142.22 310.828,1142.22 311.473,1136.9 312.119,1136.9 312.765,1136.9 313.411,1136.9 314.056,1131.57 314.702,1131.57 
  315.348,1131.57 315.994,1131.57 316.64,1131.57 317.285,1126.25 317.931,1126.25 318.577,1126.25 319.223,1126.25 319.868,1120.92 320.514,1120.92 321.16,1120.92 
  321.806,1120.92 322.452,1120.92 323.097,1115.6 323.743,1115.6 324.389,1115.6 325.035,1115.6 325.68,1115.6 326.326,1110.27 326.972,1110.27 327.618,1110.27 
  328.264,1110.27 328.909,1110.27 329.555,1104.95 330.201,1104.95 330.847,1104.95 331.492,1104.95 332.138,1104.95 332.784,1099.63 333.43,1099.63 334.076,1099.63 
  334.721,1099.63 335.367,1099.63 336.013,1094.3 336.659,1094.3 337.304,1094.3 337.95,1094.3 338.596,1094.3 339.242,1088.98 339.888,1088.98 340.533,1088.98 
  341.179,1088.98 341.825,1088.98 342.471,1088.98 343.116,1083.65 343.762,1083.65 344.408,1083.65 345.054,1083.65 345.7,1083.65 346.345,1078.33 346.991,1078.33 
  347.637,1078.33 348.283,1078.33 348.928,1078.33 349.574,1078.33 350.22,1073 350.866,1073 351.512,1073 352.157,1073 352.803,1073 353.449,1067.68 
  354.095,1067.68 354.74,1067.68 355.386,1067.68 356.032,1067.68 356.678,1067.68 357.324,1062.35 357.969,1062.35 358.615,1062.35 359.261,1062.35 359.907,1062.35 
  360.552,1062.35 361.198,1057.03 361.844,1057.03 362.49,1057.03 363.136,1057.03 363.781,1057.03 364.427,1057.03 365.073,1051.71 365.719,1051.71 366.364,1051.71 
  367.01,1051.71 367.656,1051.71 368.302,1051.71 368.948,1046.38 369.593,1046.38 370.239,1046.38 370.885,1046.38 371.531,1046.38 372.176,1046.38 372.822,1041.06 
  373.468,1041.06 374.114,1041.06 374.76,1041.06 375.405,1041.06 376.051,1041.06 376.697,1035.73 377.343,1035.73 377.988,1035.73 378.634,1035.73 379.28,1035.73 
  379.926,1035.73 380.572,1030.41 381.217,1030.41 381.863,1030.41 382.509,1030.41 383.155,1030.41 383.8,1030.41 384.446,1025.08 385.092,1025.08 385.738,1025.08 
  386.384,1025.08 387.029,1025.08 387.675,1025.08 388.321,1025.08 388.967,1019.76 389.612,1019.76 390.258,1019.76 390.904,1019.76 391.55,1019.76 392.195,1019.76 
  392.841,1014.43 393.487,1014.43 394.133,1014.43 394.779,1014.43 395.424,1014.43 396.07,1014.43 396.716,1014.43 397.362,1009.11 398.007,1009.11 398.653,1009.11 
  399.299,1009.11 399.945,1009.11 400.591,1009.11 401.236,1009.11 401.882,1003.78 402.528,1003.78 403.174,1003.78 403.819,1003.78 404.465,1003.78 405.111,1003.78 
  405.757,1003.78 406.403,998.46 407.048,998.46 407.694,998.46 408.34,998.46 408.986,998.46 409.631,998.46 410.277,998.46 410.923,993.136 411.569,993.136 
  412.215,993.136 412.86,993.136 413.506,993.136 414.152,993.136 414.798,993.136 415.443,987.811 416.089,987.811 416.735,987.811 417.381,987.811 418.027,987.811 
  418.672,987.811 419.318,987.811 419.964,982.487 420.61,982.487 421.255,982.487 421.901,982.487 422.547,982.487 423.193,982.487 423.839,982.487 424.484,977.162 
  425.13,977.162 425.776,977.162 426.422,977.162 427.067,977.162 427.713,977.162 428.359,977.162 429.005,971.838 429.651,971.838 430.296,971.838 430.942,971.838 
  431.588,971.838 432.234,971.838 432.879,971.838 433.525,971.838 434.171,966.514 434.817,966.514 435.463,966.514 436.108,966.514 436.754,966.514 437.4,966.514 
  438.046,966.514 438.691,961.189 439.337,961.189 439.983,961.189 440.629,961.189 441.275,961.189 441.92,961.189 442.566,961.189 443.212,961.189 443.858,955.865 
  444.503,955.865 445.149,955.865 445.795,955.865 446.441,955.865 447.087,955.865 447.732,955.865 448.378,955.865 449.024,950.54 449.67,950.54 450.315,950.54 
  450.961,950.54 451.607,950.54 452.253,950.54 452.899,950.54 453.544,950.54 454.19,945.216 454.836,945.216 455.482,945.216 456.127,945.216 456.773,945.216 
  457.419,945.216 458.065,945.216 458.711,945.216 459.356,939.891 460.002,939.891 460.648,939.891 461.294,939.891 461.939,939.891 462.585,939.891 463.231,939.891 
  463.877,939.891 464.523,934.567 465.168,934.567 465.814,934.567 466.46,934.567 467.106,934.567 467.751,934.567 468.397,934.567 469.043,934.567 469.689,929.242 
  470.335,929.242 470.98,929.242 471.626,929.242 472.272,929.242 472.918,929.242 473.563,929.242 474.209,929.242 474.855,923.918 475.501,923.918 476.147,923.918 
  476.792,923.918 477.438,923.918 478.084,923.918 478.73,923.918 479.375,923.918 480.021,918.593 480.667,918.593 481.313,918.593 481.959,918.593 482.604,918.593 
  483.25,918.593 483.896,918.593 484.542,918.593 485.187,918.593 485.833,913.269 486.479,913.269 487.125,913.269 487.771,913.269 488.416,913.269 489.062,913.269 
  489.708,913.269 490.354,913.269 490.999,907.944 491.645,907.944 492.291,907.944 492.937,907.944 493.583,907.944 494.228,907.944 494.874,907.944 495.52,907.944 
  496.166,907.944 496.811,902.62 497.457,902.62 498.103,902.62 498.749,902.62 499.395,902.62 500.04,902.62 500.686,902.62 501.332,902.62 501.978,902.62 
  502.623,897.295 503.269,897.295 503.915,897.295 504.561,897.295 505.207,897.295 505.852,897.295 506.498,897.295 507.144,897.295 507.79,897.295 508.435,891.971 
  509.081,891.971 509.727,891.971 510.373,891.971 511.019,891.971 511.664,891.971 512.31,891.971 512.956,891.971 513.602,891.971 514.247,886.647 514.893,886.647 
  515.539,886.647 516.185,886.647 516.831,886.647 517.476,886.647 518.122,886.647 518.768,886.647 519.414,886.647 520.059,881.322 520.705,881.322 521.351,881.322 
  521.997,881.322 522.643,881.322 523.288,881.322 523.934,881.322 524.58,881.322 525.226,881.322 525.871,875.998 526.517,875.998 527.163,875.998 527.809,875.998 
  528.455,875.998 529.1,875.998 529.746,875.998 530.392,875.998 531.038,875.998 531.683,875.998 532.329,870.673 532.975,870.673 533.621,870.673 534.266,870.673 
  534.912,870.673 535.558,870.673 536.204,870.673 536.85,870.673 537.495,870.673 538.141,865.349 538.787,865.349 539.433,865.349 540.078,865.349 540.724,865.349 
  541.37,865.349 542.016,865.349 542.662,865.349 543.307,865.349 543.953,865.349 544.599,860.024 545.245,860.024 545.89,860.024 546.536,860.024 547.182,860.024 
  547.828,860.024 548.474,860.024 549.119,860.024 549.765,860.024 550.411,854.7 551.057,854.7 551.702,854.7 552.348,854.7 552.994,854.7 553.64,854.7 
  554.286,854.7 554.931,854.7 555.577,854.7 556.223,854.7 556.869,849.375 557.514,849.375 558.16,849.375 558.806,849.375 559.452,849.375 560.098,849.375 
  560.743,849.375 561.389,849.375 562.035,849.375 562.681,849.375 563.326,844.051 563.972,844.051 564.618,844.051 565.264,844.051 565.91,844.051 566.555,844.051 
  567.201,844.051 567.847,844.051 568.493,844.051 569.138,844.051 569.784,838.726 570.43,838.726 571.076,838.726 571.722,838.726 572.367,838.726 573.013,838.726 
  573.659,838.726 574.305,838.726 574.95,838.726 575.596,838.726 576.242,833.402 576.888,833.402 577.534,833.402 578.179,833.402 578.825,833.402 579.471,833.402 
  580.117,833.402 580.762,833.402 581.408,833.402 582.054,833.402 582.7,828.077 583.346,828.077 583.991,828.077 584.637,828.077 585.283,828.077 585.929,828.077 
  586.574,828.077 587.22,828.077 587.866,828.077 588.512,828.077 589.158,822.753 589.803,822.753 590.449,822.753 591.095,822.753 591.741,822.753 592.386,822.753 
  593.032,822.753 593.678,822.753 594.324,822.753 594.97,822.753 595.615,822.753 596.261,817.428 596.907,817.428 597.553,817.428 598.198,817.428 598.844,817.428 
  599.49,817.428 600.136,817.428 600.782,817.428 601.427,817.428 602.073,817.428 602.719,812.104 603.365,812.104 604.01,812.104 604.656,812.104 605.302,812.104 
  605.948,812.104 606.594,812.104 607.239,812.104 607.885,812.104 608.531,812.104 609.177,812.104 609.822,806.779 610.468,806.779 611.114,806.779 611.76,806.779 
  612.406,806.779 613.051,806.779 613.697,806.779 614.343,806.779 614.989,806.779 615.634,806.779 616.28,806.779 616.926,801.455 617.572,801.455 618.218,801.455 
  618.863,801.455 619.509,801.455 620.155,801.455 620.801,801.455 621.446,801.455 622.092,801.455 622.738,801.455 623.384,801.455 624.03,796.131 624.675,796.131 
  625.321,796.131 625.967,796.131 626.613,796.131 627.258,796.131 627.904,796.131 628.55,796.131 629.196,796.131 629.842,796.131 630.487,796.131 631.133,790.806 
  631.779,790.806 632.425,790.806 633.07,790.806 633.716,790.806 634.362,790.806 635.008,790.806 635.654,790.806 636.299,790.806 636.945,790.806 637.591,790.806 
  638.237,785.482 638.882,785.482 639.528,785.482 640.174,785.482 640.82,785.482 641.466,785.482 642.111,785.482 642.757,785.482 643.403,785.482 644.049,785.482 
  644.694,785.482 645.34,780.157 645.986,780.157 646.632,780.157 647.278,780.157 647.923,780.157 648.569,780.157 649.215,780.157 649.861,780.157 650.506,780.157 
  651.152,780.157 651.798,780.157 652.444,774.833 653.09,774.833 653.735,774.833 654.381,774.833 655.027,774.833 655.673,774.833 656.318,774.833 656.964,774.833 
  657.61,774.833 658.256,774.833 658.902,774.833 659.547,774.833 660.193,769.508 660.839,769.508 661.485,769.508 662.13,769.508 662.776,769.508 663.422,769.508 
  664.068,769.508 664.714,769.508 665.359,769.508 666.005,769.508 666.651,769.508 667.297,764.184 667.942,764.184 668.588,764.184 669.234,764.184 669.88,764.184 
  670.525,764.184 671.171,764.184 671.817,764.184 672.463,764.184 673.109,764.184 673.754,764.184 674.4,764.184 675.046,758.859 675.692,758.859 676.337,758.859 
  676.983,758.859 677.629,758.859 678.275,758.859 678.921,758.859 679.566,758.859 680.212,758.859 680.858,758.859 681.504,758.859 682.149,758.859 682.795,753.535 
  683.441,753.535 684.087,753.535 684.733,753.535 685.378,753.535 686.024,753.535 686.67,753.535 687.316,753.535 687.961,753.535 688.607,753.535 689.253,753.535 
  689.899,753.535 690.545,748.21 691.19,748.21 691.836,748.21 692.482,748.21 693.128,748.21 693.773,748.21 694.419,748.21 695.065,748.21 695.711,748.21 
  696.357,748.21 697.002,748.21 697.648,748.21 698.294,742.886 698.94,742.886 699.585,742.886 700.231,742.886 700.877,742.886 701.523,742.886 702.169,742.886 
  702.814,742.886 703.46,742.886 704.106,742.886 704.752,742.886 705.397,742.886 706.043,737.561 706.689,737.561 707.335,737.561 707.981,737.561 708.626,737.561 
  709.272,737.561 709.918,737.561 710.564,737.561 711.209,737.561 711.855,737.561 712.501,737.561 713.147,737.561 713.793,732.237 714.438,732.237 715.084,732.237 
  715.73,732.237 716.376,732.237 717.021,732.237 717.667,732.237 718.313,732.237 718.959,732.237 719.605,732.237 720.25,732.237 720.896,732.237 721.542,726.912 
  722.188,726.912 722.833,726.912 723.479,726.912 724.125,726.912 724.771,726.912 725.417,726.912 726.062,726.912 726.708,726.912 727.354,726.912 728,726.912 
  728.645,726.912 729.291,726.912 729.937,721.588 730.583,721.588 731.229,721.588 731.874,721.588 732.52,721.588 733.166,721.588 733.812,721.588 734.457,721.588 
  735.103,721.588 735.749,721.588 736.395,721.588 737.041,721.588 737.686,716.264 738.332,716.264 738.978,716.264 739.624,716.264 740.269,716.264 740.915,716.264 
  741.561,716.264 742.207,716.264 742.853,716.264 743.498,716.264 744.144,716.264 744.79,716.264 745.436,716.264 746.081,710.939 746.727,710.939 747.373,710.939 
  748.019,710.939 748.665,710.939 749.31,710.939 749.956,710.939 750.602,710.939 751.248,710.939 751.893,710.939 752.539,710.939 753.185,710.939 753.831,710.939 
  754.477,705.615 755.122,705.615 755.768,705.615 756.414,705.615 757.06,705.615 757.705,705.615 758.351,705.615 758.997,705.615 759.643,705.615 760.289,705.615 
  760.934,705.615 761.58,705.615 762.226,705.615 762.872,700.29 763.517,700.29 764.163,700.29 764.809,700.29 765.455,700.29 766.101,700.29 766.746,700.29 
  767.392,700.29 768.038,700.29 768.684,700.29 769.329,700.29 769.975,700.29 770.621,700.29 771.267,694.966 771.913,694.966 772.558,694.966 773.204,694.966 
  773.85,694.966 774.496,694.966 775.141,694.966 775.787,694.966 776.433,694.966 777.079,694.966 777.725,694.966 778.37,694.966 779.016,694.966 779.662,689.641 
  780.308,689.641 780.953,689.641 781.599,689.641 782.245,689.641 782.891,689.641 783.537,689.641 784.182,689.641 784.828,689.641 785.474,689.641 786.12,689.641 
  786.765,689.641 787.411,689.641 788.057,684.317 788.703,684.317 789.349,684.317 789.994,684.317 790.64,684.317 791.286,684.317 791.932,684.317 792.577,684.317 
  793.223,684.317 793.869,684.317 794.515,684.317 795.161,684.317 795.806,684.317 796.452,684.317 797.098,678.992 797.744,678.992 798.389,678.992 799.035,678.992 
  799.681,678.992 800.327,678.992 800.973,678.992 801.618,678.992 802.264,678.992 802.91,678.992 803.556,678.992 804.201,678.992 804.847,678.992 805.493,673.668 
  806.139,673.668 806.785,673.668 807.43,673.668 808.076,673.668 808.722,673.668 809.368,673.668 810.013,673.668 810.659,673.668 811.305,673.668 811.951,673.668 
  812.596,673.668 813.242,673.668 813.888,673.668 814.534,668.343 815.18,668.343 815.825,668.343 816.471,668.343 817.117,668.343 817.763,668.343 818.408,668.343 
  819.054,668.343 819.7,668.343 820.346,668.343 820.992,668.343 821.637,668.343 822.283,668.343 822.929,668.343 823.575,663.019 824.22,663.019 824.866,663.019 
  825.512,663.019 826.158,663.019 826.804,663.019 827.449,663.019 828.095,663.019 828.741,663.019 829.387,663.019 830.032,663.019 830.678,663.019 831.324,663.019 
  831.97,663.019 832.616,657.694 833.261,657.694 833.907,657.694 834.553,657.694 835.199,657.694 835.844,657.694 836.49,657.694 837.136,657.694 837.782,657.694 
  838.428,657.694 839.073,657.694 839.719,657.694 840.365,657.694 841.011,657.694 841.656,652.37 842.302,652.37 842.948,652.37 843.594,652.37 844.24,652.37 
  844.885,652.37 845.531,652.37 846.177,652.37 846.823,652.37 847.468,652.37 848.114,652.37 848.76,652.37 849.406,652.37 850.052,652.37 850.697,647.045 
  851.343,647.045 851.989,647.045 852.635,647.045 853.28,647.045 853.926,647.045 854.572,647.045 855.218,647.045 855.864,647.045 856.509,647.045 857.155,647.045 
  857.801,647.045 858.447,647.045 859.092,647.045 859.738,641.721 860.384,641.721 861.03,641.721 861.676,641.721 862.321,641.721 862.967,641.721 863.613,641.721 
  864.259,641.721 864.904,641.721 865.55,641.721 866.196,641.721 866.842,641.721 867.488,641.721 868.133,641.721 868.779,641.721 869.425,636.397 870.071,636.397 
  870.716,636.397 871.362,636.397 872.008,636.397 872.654,636.397 873.3,636.397 873.945,636.397 874.591,636.397 875.237,636.397 875.883,636.397 876.528,636.397 
  877.174,636.397 877.82,636.397 878.466,631.072 879.112,631.072 879.757,631.072 880.403,631.072 881.049,631.072 881.695,631.072 882.34,631.072 882.986,631.072 
  883.632,631.072 884.278,631.072 884.924,631.072 885.569,631.072 886.215,631.072 886.861,631.072 887.507,631.072 888.152,625.748 888.798,625.748 889.444,625.748 
  890.09,625.748 890.736,625.748 891.381,625.748 892.027,625.748 892.673,625.748 893.319,625.748 893.964,625.748 894.61,625.748 895.256,625.748 895.902,625.748 
  896.548,625.748 897.193,625.748 897.839,620.423 898.485,620.423 899.131,620.423 899.776,620.423 900.422,620.423 901.068,620.423 901.714,620.423 902.36,620.423 
  903.005,620.423 903.651,620.423 904.297,620.423 904.943,620.423 905.588,620.423 906.234,620.423 906.88,620.423 907.526,615.099 908.172,615.099 908.817,615.099 
  909.463,615.099 910.109,615.099 910.755,615.099 911.4,615.099 912.046,615.099 912.692,615.099 913.338,615.099 913.984,615.099 914.629,615.099 915.275,615.099 
  915.921,615.099 916.567,615.099 917.212,609.774 917.858,609.774 918.504,609.774 919.15,609.774 919.796,609.774 920.441,609.774 921.087,609.774 921.733,609.774 
  922.379,609.774 923.024,609.774 923.67,609.774 924.316,609.774 924.962,609.774 925.608,609.774 926.253,609.774 926.899,604.45 927.545,604.45 928.191,604.45 
  928.836,604.45 929.482,604.45 930.128,604.45 930.774,604.45 931.42,604.45 932.065,604.45 932.711,604.45 933.357,604.45 934.003,604.45 934.648,604.45 
  935.294,604.45 935.94,604.45 936.586,599.125 937.232,599.125 937.877,599.125 938.523,599.125 939.169,599.125 939.815,599.125 940.46,599.125 941.106,599.125 
  941.752,599.125 942.398,599.125 943.044,599.125 943.689,599.125 944.335,599.125 944.981,599.125 945.627,599.125 946.272,593.801 946.918,593.801 947.564,593.801 
  948.21,593.801 948.856,593.801 949.501,593.801 950.147,593.801 950.793,593.801 951.439,593.801 952.084,593.801 952.73,593.801 953.376,593.801 954.022,593.801 
  954.667,593.801 955.313,593.801 955.959,593.801 956.605,588.476 957.251,588.476 957.896,588.476 958.542,588.476 959.188,588.476 959.834,588.476 960.479,588.476 
  961.125,588.476 961.771,588.476 962.417,588.476 963.063,588.476 963.708,588.476 964.354,588.476 965,588.476 965.646,588.476 966.291,583.152 966.937,583.152 
  967.583,583.152 968.229,583.152 968.875,583.152 969.52,583.152 970.166,583.152 970.812,583.152 971.458,583.152 972.103,583.152 972.749,583.152 973.395,583.152 
  974.041,583.152 974.687,583.152 975.332,583.152 975.978,583.152 976.624,577.827 977.27,577.827 977.915,577.827 978.561,577.827 979.207,577.827 979.853,577.827 
  980.499,577.827 981.144,577.827 981.79,577.827 982.436,577.827 983.082,577.827 983.727,577.827 984.373,577.827 985.019,577.827 985.665,577.827 986.311,577.827 
  986.956,572.503 987.602,572.503 988.248,572.503 988.894,572.503 989.539,572.503 990.185,572.503 990.831,572.503 991.477,572.503 992.123,572.503 992.768,572.503 
  993.414,572.503 994.06,572.503 994.706,572.503 995.351,572.503 995.997,572.503 996.643,572.503 997.289,567.178 997.935,567.178 998.58,567.178 999.226,567.178 
  999.872,567.178 1000.52,567.178 1001.16,567.178 1001.81,567.178 1002.46,567.178 1003.1,567.178 1003.75,567.178 1004.39,567.178 1005.04,567.178 1005.68,567.178 
  1006.33,567.178 1006.98,567.178 1007.62,561.854 1008.27,561.854 1008.91,561.854 1009.56,561.854 1010.2,561.854 1010.85,561.854 1011.5,561.854 1012.14,561.854 
  1012.79,561.854 1013.43,561.854 1014.08,561.854 1014.72,561.854 1015.37,561.854 1016.02,561.854 1016.66,561.854 1017.31,561.854 1017.95,561.854 1018.6,556.529 
  1019.25,556.529 1019.89,556.529 1020.54,556.529 1021.18,556.529 1021.83,556.529 1022.47,556.529 1023.12,556.529 1023.77,556.529 1024.41,556.529 1025.06,556.529 
  1025.7,556.529 1026.35,556.529 1026.99,556.529 1027.64,556.529 1028.29,556.529 1028.93,551.205 1029.58,551.205 1030.22,551.205 1030.87,551.205 1031.51,551.205 
  1032.16,551.205 1032.81,551.205 1033.45,551.205 1034.1,551.205 1034.74,551.205 1035.39,551.205 1036.04,551.205 1036.68,551.205 1037.33,551.205 1037.97,551.205 
  1038.62,551.205 1039.26,545.881 1039.91,545.881 1040.56,545.881 1041.2,545.881 1041.85,545.881 1042.49,545.881 1043.14,545.881 1043.78,545.881 1044.43,545.881 
  1045.08,545.881 1045.72,545.881 1046.37,545.881 1047.01,545.881 1047.66,545.881 1048.31,545.881 1048.95,545.881 1049.6,545.881 1050.24,540.556 1050.89,540.556 
  1051.53,540.556 1052.18,540.556 1052.83,540.556 1053.47,540.556 1054.12,540.556 1054.76,540.556 1055.41,540.556 1056.05,540.556 1056.7,540.556 1057.35,540.556 
  1057.99,540.556 1058.64,540.556 1059.28,540.556 1059.93,540.556 1060.57,540.556 1061.22,535.232 1061.87,535.232 1062.51,535.232 1063.16,535.232 1063.8,535.232 
  1064.45,535.232 1065.1,535.232 1065.74,535.232 1066.39,535.232 1067.03,535.232 1067.68,535.232 1068.32,535.232 1068.97,535.232 1069.62,535.232 1070.26,535.232 
  1070.91,535.232 1071.55,535.232 1072.2,529.907 1072.84,529.907 1073.49,529.907 1074.14,529.907 1074.78,529.907 1075.43,529.907 1076.07,529.907 1076.72,529.907 
  1077.37,529.907 1078.01,529.907 1078.66,529.907 1079.3,529.907 1079.95,529.907 1080.59,529.907 1081.24,529.907 1081.89,529.907 1082.53,529.907 1083.18,524.583 
  1083.82,524.583 1084.47,524.583 1085.11,524.583 1085.76,524.583 1086.41,524.583 1087.05,524.583 1087.7,524.583 1088.34,524.583 1088.99,524.583 1089.63,524.583 
  1090.28,524.583 1090.93,524.583 1091.57,524.583 1092.22,524.583 1092.86,524.583 1093.51,524.583 1094.16,519.258 1094.8,519.258 1095.45,519.258 1096.09,519.258 
  1096.74,519.258 1097.38,519.258 1098.03,519.258 1098.68,519.258 1099.32,519.258 1099.97,519.258 1100.61,519.258 1101.26,519.258 1101.9,519.258 1102.55,519.258 
  1103.2,519.258 1103.84,519.258 1104.49,519.258 1105.13,513.934 1105.78,513.934 1106.43,513.934 1107.07,513.934 1107.72,513.934 1108.36,513.934 1109.01,513.934 
  1109.65,513.934 1110.3,513.934 1110.95,513.934 1111.59,513.934 1112.24,513.934 1112.88,513.934 1113.53,513.934 1114.17,513.934 1114.82,513.934 1115.47,513.934 
  1116.11,513.934 1116.76,508.609 1117.4,508.609 1118.05,508.609 1118.69,508.609 1119.34,508.609 1119.99,508.609 1120.63,508.609 1121.28,508.609 1121.92,508.609 
  1122.57,508.609 1123.22,508.609 1123.86,508.609 1124.51,508.609 1125.15,508.609 1125.8,508.609 1126.44,508.609 1127.09,508.609 1127.74,503.285 1128.38,503.285 
  1129.03,503.285 1129.67,503.285 1130.32,503.285 1130.96,503.285 1131.61,503.285 1132.26,503.285 1132.9,503.285 1133.55,503.285 1134.19,503.285 1134.84,503.285 
  1135.49,503.285 1136.13,503.285 1136.78,503.285 1137.42,503.285 1138.07,503.285 1138.71,503.285 1139.36,497.96 1140.01,497.96 1140.65,497.96 1141.3,497.96 
  1141.94,497.96 1142.59,497.96 1143.23,497.96 1143.88,497.96 1144.53,497.96 1145.17,497.96 1145.82,497.96 1146.46,497.96 1147.11,497.96 1147.75,497.96 
  1148.4,497.96 1149.05,497.96 1149.69,497.96 1150.34,497.96 1150.98,492.636 1151.63,492.636 1152.28,492.636 1152.92,492.636 1153.57,492.636 1154.21,492.636 
  1154.86,492.636 1155.5,492.636 1156.15,492.636 1156.8,492.636 1157.44,492.636 1158.09,492.636 1158.73,492.636 1159.38,492.636 1160.02,492.636 1160.67,492.636 
  1161.32,492.636 1161.96,492.636 1162.61,487.311 1163.25,487.311 1163.9,487.311 1164.55,487.311 1165.19,487.311 1165.84,487.311 1166.48,487.311 1167.13,487.311 
  1167.77,487.311 1168.42,487.311 1169.07,487.311 1169.71,487.311 1170.36,487.311 1171,487.311 1171.65,487.311 1172.29,487.311 1172.94,487.311 1173.59,487.311 
  1174.23,481.987 1174.88,481.987 1175.52,481.987 1176.17,481.987 1176.81,481.987 1177.46,481.987 1178.11,481.987 1178.75,481.987 1179.4,481.987 1180.04,481.987 
  1180.69,481.987 1181.34,481.987 1181.98,481.987 1182.63,481.987 1183.27,481.987 1183.92,481.987 1184.56,481.987 1185.21,481.987 1185.86,476.662 1186.5,476.662 
  1187.15,476.662 1187.79,476.662 1188.44,476.662 1189.08,476.662 1189.73,476.662 1190.38,476.662 1191.02,476.662 1191.67,476.662 1192.31,476.662 1192.96,476.662 
  1193.61,476.662 1194.25,476.662 1194.9,476.662 1195.54,476.662 1196.19,476.662 1196.83,476.662 1197.48,471.338 1198.13,471.338 1198.77,471.338 1199.42,471.338 
  1200.06,471.338 1200.71,471.338 1201.35,471.338 1202,471.338 1202.65,471.338 1203.29,471.338 1203.94,471.338 1204.58,471.338 1205.23,471.338 1205.87,471.338 
  1206.52,471.338 1207.17,471.338 1207.81,471.338 1208.46,471.338 1209.1,471.338 1209.75,466.014 1210.4,466.014 1211.04,466.014 1211.69,466.014 1212.33,466.014 
  1212.98,466.014 1213.62,466.014 1214.27,466.014 1214.92,466.014 1215.56,466.014 1216.21,466.014 1216.85,466.014 1217.5,466.014 1218.14,466.014 1218.79,466.014 
  1219.44,466.014 1220.08,466.014 1220.73,466.014 1221.37,460.689 1222.02,460.689 1222.67,460.689 1223.31,460.689 1223.96,460.689 1224.6,460.689 1225.25,460.689 
  1225.89,460.689 1226.54,460.689 1227.19,460.689 1227.83,460.689 1228.48,460.689 1229.12,460.689 1229.77,460.689 1230.41,460.689 1231.06,460.689 1231.71,460.689 
  1232.35,460.689 1233,460.689 1233.64,455.365 1234.29,455.365 1234.93,455.365 1235.58,455.365 1236.23,455.365 1236.87,455.365 1237.52,455.365 1238.16,455.365 
  1238.81,455.365 1239.46,455.365 1240.1,455.365 1240.75,455.365 1241.39,455.365 1242.04,455.365 1242.68,455.365 1243.33,455.365 1243.98,455.365 1244.62,455.365 
  1245.27,455.365 1245.91,450.04 1246.56,450.04 1247.2,450.04 1247.85,450.04 1248.5,450.04 1249.14,450.04 1249.79,450.04 1250.43,450.04 1251.08,450.04 
  1251.73,450.04 1252.37,450.04 1253.02,450.04 1253.66,450.04 1254.31,450.04 1254.95,450.04 1255.6,450.04 1256.25,450.04 1256.89,450.04 1257.54,450.04 
  1258.18,444.716 1258.83,444.716 1259.47,444.716 1260.12,444.716 1260.77,444.716 1261.41,444.716 1262.06,444.716 1262.7,444.716 1263.35,444.716 1263.99,444.716 
  1264.64,444.716 1265.29,444.716 1265.93,444.716 1266.58,444.716 1267.22,444.716 1267.87,444.716 1268.52,444.716 1269.16,444.716 1269.81,444.716 1270.45,439.391 
  1271.1,439.391 1271.74,439.391 1272.39,439.391 1273.04,439.391 1273.68,439.391 1274.33,439.391 1274.97,439.391 1275.62,439.391 1276.26,439.391 1276.91,439.391 
  1277.56,439.391 1278.2,439.391 1278.85,439.391 1279.49,439.391 1280.14,439.391 1280.79,439.391 1281.43,439.391 1282.08,439.391 1282.72,434.067 1283.37,434.067 
  1284.01,434.067 1284.66,434.067 1285.31,434.067 1285.95,434.067 1286.6,434.067 1287.24,434.067 1287.89,434.067 1288.53,434.067 1289.18,434.067 1289.83,434.067 
  1290.47,434.067 1291.12,434.067 1291.76,434.067 1292.41,434.067 1293.05,434.067 1293.7,434.067 1294.35,434.067 1294.99,428.742 1295.64,428.742 1296.28,428.742 
  1296.93,428.742 1297.58,428.742 1298.22,428.742 1298.87,428.742 1299.51,428.742 1300.16,428.742 1300.8,428.742 1301.45,428.742 1302.1,428.742 1302.74,428.742 
  1303.39,428.742 1304.03,428.742 1304.68,428.742 1305.32,428.742 1305.97,428.742 1306.62,428.742 1307.26,428.742 1307.91,423.418 1308.55,423.418 1309.2,423.418 
  1309.84,423.418 1310.49,423.418 1311.14,423.418 1311.78,423.418 1312.43,423.418 1313.07,423.418 1313.72,423.418 1314.37,423.418 1315.01,423.418 1315.66,423.418 
  1316.3,423.418 1316.95,423.418 1317.59,423.418 1318.24,423.418 1318.89,423.418 1319.53,423.418 1320.18,423.418 1320.82,418.093 1321.47,418.093 1322.11,418.093 
  1322.76,418.093 1323.41,418.093 1324.05,418.093 1324.7,418.093 1325.34,418.093 1325.99,418.093 1326.64,418.093 1327.28,418.093 1327.93,418.093 1328.57,418.093 
  1329.22,418.093 1329.86,418.093 1330.51,418.093 1331.16,418.093 1331.8,418.093 1332.45,418.093 1333.09,412.769 1333.74,412.769 1334.38,412.769 1335.03,412.769 
  1335.68,412.769 1336.32,412.769 1336.97,412.769 1337.61,412.769 1338.26,412.769 1338.9,412.769 1339.55,412.769 1340.2,412.769 1340.84,412.769 1341.49,412.769 
  1342.13,412.769 1342.78,412.769 1343.43,412.769 1344.07,412.769 1344.72,412.769 1345.36,412.769 1346.01,407.444 1346.65,407.444 1347.3,407.444 1347.95,407.444 
  1348.59,407.444 1349.24,407.444 1349.88,407.444 1350.53,407.444 1351.17,407.444 1351.82,407.444 1352.47,407.444 1353.11,407.444 1353.76,407.444 1354.4,407.444 
  1355.05,407.444 1355.7,407.444 1356.34,407.444 1356.99,407.444 1357.63,407.444 1358.28,407.444 1358.92,402.12 1359.57,402.12 1360.22,402.12 1360.86,402.12 
  1361.51,402.12 1362.15,402.12 1362.8,402.12 1363.44,402.12 1364.09,402.12 1364.74,402.12 1365.38,402.12 1366.03,402.12 1366.67,402.12 1367.32,402.12 
  1367.96,402.12 1368.61,402.12 1369.26,402.12 1369.9,402.12 1370.55,402.12 1371.19,402.12 1371.84,402.12 1372.49,396.795 1373.13,396.795 1373.78,396.795 
  1374.42,396.795 1375.07,396.795 1375.71,396.795 1376.36,396.795 1377.01,396.795 1377.65,396.795 1378.3,396.795 1378.94,396.795 1379.59,396.795 1380.23,396.795 
  1380.88,396.795 1381.53,396.795 1382.17,396.795 1382.82,396.795 1383.46,396.795 1384.11,396.795 1384.76,396.795 1385.4,391.471 1386.05,391.471 1386.69,391.471 
  1387.34,391.471 1387.98,391.471 1388.63,391.471 1389.28,391.471 1389.92,391.471 1390.57,391.471 1391.21,391.471 1391.86,391.471 1392.5,391.471 1393.15,391.471 
  1393.8,391.471 1394.44,391.471 1395.09,391.471 1395.73,391.471 1396.38,391.471 1397.02,391.471 1397.67,391.471 1398.32,386.147 1398.96,386.147 1399.61,386.147 
  1400.25,386.147 1400.9,386.147 1401.55,386.147 1402.19,386.147 1402.84,386.147 1403.48,386.147 1404.13,386.147 1404.77,386.147 1405.42,386.147 1406.07,386.147 
  1406.71,386.147 1407.36,386.147 1408,386.147 1408.65,386.147 1409.29,386.147 1409.94,386.147 1410.59,386.147 1411.23,386.147 1411.88,380.822 1412.52,380.822 
  1413.17,380.822 1413.82,380.822 1414.46,380.822 1415.11,380.822 1415.75,380.822 1416.4,380.822 1417.04,380.822 1417.69,380.822 1418.34,380.822 1418.98,380.822 
  1419.63,380.822 1420.27,380.822 1420.92,380.822 1421.56,380.822 1422.21,380.822 1422.86,380.822 1423.5,380.822 1424.15,380.822 1424.79,380.822 1425.44,375.498 
  1426.08,375.498 1426.73,375.498 1427.38,375.498 1428.02,375.498 1428.67,375.498 1429.31,375.498 1429.96,375.498 1430.61,375.498 1431.25,375.498 1431.9,375.498 
  1432.54,375.498 1433.19,375.498 1433.83,375.498 1434.48,375.498 1435.13,375.498 1435.77,375.498 1436.42,375.498 1437.06,375.498 1437.71,375.498 1438.35,370.173 
  1439,370.173 1439.65,370.173 1440.29,370.173 1440.94,370.173 1441.58,370.173 1442.23,370.173 1442.88,370.173 1443.52,370.173 1444.17,370.173 1444.81,370.173 
  1445.46,370.173 1446.1,370.173 1446.75,370.173 1447.4,370.173 1448.04,370.173 1448.69,370.173 1449.33,370.173 1449.98,370.173 1450.62,370.173 1451.27,370.173 
  1451.92,364.849 1452.56,364.849 1453.21,364.849 1453.85,364.849 1454.5,364.849 1455.14,364.849 1455.79,364.849 1456.44,364.849 1457.08,364.849 1457.73,364.849 
  1458.37,364.849 1459.02,364.849 1459.67,364.849 1460.31,364.849 1460.96,364.849 1461.6,364.849 1462.25,364.849 1462.89,364.849 1463.54,364.849 1464.19,364.849 
  1464.83,364.849 1465.48,364.849 1466.12,359.524 1466.77,359.524 1467.41,359.524 1468.06,359.524 1468.71,359.524 1469.35,359.524 1470,359.524 1470.64,359.524 
  1471.29,359.524 1471.94,359.524 1472.58,359.524 1473.23,359.524 1473.87,359.524 1474.52,359.524 1475.16,359.524 1475.81,359.524 1476.46,359.524 1477.1,359.524 
  1477.75,359.524 1478.39,359.524 1479.04,359.524 1479.68,354.2 1480.33,354.2 1480.98,354.2 1481.62,354.2 1482.27,354.2 1482.91,354.2 1483.56,354.2 
  1484.2,354.2 1484.85,354.2 1485.5,354.2 1486.14,354.2 1486.79,354.2 1487.43,354.2 1488.08,354.2 1488.73,354.2 1489.37,354.2 1490.02,354.2 
  1490.66,354.2 1491.31,354.2 1491.95,354.2 1492.6,354.2 1493.25,348.875 1493.89,348.875 1494.54,348.875 1495.18,348.875 1495.83,348.875 1496.47,348.875 
  1497.12,348.875 1497.77,348.875 1498.41,348.875 1499.06,348.875 1499.7,348.875 1500.35,348.875 1501,348.875 1501.64,348.875 1502.29,348.875 1502.93,348.875 
  1503.58,348.875 1504.22,348.875 1504.87,348.875 1505.52,348.875 1506.16,348.875 1506.81,348.875 1507.45,343.551 1508.1,343.551 1508.74,343.551 1509.39,343.551 
  1510.04,343.551 1510.68,343.551 1511.33,343.551 1511.97,343.551 1512.62,343.551 1513.26,343.551 1513.91,343.551 1514.56,343.551 1515.2,343.551 1515.85,343.551 
  1516.49,343.551 1517.14,343.551 1517.79,343.551 1518.43,343.551 1519.08,343.551 1519.72,343.551 1520.37,343.551 1521.01,338.226 1521.66,338.226 1522.31,338.226 
  1522.95,338.226 1523.6,338.226 1524.24,338.226 1524.89,338.226 1525.53,338.226 1526.18,338.226 1526.83,338.226 1527.47,338.226 1528.12,338.226 1528.76,338.226 
  1529.41,338.226 1530.06,338.226 1530.7,338.226 1531.35,338.226 1531.99,338.226 1532.64,338.226 1533.28,338.226 1533.93,338.226 1534.58,338.226 1535.22,332.902 
  1535.87,332.902 1536.51,332.902 1537.16,332.902 1537.8,332.902 1538.45,332.902 1539.1,332.902 1539.74,332.902 1540.39,332.902 1541.03,332.902 1541.68,332.902 
  1542.32,332.902 1542.97,332.902 1543.62,332.902 1544.26,332.902 1544.91,332.902 1545.55,332.902 1546.2,332.902 1546.85,332.902 1547.49,332.902 1548.14,332.902 
  1548.78,332.902 1549.43,327.577 1550.07,327.577 1550.72,327.577 1551.37,327.577 1552.01,327.577 1552.66,327.577 1553.3,327.577 1553.95,327.577 1554.59,327.577 
  1555.24,327.577 1555.89,327.577 1556.53,327.577 1557.18,327.577 1557.82,327.577 1558.47,327.577 1559.12,327.577 1559.76,327.577 1560.41,327.577 1561.05,327.577 
  1561.7,327.577 1562.34,327.577 1562.99,327.577 1563.64,322.253 1564.28,322.253 1564.93,322.253 1565.57,322.253 1566.22,322.253 1566.86,322.253 1567.51,322.253 
  1568.16,322.253 1568.8,322.253 1569.45,322.253 1570.09,322.253 1570.74,322.253 1571.38,322.253 1572.03,322.253 1572.68,322.253 1573.32,322.253 1573.97,322.253 
  1574.61,322.253 1575.26,322.253 1575.91,322.253 1576.55,322.253 1577.2,322.253 1577.84,316.928 1578.49,316.928 1579.13,316.928 1579.78,316.928 1580.43,316.928 
  1581.07,316.928 1581.72,316.928 1582.36,316.928 1583.01,316.928 1583.65,316.928 1584.3,316.928 1584.95,316.928 1585.59,316.928 1586.24,316.928 1586.88,316.928 
  1587.53,316.928 1588.17,316.928 1588.82,316.928 1589.47,316.928 1590.11,316.928 1590.76,316.928 1591.4,316.928 1592.05,316.928 1592.7,311.604 1593.34,311.604 
  1593.99,311.604 1594.63,311.604 1595.28,311.604 1595.92,311.604 1596.57,311.604 1597.22,311.604 1597.86,311.604 1598.51,311.604 1599.15,311.604 1599.8,311.604 
  1600.44,311.604 1601.09,311.604 1601.74,311.604 1602.38,311.604 1603.03,311.604 1603.67,311.604 1604.32,311.604 1604.97,311.604 1605.61,311.604 1606.26,311.604 
  1606.9,306.279 1607.55,306.279 1608.19,306.279 1608.84,306.279 1609.49,306.279 1610.13,306.279 1610.78,306.279 1611.42,306.279 1612.07,306.279 1612.71,306.279 
  1613.36,306.279 1614.01,306.279 1614.65,306.279 1615.3,306.279 1615.94,306.279 1616.59,306.279 1617.23,306.279 1617.88,306.279 1618.53,306.279 1619.17,306.279 
  1619.82,306.279 1620.46,306.279 1621.11,306.279 1621.76,300.955 1622.4,300.955 1623.05,300.955 1623.69,300.955 1624.34,300.955 1624.98,300.955 1625.63,300.955 
  1626.28,300.955 1626.92,300.955 1627.57,300.955 1628.21,300.955 1628.86,300.955 1629.5,300.955 1630.15,300.955 1630.8,300.955 1631.44,300.955 1632.09,300.955 
  1632.73,300.955 1633.38,300.955 1634.03,300.955 1634.67,300.955 1635.32,300.955 1635.96,300.955 1636.61,295.631 1637.25,295.631 1637.9,295.631 1638.55,295.631 
  1639.19,295.631 1639.84,295.631 1640.48,295.631 1641.13,295.631 1641.77,295.631 1642.42,295.631 1643.07,295.631 1643.71,295.631 1644.36,295.631 1645,295.631 
  1645.65,295.631 1646.29,295.631 1646.94,295.631 1647.59,295.631 1648.23,295.631 1648.88,295.631 1649.52,295.631 1650.17,295.631 1650.82,295.631 1651.46,290.306 
  1652.11,290.306 1652.75,290.306 1653.4,290.306 1654.04,290.306 1654.69,290.306 1655.34,290.306 1655.98,290.306 1656.63,290.306 1657.27,290.306 1657.92,290.306 
  1658.56,290.306 1659.21,290.306 1659.86,290.306 1660.5,290.306 1661.15,290.306 1661.79,290.306 1662.44,290.306 1663.09,290.306 1663.73,290.306 1664.38,290.306 
  1665.02,290.306 1665.67,290.306 1666.31,284.982 1666.96,284.982 1667.61,284.982 1668.25,284.982 1668.9,284.982 1669.54,284.982 1670.19,284.982 1670.83,284.982 
  1671.48,284.982 1672.13,284.982 1672.77,284.982 1673.42,284.982 1674.06,284.982 1674.71,284.982 1675.35,284.982 1676,284.982 1676.65,284.982 1677.29,284.982 
  1677.94,284.982 1678.58,284.982 1679.23,284.982 1679.88,284.982 1680.52,284.982 1681.17,279.657 1681.81,279.657 1682.46,279.657 1683.1,279.657 1683.75,279.657 
  1684.4,279.657 1685.04,279.657 1685.69,279.657 1686.33,279.657 1686.98,279.657 1687.62,279.657 1688.27,279.657 1688.92,279.657 1689.56,279.657 1690.21,279.657 
  1690.85,279.657 1691.5,279.657 1692.15,279.657 1692.79,279.657 1693.44,279.657 1694.08,279.657 1694.73,279.657 1695.37,279.657 1696.02,274.333 1696.67,274.333 
  1697.31,274.333 1697.96,274.333 1698.6,274.333 1699.25,274.333 1699.89,274.333 1700.54,274.333 1701.19,274.333 1701.83,274.333 1702.48,274.333 1703.12,274.333 
  1703.77,274.333 1704.41,274.333 1705.06,274.333 1705.71,274.333 1706.35,274.333 1707,274.333 1707.64,274.333 1708.29,274.333 1708.94,274.333 1709.58,274.333 
  1710.23,274.333 1710.87,274.333 1711.52,269.008 1712.16,269.008 1712.81,269.008 1713.46,269.008 1714.1,269.008 1714.75,269.008 1715.39,269.008 1716.04,269.008 
  1716.68,269.008 1717.33,269.008 1717.98,269.008 1718.62,269.008 1719.27,269.008 1719.91,269.008 1720.56,269.008 1721.21,269.008 1721.85,269.008 1722.5,269.008 
  1723.14,269.008 1723.79,269.008 1724.43,269.008 1725.08,269.008 1725.73,269.008 1726.37,263.684 1727.02,263.684 1727.66,263.684 1728.31,263.684 1728.95,263.684 
  1729.6,263.684 1730.25,263.684 1730.89,263.684 1731.54,263.684 1732.18,263.684 1732.83,263.684 1733.47,263.684 1734.12,263.684 1734.77,263.684 1735.41,263.684 
  1736.06,263.684 1736.7,263.684 1737.35,263.684 1738,263.684 1738.64,263.684 1739.29,263.684 1739.93,263.684 1740.58,263.684 1741.22,263.684 1741.87,258.359 
  1742.52,258.359 1743.16,258.359 1743.81,258.359 1744.45,258.359 1745.1,258.359 1745.74,258.359 1746.39,258.359 1747.04,258.359 1747.68,258.359 1748.33,258.359 
  1748.97,258.359 1749.62,258.359 1750.27,258.359 1750.91,258.359 1751.56,258.359 1752.2,258.359 1752.85,258.359 1753.49,258.359 1754.14,258.359 1754.79,258.359 
  1755.43,258.359 1756.08,258.359 1756.72,258.359 1757.37,253.035 1758.01,253.035 1758.66,253.035 1759.31,253.035 1759.95,253.035 1760.6,253.035 1761.24,253.035 
  1761.89,253.035 1762.53,253.035 1763.18,253.035 1763.83,253.035 1764.47,253.035 1765.12,253.035 1765.76,253.035 1766.41,253.035 1767.06,253.035 1767.7,253.035 
  1768.35,253.035 1768.99,253.035 1769.64,253.035 1770.28,253.035 1770.93,253.035 1771.58,253.035 1772.22,253.035 1772.87,247.71 1773.51,247.71 1774.16,247.71 
  1774.8,247.71 1775.45,247.71 1776.1,247.71 1776.74,247.71 1777.39,247.71 1778.03,247.71 1778.68,247.71 1779.33,247.71 1779.97,247.71 1780.62,247.71 
  1781.26,247.71 1781.91,247.71 1782.55,247.71 1783.2,247.71 1783.85,247.71 1784.49,247.71 1785.14,247.71 1785.78,247.71 1786.43,247.71 1787.07,247.71 
  1787.72,247.71 1788.37,242.386 1789.01,242.386 1789.66,242.386 1790.3,242.386 1790.95,242.386 1791.59,242.386 1792.24,242.386 1792.89,242.386 1793.53,242.386 
  1794.18,242.386 1794.82,242.386 1795.47,242.386 1796.12,242.386 1796.76,242.386 1797.41,242.386 1798.05,242.386 1798.7,242.386 1799.34,242.386 1799.99,242.386 
  1800.64,242.386 1801.28,242.386 1801.93,242.386 1802.57,242.386 1803.22,242.386 1803.86,242.386 1804.51,237.061 1805.16,237.061 1805.8,237.061 1806.45,237.061 
  1807.09,237.061 1807.74,237.061 1808.39,237.061 1809.03,237.061 1809.68,237.061 1810.32,237.061 1810.97,237.061 1811.61,237.061 1812.26,237.061 1812.91,237.061 
  1813.55,237.061 1814.2,237.061 1814.84,237.061 1815.49,237.061 1816.13,237.061 1816.78,237.061 1817.43,237.061 1818.07,237.061 1818.72,237.061 1819.36,237.061 
  1820.01,231.737 1820.65,231.737 1821.3,231.737 1821.95,231.737 1822.59,231.737 1823.24,231.737 1823.88,231.737 1824.53,231.737 1825.18,231.737 1825.82,231.737 
  1826.47,231.737 1827.11,231.737 1827.76,231.737 1828.4,231.737 1829.05,231.737 1829.7,231.737 1830.34,231.737 1830.99,231.737 1831.63,231.737 1832.28,231.737 
  1832.92,231.737 1833.57,231.737 1834.22,231.737 1834.86,231.737 1835.51,231.737 1836.15,226.412 1836.8,226.412 1837.45,226.412 1838.09,226.412 1838.74,226.412 
  1839.38,226.412 1840.03,226.412 1840.67,226.412 1841.32,226.412 1841.97,226.412 1842.61,226.412 1843.26,226.412 1843.9,226.412 1844.55,226.412 1845.19,226.412 
  1845.84,226.412 1846.49,226.412 1847.13,226.412 1847.78,226.412 1848.42,226.412 1849.07,226.412 1849.71,226.412 1850.36,226.412 1851.01,226.412 1851.65,221.088 
  1852.3,221.088 1852.94,221.088 1853.59,221.088 1854.24,221.088 1854.88,221.088 1855.53,221.088 1856.17,221.088 1856.82,221.088 1857.46,221.088 1858.11,221.088 
  1858.76,221.088 1859.4,221.088 1860.05,221.088 1860.69,221.088 1861.34,221.088 1861.98,221.088 1862.63,221.088 1863.28,221.088 1863.92,221.088 1864.57,221.088 
  1865.21,221.088 1865.86,221.088 1866.5,221.088 1867.15,221.088 1867.8,215.764 1868.44,215.764 1869.09,215.764 1869.73,215.764 1870.38,215.764 1871.03,215.764 
  1871.67,215.764 1872.32,215.764 1872.96,215.764 1873.61,215.764 1874.25,215.764 1874.9,215.764 1875.55,215.764 1876.19,215.764 1876.84,215.764 1877.48,215.764 
  1878.13,215.764 1878.77,215.764 1879.42,215.764 1880.07,215.764 1880.71,215.764 1881.36,215.764 1882,215.764 1882.65,215.764 1883.3,215.764 1883.94,210.439 
  1884.59,210.439 1885.23,210.439 1885.88,210.439 1886.52,210.439 1887.17,210.439 1887.82,210.439 1888.46,210.439 1889.11,210.439 1889.75,210.439 1890.4,210.439 
  1891.04,210.439 1891.69,210.439 1892.34,210.439 1892.98,210.439 1893.63,210.439 1894.27,210.439 1894.92,210.439 1895.56,210.439 1896.21,210.439 1896.86,210.439 
  1897.5,210.439 1898.15,210.439 1898.79,210.439 1899.44,210.439 1900.09,210.439 1900.73,205.115 1901.38,205.115 1902.02,205.115 1902.67,205.115 1903.31,205.115 
  1903.96,205.115 1904.61,205.115 1905.25,205.115 1905.9,205.115 1906.54,205.115 1907.19,205.115 1907.83,205.115 1908.48,205.115 1909.13,205.115 1909.77,205.115 
  1910.42,205.115 1911.06,205.115 1911.71,205.115 1912.36,205.115 1913,205.115 1913.65,205.115 1914.29,205.115 1914.94,205.115 1915.58,205.115 1916.23,205.115 
  1916.88,199.79 1917.52,199.79 1918.17,199.79 1918.81,199.79 1919.46,199.79 1920.1,199.79 1920.75,199.79 1921.4,199.79 1922.04,199.79 1922.69,199.79 
  1923.33,199.79 1923.98,199.79 1924.62,199.79 1925.27,199.79 1925.92,199.79 1926.56,199.79 1927.21,199.79 1927.85,199.79 1928.5,199.79 1929.15,199.79 
  1929.79,199.79 1930.44,199.79 1931.08,199.79 1931.73,199.79 1932.37,199.79 1933.02,194.466 1933.67,194.466 1934.31,194.466 1934.96,194.466 1935.6,194.466 
  1936.25,194.466 1936.89,194.466 1937.54,194.466 1938.19,194.466 1938.83,194.466 1939.48,194.466 1940.12,194.466 1940.77,194.466 1941.42,194.466 1942.06,194.466 
  1942.71,194.466 1943.35,194.466 1944,194.466 1944.64,194.466 1945.29,194.466 1945.94,194.466 1946.58,194.466 1947.23,194.466 1947.87,194.466 1948.52,194.466 
  1949.16,194.466 1949.81,189.141 1950.46,189.141 1951.1,189.141 1951.75,189.141 1952.39,189.141 1953.04,189.141 1953.68,189.141 1954.33,189.141 1954.98,189.141 
  1955.62,189.141 1956.27,189.141 1956.91,189.141 1957.56,189.141 1958.21,189.141 1958.85,189.141 1959.5,189.141 1960.14,189.141 1960.79,189.141 1961.43,189.141 
  1962.08,189.141 1962.73,189.141 1963.37,189.141 1964.02,189.141 1964.66,189.141 1965.31,189.141 1965.95,189.141 1966.6,183.817 1967.25,183.817 1967.89,183.817 
  1968.54,183.817 1969.18,183.817 1969.83,183.817 1970.48,183.817 1971.12,183.817 1971.77,183.817 1972.41,183.817 1973.06,183.817 1973.7,183.817 1974.35,183.817 
  1975,183.817 1975.64,183.817 1976.29,183.817 1976.93,183.817 1977.58,183.817 1978.22,183.817 1978.87,183.817 1979.52,183.817 1980.16,183.817 1980.81,183.817 
  1981.45,183.817 1982.1,183.817 1982.74,183.817 1983.39,178.492 1984.04,178.492 1984.68,178.492 1985.33,178.492 1985.97,178.492 1986.62,178.492 1987.27,178.492 
  1987.91,178.492 1988.56,178.492 1989.2,178.492 1989.85,178.492 1990.49,178.492 1991.14,178.492 1991.79,178.492 1992.43,178.492 1993.08,178.492 1993.72,178.492 
  1994.37,178.492 1995.01,178.492 1995.66,178.492 1996.31,178.492 1996.95,178.492 1997.6,178.492 1998.24,178.492 1998.89,178.492 1999.54,178.492 2000.18,173.168 
  2000.83,173.168 2001.47,173.168 2002.12,173.168 2002.76,173.168 2003.41,173.168 2004.06,173.168 2004.7,173.168 2005.35,173.168 2005.99,173.168 2006.64,173.168 
  2007.28,173.168 2007.93,173.168 2008.58,173.168 2009.22,173.168 2009.87,173.168 2010.51,173.168 2011.16,173.168 2011.8,173.168 2012.45,173.168 2013.1,173.168 
  2013.74,173.168 2014.39,173.168 2015.03,173.168 2015.68,173.168 2016.33,173.168 2016.97,167.843 2017.62,167.843 2018.26,167.843 2018.91,167.843 2019.55,167.843 
  2020.2,167.843 2020.85,167.843 2021.49,167.843 2022.14,167.843 2022.78,167.843 2023.43,167.843 2024.07,167.843 2024.72,167.843 2025.37,167.843 2026.01,167.843 
  2026.66,167.843 2027.3,167.843 2027.95,167.843 2028.6,167.843 2029.24,167.843 2029.89,167.843 2030.53,167.843 2031.18,167.843 2031.82,167.843 2032.47,167.843 
  2033.12,167.843 2033.76,162.519 2034.41,162.519 2035.05,162.519 2035.7,162.519 2036.34,162.519 2036.99,162.519 2037.64,162.519 2038.28,162.519 2038.93,162.519 
  2039.57,162.519 2040.22,162.519 2040.86,162.519 2041.51,162.519 2042.16,162.519 2042.8,162.519 2043.45,162.519 2044.09,162.519 2044.74,162.519 2045.39,162.519 
  2046.03,162.519 2046.68,162.519 2047.32,162.519 2047.97,162.519 2048.61,162.519 2049.26,162.519 2049.91,162.519 2050.55,162.519 2051.2,157.194 2051.84,157.194 
  2052.49,157.194 2053.13,157.194 2053.78,157.194 2054.43,157.194 2055.07,157.194 2055.72,157.194 2056.36,157.194 2057.01,157.194 2057.66,157.194 2058.3,157.194 
  2058.95,157.194 2059.59,157.194 2060.24,157.194 2060.88,157.194 2061.53,157.194 2062.18,157.194 2062.82,157.194 2063.47,157.194 2064.11,157.194 2064.76,157.194 
  2065.4,157.194 2066.05,157.194 2066.7,157.194 2067.34,157.194 2067.99,151.87 2068.63,151.87 2069.28,151.87 2069.92,151.87 2070.57,151.87 2071.22,151.87 
  2071.86,151.87 2072.51,151.87 2073.15,151.87 2073.8,151.87 2074.45,151.87 2075.09,151.87 2075.74,151.87 2076.38,151.87 2077.03,151.87 2077.67,151.87 
  2078.32,151.87 2078.97,151.87 2079.61,151.87 2080.26,151.87 2080.9,151.87 2081.55,151.87 2082.19,151.87 2082.84,151.87 2083.49,151.87 2084.13,151.87 
  2084.78,151.87 2085.42,146.545 2086.07,146.545 2086.72,146.545 2087.36,146.545 2088.01,146.545 2088.65,146.545 2089.3,146.545 2089.94,146.545 2090.59,146.545 
  2091.24,146.545 2091.88,146.545 2092.53,146.545 2093.17,146.545 2093.82,146.545 2094.46,146.545 2095.11,146.545 2095.76,146.545 2096.4,146.545 2097.05,146.545 
  2097.69,146.545 2098.34,146.545 2098.98,146.545 2099.63,146.545 2100.28,146.545 2100.92,146.545 2101.57,146.545 2102.21,146.545 2102.86,141.221 2103.51,141.221 
  2104.15,141.221 2104.8,141.221 2105.44,141.221 2106.09,141.221 2106.73,141.221 2107.38,141.221 2108.03,141.221 2108.67,141.221 2109.32,141.221 2109.96,141.221 
  2110.61,141.221 2111.25,141.221 2111.9,141.221 2112.55,141.221 2113.19,141.221 2113.84,141.221 2114.48,141.221 2115.13,141.221 2115.78,141.221 2116.42,141.221 
  2117.07,141.221 2117.71,141.221 2118.36,141.221 2119,141.221 2119.65,141.221 2120.3,135.896 2120.94,135.896 2121.59,135.896 2122.23,135.896 2122.88,135.896 
  2123.52,135.896 2124.17,135.896 2124.82,135.896 2125.46,135.896 2126.11,135.896 2126.75,135.896 2127.4,135.896 2128.04,135.896 2128.69,135.896 2129.34,135.896 
  2129.98,135.896 2130.63,135.896 2131.27,135.896 2131.92,135.896 2132.57,135.896 2133.21,135.896 2133.86,135.896 2134.5,135.896 2135.15,135.896 2135.79,135.896 
  2136.44,135.896 2137.09,135.896 2137.73,130.572 2138.38,130.572 2139.02,130.572 2139.67,130.572 2140.31,130.572 2140.96,130.572 2141.61,130.572 2142.25,130.572 
  2142.9,130.572 2143.54,130.572 2144.19,130.572 2144.83,130.572 2145.48,130.572 2146.13,130.572 2146.77,130.572 2147.42,130.572 2148.06,130.572 2148.71,130.572 
  2149.36,130.572 2150,130.572 2150.65,130.572 2151.29,130.572 2151.94,130.572 2152.58,130.572 2153.23,130.572 2153.88,130.572 2154.52,130.572 2155.17,130.572 
  2155.81,125.248 2156.46,125.248 2157.1,125.248 2157.75,125.248 2158.4,125.248 2159.04,125.248 2159.69,125.248 2160.33,125.248 2160.98,125.248 2161.63,125.248 
  2162.27,125.248 2162.92,125.248 2163.56,125.248 2164.21,125.248 2164.85,125.248 2165.5,125.248 2166.15,125.248 2166.79,125.248 2167.44,125.248 2168.08,125.248 
  2168.73,125.248 2169.37,125.248 2170.02,125.248 2170.67,125.248 2171.31,125.248 2171.96,125.248 2172.6,125.248 2173.25,119.923 2173.89,119.923 2174.54,119.923 
  2175.19,119.923 2175.83,119.923 2176.48,119.923 2177.12,119.923 2177.77,119.923 2178.42,119.923 2179.06,119.923 2179.71,119.923 2180.35,119.923 2181,119.923 
  2181.64,119.923 2182.29,119.923 2182.94,119.923 2183.58,119.923 2184.23,119.923 2184.87,119.923 2185.52,119.923 2186.16,119.923 2186.81,119.923 2187.46,119.923 
  2188.1,119.923 2188.75,119.923 2189.39,119.923 2190.04,119.923 2190.69,119.923 2191.33,114.599 2191.98,114.599 2192.62,114.599 2193.27,114.599 2193.91,114.599 
  2194.56,114.599 2195.21,114.599 2195.85,114.599 2196.5,114.599 2197.14,114.599 2197.79,114.599 2198.43,114.599 2199.08,114.599 2199.73,114.599 2200.37,114.599 
  2201.02,114.599 2201.66,114.599 2202.31,114.599 2202.95,114.599 2203.6,114.599 2204.25,114.599 2204.89,114.599 2205.54,114.599 2206.18,114.599 2206.83,114.599 
  2207.48,114.599 2208.12,114.599 2208.77,114.599 2209.41,109.274 2210.06,109.274 2210.7,109.274 2211.35,109.274 2212,109.274 2212.64,109.274 2213.29,109.274 
  2213.93,109.274 2214.58,109.274 2215.22,109.274 2215.87,109.274 2216.52,109.274 2217.16,109.274 2217.81,109.274 2218.45,109.274 2219.1,109.274 2219.75,109.274 
  2220.39,109.274 2221.04,109.274 2221.68,109.274 2222.33,109.274 2222.97,109.274 2223.62,109.274 2224.27,109.274 2224.91,109.274 2225.56,109.274 2226.2,109.274 
  2226.85,109.274 2227.49,103.95 2228.14,103.95 2228.79,103.95 2229.43,103.95 2230.08,103.95 2230.72,103.95 2231.37,103.95 2232.01,103.95 2232.66,103.95 
  2233.31,103.95 2233.95,103.95 2234.6,103.95 2235.24,103.95 2235.89,103.95 2236.54,103.95 2237.18,103.95 2237.83,103.95 2238.47,103.95 2239.12,103.95 
  2239.76,103.95 2240.41,103.95 2241.06,103.95 2241.7,103.95 2242.35,103.95 2242.99,103.95 2243.64,103.95 2244.28,103.95 2244.93,103.95 2245.58,98.6252 
  2246.22,98.6252 2246.87,98.6252 2247.51,98.6252 2248.16,98.6252 2248.81,98.6252 2249.45,98.6252 2250.1,98.6252 2250.74,98.6252 2251.39,98.6252 2252.03,98.6252 
  2252.68,98.6252 2253.33,98.6252 2253.97,98.6252 2254.62,98.6252 2255.26,98.6252 2255.91,98.6252 2256.55,98.6252 2257.2,98.6252 2257.85,98.6252 2258.49,98.6252 
  2259.14,98.6252 2259.78,98.6252 2260.43,98.6252 2261.07,98.6252 2261.72,98.6252 2262.37,98.6252 2263.01,98.6252 2263.66,93.3007 2264.3,93.3007 2264.95,93.3007 
  2265.6,93.3007 2266.24,93.3007 2266.89,93.3007 2267.53,93.3007 2268.18,93.3007 2268.82,93.3007 2269.47,93.3007 2270.12,93.3007 2270.76,93.3007 2271.41,93.3007 
  2272.05,93.3007 2272.7,93.3007 2273.34,93.3007 2273.99,93.3007 2274.64,93.3007 2275.28,93.3007 2275.93,93.3007 2276.57,93.3007 2277.22,93.3007 2277.87,93.3007 
  2278.51,93.3007 2279.16,93.3007 2279.8,93.3007 2280.45,93.3007 2281.09,93.3007 2281.74,87.9763 2282.39,87.9763 2283.03,87.9763 2283.68,87.9763 2284.32,87.9763 
  2284.97,87.9763 2285.61,87.9763 2286.26,87.9763 2286.91,87.9763 2287.55,87.9763 2288.2,87.9763 2288.84,87.9763 2289.49,87.9763 2290.13,87.9763 2290.78,87.9763 
  
  "/>
<path clip-path="url(#clip650)" d="
M1985.43 216.178 L2279.76 216.178 L2279.76 95.2176 L1985.43 95.2176  Z
  " fill="#ffffff" fill-rule="evenodd" fill-opacity="1"/>
<polyline clip-path="url(#clip650)" style="stroke:#000000; stroke-width:4; stroke-opacity:1; fill:none" points="
  1985.43,216.178 2279.76,216.178 2279.76,95.2176 1985.43,95.2176 1985.43,216.178 
  "/>
<polyline clip-path="url(#clip650)" style="stroke:#009af9; stroke-width:4; stroke-opacity:1; fill:none" points="
  2009.77,155.698 2155.75,155.698 
  "/>
<path clip-path="url(#clip650)" d="M 0 0 M2193.93 175.385 Q2192.12 180.015 2190.41 181.427 Q2188.69 182.839 2185.82 182.839 L2182.42 182.839 L2182.42 179.274 L2184.92 179.274 Q2186.68 179.274 2187.65 178.44 Q2188.62 177.607 2189.8 174.505 L2190.57 172.561 L2180.08 147.052 L2184.6 147.052 L2192.7 167.329 L2200.8 147.052 L2205.31 147.052 L2193.93 175.385 Z" fill="#000000" fill-rule="evenodd" fill-opacity="1" /><path clip-path="url(#clip650)" d="M 0 0 M2211.19 169.042 L2218.83 169.042 L2218.83 142.677 L2210.52 144.343 L2210.52 140.084 L2218.79 138.418 L2223.46 138.418 L2223.46 169.042 L2231.1 169.042 L2231.1 172.978 L2211.19 172.978 L2211.19 169.042 Z" fill="#000000" fill-rule="evenodd" fill-opacity="1" /></svg>
