std::uint8_t(0), // 0
std::uint8_t(0), // 1
std::uint8_t(0), // 2
std::uint8_t(0), // 3
std::uint8_t(0), // 4
std::uint8_t(1), // 5
std::uint8_t(1), // 6
std::uint8_t(1), // 7
std::uint8_t(1), // 8
std::uint8_t(2), // 9
std::uint8_t(2), // 10
std::uint8_t(3), // 11
std::uint8_t(3), // 12
std::uint8_t(4), // 13
std::uint8_t(4), // 14
std::uint8_t(5), // 15
std::uint8_t(6), // 16
std::uint8_t(6), // 17
std::uint8_t(7), // 18
std::uint8_t(8), // 19
std::uint8_t(9), // 20
std::uint8_t(10), // 21
std::uint8_t(11), // 22
std::uint8_t(12), // 23
std::uint8_t(13), // 24
std::uint8_t(14), // 25
std::uint8_t(15), // 26
std::uint8_t(15), // 27
std::uint8_t(16), // 28
std::uint8_t(17), // 29
std::uint8_t(18), // 30
std::uint8_t(19), // 31
std::uint8_t(20), // 32
std::uint8_t(21), // 33
std::uint8_t(22), // 34
std::uint8_t(23), // 35
std::uint8_t(23), // 36
std::uint8_t(24), // 37
std::uint8_t(25), // 38
std::uint8_t(26), // 39
std::uint8_t(27), // 40
std::uint8_t(28), // 41
std::uint8_t(29), // 42
std::uint8_t(29), // 43
std::uint8_t(30), // 44
std::uint8_t(31), // 45
std::uint8_t(32), // 46
std::uint8_t(33), // 47
std::uint8_t(34), // 48
std::uint8_t(34), // 49
std::uint8_t(35), // 50
std::uint8_t(36), // 51
std::uint8_t(37), // 52
std::uint8_t(38), // 53
std::uint8_t(39), // 54
std::uint8_t(39), // 55
std::uint8_t(40), // 56
std::uint8_t(41), // 57
std::uint8_t(42), // 58
std::uint8_t(43), // 59
std::uint8_t(43), // 60
std::uint8_t(44), // 61
std::uint8_t(45), // 62
std::uint8_t(46), // 63
std::uint8_t(47), // 64
std::uint8_t(47), // 65
std::uint8_t(48), // 66
std::uint8_t(49), // 67
std::uint8_t(50), // 68
std::uint8_t(50), // 69
std::uint8_t(51), // 70
std::uint8_t(52), // 71
std::uint8_t(53), // 72
std::uint8_t(54), // 73
std::uint8_t(54), // 74
std::uint8_t(55), // 75
std::uint8_t(56), // 76
std::uint8_t(57), // 77
std::uint8_t(57), // 78
std::uint8_t(58), // 79
std::uint8_t(59), // 80
std::uint8_t(60), // 81
std::uint8_t(60), // 82
std::uint8_t(61), // 83
std::uint8_t(62), // 84
std::uint8_t(63), // 85
std::uint8_t(63), // 86
std::uint8_t(64), // 87
std::uint8_t(65), // 88
std::uint8_t(66), // 89
std::uint8_t(66), // 90
std::uint8_t(67), // 91
std::uint8_t(68), // 92
std::uint8_t(69), // 93
std::uint8_t(69), // 94
std::uint8_t(70), // 95
std::uint8_t(71), // 96
std::uint8_t(72), // 97
std::uint8_t(72), // 98
std::uint8_t(73), // 99
std::uint8_t(74), // 100
std::uint8_t(75), // 101
std::uint8_t(75), // 102
std::uint8_t(76), // 103
std::uint8_t(77), // 104
std::uint8_t(77), // 105
std::uint8_t(78), // 106
std::uint8_t(79), // 107
std::uint8_t(80), // 108
std::uint8_t(80), // 109
std::uint8_t(81), // 110
std::uint8_t(82), // 111
std::uint8_t(83), // 112
std::uint8_t(83), // 113
std::uint8_t(84), // 114
std::uint8_t(85), // 115
std::uint8_t(85), // 116
std::uint8_t(86), // 117
std::uint8_t(87), // 118
std::uint8_t(88), // 119
std::uint8_t(88), // 120
std::uint8_t(89), // 121
std::uint8_t(90), // 122
std::uint8_t(90), // 123
std::uint8_t(91), // 124
std::uint8_t(92), // 125
std::uint8_t(92), // 126
std::uint8_t(93), // 127
std::uint8_t(94), // 128
std::uint8_t(95), // 129
std::uint8_t(95), // 130
std::uint8_t(96), // 131
std::uint8_t(97), // 132
std::uint8_t(97), // 133
std::uint8_t(98), // 134
std::uint8_t(99), // 135
std::uint8_t(99), // 136
std::uint8_t(100), // 137
std::uint8_t(101), // 138
std::uint8_t(102), // 139
std::uint8_t(102), // 140
std::uint8_t(103), // 141
std::uint8_t(104), // 142
std::uint8_t(104), // 143
std::uint8_t(105), // 144
std::uint8_t(106), // 145
std::uint8_t(106), // 146
std::uint8_t(107), // 147
std::uint8_t(108), // 148
std::uint8_t(108), // 149
std::uint8_t(109), // 150
std::uint8_t(110), // 151
std::uint8_t(111), // 152
std::uint8_t(111), // 153
std::uint8_t(112), // 154
std::uint8_t(113), // 155
std::uint8_t(113), // 156
std::uint8_t(114), // 157
std::uint8_t(115), // 158
std::uint8_t(115), // 159
std::uint8_t(116), // 160
std::uint8_t(117), // 161
std::uint8_t(117), // 162
std::uint8_t(118), // 163
std::uint8_t(119), // 164
std::uint8_t(119), // 165
std::uint8_t(120), // 166
std::uint8_t(121), // 167
std::uint8_t(121), // 168
std::uint8_t(122), // 169
std::uint8_t(123), // 170
std::uint8_t(123), // 171
std::uint8_t(124), // 172
std::uint8_t(125), // 173
std::uint8_t(125), // 174
std::uint8_t(126), // 175
std::uint8_t(127), // 176
std::uint8_t(127), // 177
std::uint8_t(128), // 178
std::uint8_t(129), // 179
std::uint8_t(129), // 180
std::uint8_t(130), // 181
std::uint8_t(131), // 182
std::uint8_t(131), // 183
std::uint8_t(132), // 184
std::uint8_t(133), // 185
std::uint8_t(133), // 186
std::uint8_t(134), // 187
std::uint8_t(135), // 188
std::uint8_t(135), // 189
std::uint8_t(136), // 190
std::uint8_t(137), // 191
std::uint8_t(137), // 192
std::uint8_t(138), // 193
std::uint8_t(139), // 194
std::uint8_t(139), // 195
std::uint8_t(140), // 196
std::uint8_t(141), // 197
std::uint8_t(141), // 198
std::uint8_t(142), // 199
std::uint8_t(143), // 200
std::uint8_t(143), // 201
std::uint8_t(144), // 202
std::uint8_t(144), // 203
std::uint8_t(145), // 204
std::uint8_t(146), // 205
std::uint8_t(146), // 206
std::uint8_t(147), // 207
std::uint8_t(148), // 208
std::uint8_t(148), // 209
std::uint8_t(149), // 210
std::uint8_t(150), // 211
std::uint8_t(150), // 212
std::uint8_t(151), // 213
std::uint8_t(152), // 214
std::uint8_t(152), // 215
std::uint8_t(153), // 216
std::uint8_t(154), // 217
std::uint8_t(154), // 218
std::uint8_t(155), // 219
std::uint8_t(155), // 220
std::uint8_t(156), // 221
std::uint8_t(157), // 222
std::uint8_t(157), // 223
std::uint8_t(158), // 224
std::uint8_t(159), // 225
std::uint8_t(159), // 226
std::uint8_t(160), // 227
std::uint8_t(161), // 228
std::uint8_t(161), // 229
std::uint8_t(162), // 230
std::uint8_t(162), // 231
std::uint8_t(163), // 232
std::uint8_t(164), // 233
std::uint8_t(164), // 234
std::uint8_t(165), // 235
std::uint8_t(166), // 236
std::uint8_t(166), // 237
std::uint8_t(167), // 238
std::uint8_t(168), // 239
std::uint8_t(168), // 240
std::uint8_t(169), // 241
std::uint8_t(169), // 242
std::uint8_t(170), // 243
std::uint8_t(171), // 244
std::uint8_t(171), // 245
std::uint8_t(172), // 246
std::uint8_t(173), // 247
std::uint8_t(173), // 248
std::uint8_t(174), // 249
std::uint8_t(175), // 250
std::uint8_t(175), // 251
std::uint8_t(176), // 252
std::uint8_t(176), // 253
std::uint8_t(177), // 254
std::uint8_t(178), // 255
std::uint8_t(178), // 256
std::uint8_t(179), // 257
std::uint8_t(180), // 258
std::uint8_t(180), // 259
std::uint8_t(181), // 260
std::uint8_t(181), // 261
std::uint8_t(182), // 262
std::uint8_t(183), // 263
std::uint8_t(183), // 264
std::uint8_t(184), // 265
std::uint8_t(185), // 266
std::uint8_t(185), // 267
std::uint8_t(186), // 268
std::uint8_t(186), // 269
std::uint8_t(187), // 270
std::uint8_t(188), // 271
std::uint8_t(188), // 272
std::uint8_t(189), // 273
std::uint8_t(189), // 274
std::uint8_t(190), // 275
std::uint8_t(191), // 276
std::uint8_t(191), // 277
std::uint8_t(192), // 278
std::uint8_t(193), // 279
std::uint8_t(193), // 280
std::uint8_t(194), // 281
std::uint8_t(194), // 282
std::uint8_t(195), // 283
std::uint8_t(196), // 284
std::uint8_t(196), // 285
std::uint8_t(197), // 286
std::uint8_t(197), // 287
std::uint8_t(198), // 288
std::uint8_t(199), // 289
std::uint8_t(199), // 290
std::uint8_t(200), // 291
std::uint8_t(201), // 292
std::uint8_t(201), // 293
std::uint8_t(202), // 294
std::uint8_t(202), // 295
std::uint8_t(203), // 296
std::uint8_t(204), // 297
std::uint8_t(204), // 298
std::uint8_t(205), // 299
std::uint8_t(205), // 300
std::uint8_t(206), // 301
std::uint8_t(207), // 302
std::uint8_t(207), // 303
std::uint8_t(208), // 304
std::uint8_t(208), // 305
std::uint8_t(209), // 306
std::uint8_t(210), // 307
std::uint8_t(210), // 308
std::uint8_t(211), // 309
std::uint8_t(212), // 310
std::uint8_t(212), // 311
std::uint8_t(213), // 312
std::uint8_t(213), // 313
std::uint8_t(214), // 314
std::uint8_t(215), // 315
std::uint8_t(215), // 316
std::uint8_t(216), // 317
std::uint8_t(216), // 318
std::uint8_t(217), // 319
std::uint8_t(218), // 320
std::uint8_t(218), // 321
std::uint8_t(219), // 322
std::uint8_t(219), // 323
std::uint8_t(220), // 324
std::uint8_t(221), // 325
std::uint8_t(221), // 326
std::uint8_t(222), // 327
std::uint8_t(222), // 328
std::uint8_t(223), // 329
std::uint8_t(224), // 330
std::uint8_t(224), // 331
std::uint8_t(225), // 332
std::uint8_t(225), // 333
std::uint8_t(226), // 334
std::uint8_t(227), // 335
std::uint8_t(227), // 336
std::uint8_t(228), // 337
std::uint8_t(228), // 338
std::uint8_t(229), // 339
std::uint8_t(230), // 340
std::uint8_t(230), // 341
std::uint8_t(231), // 342
std::uint8_t(231), // 343
std::uint8_t(232), // 344
std::uint8_t(233), // 345
std::uint8_t(233), // 346
std::uint8_t(234), // 347
std::uint8_t(234), // 348
std::uint8_t(235), // 349
std::uint8_t(236), // 350
std::uint8_t(236), // 351
std::uint8_t(237), // 352
std::uint8_t(237), // 353
std::uint8_t(238), // 354
std::uint8_t(239), // 355
std::uint8_t(239), // 356
std::uint8_t(240), // 357
std::uint8_t(240), // 358
std::uint8_t(241), // 359
std::uint8_t(241), // 360
std::uint8_t(242), // 361
std::uint8_t(243), // 362
std::uint8_t(243), // 363
std::uint8_t(244), // 364
std::uint8_t(244), // 365
std::uint8_t(245), // 366
std::uint8_t(246), // 367
std::uint8_t(246), // 368
std::uint8_t(247), // 369
std::uint8_t(247), // 370
std::uint8_t(248), // 371
std::uint8_t(249), // 372
std::uint8_t(249), // 373
std::uint8_t(250), // 374
std::uint8_t(250), // 375
std::uint8_t(251), // 376
std::uint8_t(251), // 377
std::uint8_t(252), // 378
std::uint8_t(253), // 379
std::uint8_t(253), // 380
std::uint8_t(254), // 381
std::uint8_t(254), // 382
std::uint8_t(255), // 383
