std::uint8_t(0), // 0
std::uint8_t(1), // 1
std::uint8_t(2), // 2
std::uint8_t(3), // 3
std::uint8_t(4), // 4
std::uint8_t(5), // 5
std::uint8_t(6), // 6
std::uint8_t(7), // 7
std::uint8_t(8), // 8
std::uint8_t(9), // 9
std::uint8_t(10), // 10
std::uint8_t(11), // 11
std::uint8_t(12), // 12
std::uint8_t(13), // 13
std::uint8_t(14), // 14
std::uint8_t(15), // 15
std::uint8_t(16), // 16
std::uint8_t(16), // 17
std::uint8_t(17), // 18
std::uint8_t(18), // 19
std::uint8_t(18), // 20
std::uint8_t(19), // 21
std::uint8_t(20), // 22
std::uint8_t(20), // 23
std::uint8_t(21), // 24
std::uint8_t(22), // 25
std::uint8_t(22), // 26
std::uint8_t(23), // 27
std::uint8_t(23), // 28
std::uint8_t(24), // 29
std::uint8_t(24), // 30
std::uint8_t(25), // 31
std::uint8_t(25), // 32
std::uint8_t(26), // 33
std::uint8_t(26), // 34
std::uint8_t(27), // 35
std::uint8_t(27), // 36
std::uint8_t(28), // 37
std::uint8_t(28), // 38
std::uint8_t(29), // 39
std::uint8_t(29), // 40
std::uint8_t(30), // 41
std::uint8_t(30), // 42
std::uint8_t(31), // 43
std::uint8_t(31), // 44
std::uint8_t(31), // 45
std::uint8_t(32), // 46
std::uint8_t(32), // 47
std::uint8_t(33), // 48
std::uint8_t(33), // 49
std::uint8_t(34), // 50
std::uint8_t(34), // 51
std::uint8_t(34), // 52
std::uint8_t(35), // 53
std::uint8_t(35), // 54
std::uint8_t(35), // 55
std::uint8_t(36), // 56
std::uint8_t(36), // 57
std::uint8_t(37), // 58
std::uint8_t(37), // 59
std::uint8_t(37), // 60
std::uint8_t(38), // 61
std::uint8_t(38), // 62
std::uint8_t(38), // 63
std::uint8_t(39), // 64
std::uint8_t(39), // 65
std::uint8_t(39), // 66
std::uint8_t(40), // 67
std::uint8_t(40), // 68
std::uint8_t(40), // 69
std::uint8_t(41), // 70
std::uint8_t(41), // 71
std::uint8_t(41), // 72
std::uint8_t(42), // 73
std::uint8_t(42), // 74
std::uint8_t(42), // 75
std::uint8_t(43), // 76
std::uint8_t(43), // 77
std::uint8_t(43), // 78
std::uint8_t(44), // 79
std::uint8_t(44), // 80
std::uint8_t(44), // 81
std::uint8_t(44), // 82
std::uint8_t(45), // 83
std::uint8_t(45), // 84
std::uint8_t(45), // 85
std::uint8_t(46), // 86
std::uint8_t(46), // 87
std::uint8_t(46), // 88
std::uint8_t(46), // 89
std::uint8_t(47), // 90
std::uint8_t(47), // 91
std::uint8_t(47), // 92
std::uint8_t(48), // 93
std::uint8_t(48), // 94
std::uint8_t(48), // 95
std::uint8_t(48), // 96
std::uint8_t(49), // 97
std::uint8_t(49), // 98
std::uint8_t(49), // 99
std::uint8_t(49), // 100
std::uint8_t(50), // 101
std::uint8_t(50), // 102
std::uint8_t(50), // 103
std::uint8_t(51), // 104
std::uint8_t(51), // 105
std::uint8_t(51), // 106
std::uint8_t(51), // 107
std::uint8_t(52), // 108
std::uint8_t(52), // 109
std::uint8_t(52), // 110
std::uint8_t(52), // 111
std::uint8_t(53), // 112
std::uint8_t(53), // 113
std::uint8_t(53), // 114
std::uint8_t(53), // 115
std::uint8_t(54), // 116
std::uint8_t(54), // 117
std::uint8_t(54), // 118
std::uint8_t(54), // 119
std::uint8_t(54), // 120
std::uint8_t(55), // 121
std::uint8_t(55), // 122
std::uint8_t(55), // 123
std::uint8_t(55), // 124
std::uint8_t(56), // 125
std::uint8_t(56), // 126
std::uint8_t(56), // 127
std::uint8_t(56), // 128
std::uint8_t(57), // 129
std::uint8_t(57), // 130
std::uint8_t(57), // 131
std::uint8_t(57), // 132
std::uint8_t(57), // 133
std::uint8_t(58), // 134
std::uint8_t(58), // 135
std::uint8_t(58), // 136
std::uint8_t(58), // 137
std::uint8_t(59), // 138
std::uint8_t(59), // 139
std::uint8_t(59), // 140
std::uint8_t(59), // 141
std::uint8_t(59), // 142
std::uint8_t(60), // 143
std::uint8_t(60), // 144
std::uint8_t(60), // 145
std::uint8_t(60), // 146
std::uint8_t(61), // 147
std::uint8_t(61), // 148
std::uint8_t(61), // 149
std::uint8_t(61), // 150
std::uint8_t(61), // 151
std::uint8_t(62), // 152
std::uint8_t(62), // 153
std::uint8_t(62), // 154
std::uint8_t(62), // 155
std::uint8_t(62), // 156
std::uint8_t(63), // 157
std::uint8_t(63), // 158
std::uint8_t(63), // 159
std::uint8_t(63), // 160
std::uint8_t(63), // 161
std::uint8_t(64), // 162
std::uint8_t(64), // 163
std::uint8_t(64), // 164
std::uint8_t(64), // 165
std::uint8_t(64), // 166
std::uint8_t(65), // 167
std::uint8_t(65), // 168
std::uint8_t(65), // 169
std::uint8_t(65), // 170
std::uint8_t(65), // 171
std::uint8_t(66), // 172
std::uint8_t(66), // 173
std::uint8_t(66), // 174
std::uint8_t(66), // 175
std::uint8_t(66), // 176
std::uint8_t(67), // 177
std::uint8_t(67), // 178
std::uint8_t(67), // 179
std::uint8_t(67), // 180
std::uint8_t(67), // 181
std::uint8_t(67), // 182
std::uint8_t(68), // 183
std::uint8_t(68), // 184
std::uint8_t(68), // 185
std::uint8_t(68), // 186
std::uint8_t(68), // 187
std::uint8_t(69), // 188
std::uint8_t(69), // 189
std::uint8_t(69), // 190
std::uint8_t(69), // 191
std::uint8_t(69), // 192
std::uint8_t(69), // 193
std::uint8_t(70), // 194
std::uint8_t(70), // 195
std::uint8_t(70), // 196
std::uint8_t(70), // 197
std::uint8_t(70), // 198
std::uint8_t(71), // 199
std::uint8_t(71), // 200
std::uint8_t(71), // 201
std::uint8_t(71), // 202
std::uint8_t(71), // 203
std::uint8_t(71), // 204
std::uint8_t(72), // 205
std::uint8_t(72), // 206
std::uint8_t(72), // 207
std::uint8_t(72), // 208
std::uint8_t(72), // 209
std::uint8_t(72), // 210
std::uint8_t(73), // 211
std::uint8_t(73), // 212
std::uint8_t(73), // 213
std::uint8_t(73), // 214
std::uint8_t(73), // 215
std::uint8_t(73), // 216
std::uint8_t(74), // 217
std::uint8_t(74), // 218
std::uint8_t(74), // 219
std::uint8_t(74), // 220
std::uint8_t(74), // 221
std::uint8_t(74), // 222
std::uint8_t(75), // 223
std::uint8_t(75), // 224
std::uint8_t(75), // 225
std::uint8_t(75), // 226
std::uint8_t(75), // 227
std::uint8_t(75), // 228
std::uint8_t(76), // 229
std::uint8_t(76), // 230
std::uint8_t(76), // 231
std::uint8_t(76), // 232
std::uint8_t(76), // 233
std::uint8_t(76), // 234
std::uint8_t(77), // 235
std::uint8_t(77), // 236
std::uint8_t(77), // 237
std::uint8_t(77), // 238
std::uint8_t(77), // 239
std::uint8_t(77), // 240
std::uint8_t(78), // 241
std::uint8_t(78), // 242
std::uint8_t(78), // 243
std::uint8_t(78), // 244
std::uint8_t(78), // 245
std::uint8_t(78), // 246
std::uint8_t(79), // 247
std::uint8_t(79), // 248
std::uint8_t(79), // 249
std::uint8_t(79), // 250
std::uint8_t(79), // 251
std::uint8_t(79), // 252
std::uint8_t(79), // 253
std::uint8_t(80), // 254
std::uint8_t(80), // 255
std::uint8_t(80), // 256
std::uint8_t(80), // 257
std::uint8_t(80), // 258
std::uint8_t(80), // 259
std::uint8_t(81), // 260
std::uint8_t(81), // 261
std::uint8_t(81), // 262
std::uint8_t(81), // 263
std::uint8_t(81), // 264
std::uint8_t(81), // 265
std::uint8_t(81), // 266
std::uint8_t(82), // 267
std::uint8_t(82), // 268
std::uint8_t(82), // 269
std::uint8_t(82), // 270
std::uint8_t(82), // 271
std::uint8_t(82), // 272
std::uint8_t(82), // 273
std::uint8_t(83), // 274
std::uint8_t(83), // 275
std::uint8_t(83), // 276
std::uint8_t(83), // 277
std::uint8_t(83), // 278
std::uint8_t(83), // 279
std::uint8_t(83), // 280
std::uint8_t(84), // 281
std::uint8_t(84), // 282
std::uint8_t(84), // 283
std::uint8_t(84), // 284
std::uint8_t(84), // 285
std::uint8_t(84), // 286
std::uint8_t(84), // 287
std::uint8_t(85), // 288
std::uint8_t(85), // 289
std::uint8_t(85), // 290
std::uint8_t(85), // 291
std::uint8_t(85), // 292
std::uint8_t(85), // 293
std::uint8_t(85), // 294
std::uint8_t(86), // 295
std::uint8_t(86), // 296
std::uint8_t(86), // 297
std::uint8_t(86), // 298
std::uint8_t(86), // 299
std::uint8_t(86), // 300
std::uint8_t(86), // 301
std::uint8_t(87), // 302
std::uint8_t(87), // 303
std::uint8_t(87), // 304
std::uint8_t(87), // 305
std::uint8_t(87), // 306
std::uint8_t(87), // 307
std::uint8_t(87), // 308
std::uint8_t(88), // 309
std::uint8_t(88), // 310
std::uint8_t(88), // 311
std::uint8_t(88), // 312
std::uint8_t(88), // 313
std::uint8_t(88), // 314
std::uint8_t(88), // 315
std::uint8_t(89), // 316
std::uint8_t(89), // 317
std::uint8_t(89), // 318
std::uint8_t(89), // 319
std::uint8_t(89), // 320
std::uint8_t(89), // 321
std::uint8_t(89), // 322
std::uint8_t(89), // 323
std::uint8_t(90), // 324
std::uint8_t(90), // 325
std::uint8_t(90), // 326
std::uint8_t(90), // 327
std::uint8_t(90), // 328
std::uint8_t(90), // 329
std::uint8_t(90), // 330
std::uint8_t(91), // 331
std::uint8_t(91), // 332
std::uint8_t(91), // 333
std::uint8_t(91), // 334
std::uint8_t(91), // 335
std::uint8_t(91), // 336
std::uint8_t(91), // 337
std::uint8_t(91), // 338
std::uint8_t(92), // 339
std::uint8_t(92), // 340
std::uint8_t(92), // 341
std::uint8_t(92), // 342
std::uint8_t(92), // 343
std::uint8_t(92), // 344
std::uint8_t(92), // 345
std::uint8_t(92), // 346
std::uint8_t(93), // 347
std::uint8_t(93), // 348
std::uint8_t(93), // 349
std::uint8_t(93), // 350
std::uint8_t(93), // 351
std::uint8_t(93), // 352
std::uint8_t(93), // 353
std::uint8_t(93), // 354
std::uint8_t(94), // 355
std::uint8_t(94), // 356
std::uint8_t(94), // 357
std::uint8_t(94), // 358
std::uint8_t(94), // 359
std::uint8_t(94), // 360
std::uint8_t(94), // 361
std::uint8_t(94), // 362
std::uint8_t(95), // 363
std::uint8_t(95), // 364
std::uint8_t(95), // 365
std::uint8_t(95), // 366
std::uint8_t(95), // 367
std::uint8_t(95), // 368
std::uint8_t(95), // 369
std::uint8_t(95), // 370
std::uint8_t(96), // 371
std::uint8_t(96), // 372
std::uint8_t(96), // 373
std::uint8_t(96), // 374
std::uint8_t(96), // 375
std::uint8_t(96), // 376
std::uint8_t(96), // 377
std::uint8_t(96), // 378
std::uint8_t(97), // 379
std::uint8_t(97), // 380
std::uint8_t(97), // 381
std::uint8_t(97), // 382
std::uint8_t(97), // 383
std::uint8_t(97), // 384
std::uint8_t(97), // 385
std::uint8_t(97), // 386
std::uint8_t(98), // 387
std::uint8_t(98), // 388
std::uint8_t(98), // 389
std::uint8_t(98), // 390
std::uint8_t(98), // 391
std::uint8_t(98), // 392
std::uint8_t(98), // 393
std::uint8_t(98), // 394
std::uint8_t(99), // 395
std::uint8_t(99), // 396
std::uint8_t(99), // 397
std::uint8_t(99), // 398
std::uint8_t(99), // 399
std::uint8_t(99), // 400
std::uint8_t(99), // 401
std::uint8_t(99), // 402
std::uint8_t(99), // 403
std::uint8_t(100), // 404
std::uint8_t(100), // 405
std::uint8_t(100), // 406
std::uint8_t(100), // 407
std::uint8_t(100), // 408
std::uint8_t(100), // 409
std::uint8_t(100), // 410
std::uint8_t(100), // 411
std::uint8_t(101), // 412
std::uint8_t(101), // 413
std::uint8_t(101), // 414
std::uint8_t(101), // 415
std::uint8_t(101), // 416
std::uint8_t(101), // 417
std::uint8_t(101), // 418
std::uint8_t(101), // 419
std::uint8_t(101), // 420
std::uint8_t(102), // 421
std::uint8_t(102), // 422
std::uint8_t(102), // 423
std::uint8_t(102), // 424
std::uint8_t(102), // 425
std::uint8_t(102), // 426
std::uint8_t(102), // 427
std::uint8_t(102), // 428
std::uint8_t(102), // 429
std::uint8_t(103), // 430
std::uint8_t(103), // 431
std::uint8_t(103), // 432
std::uint8_t(103), // 433
std::uint8_t(103), // 434
std::uint8_t(103), // 435
std::uint8_t(103), // 436
std::uint8_t(103), // 437
std::uint8_t(103), // 438
std::uint8_t(104), // 439
std::uint8_t(104), // 440
std::uint8_t(104), // 441
std::uint8_t(104), // 442
std::uint8_t(104), // 443
std::uint8_t(104), // 444
std::uint8_t(104), // 445
std::uint8_t(104), // 446
std::uint8_t(104), // 447
std::uint8_t(105), // 448
std::uint8_t(105), // 449
std::uint8_t(105), // 450
std::uint8_t(105), // 451
std::uint8_t(105), // 452
std::uint8_t(105), // 453
std::uint8_t(105), // 454
std::uint8_t(105), // 455
std::uint8_t(105), // 456
std::uint8_t(106), // 457
std::uint8_t(106), // 458
std::uint8_t(106), // 459
std::uint8_t(106), // 460
std::uint8_t(106), // 461
std::uint8_t(106), // 462
std::uint8_t(106), // 463
std::uint8_t(106), // 464
std::uint8_t(106), // 465
std::uint8_t(107), // 466
std::uint8_t(107), // 467
std::uint8_t(107), // 468
std::uint8_t(107), // 469
std::uint8_t(107), // 470
std::uint8_t(107), // 471
std::uint8_t(107), // 472
std::uint8_t(107), // 473
std::uint8_t(107), // 474
std::uint8_t(107), // 475
std::uint8_t(108), // 476
std::uint8_t(108), // 477
std::uint8_t(108), // 478
std::uint8_t(108), // 479
std::uint8_t(108), // 480
std::uint8_t(108), // 481
std::uint8_t(108), // 482
std::uint8_t(108), // 483
std::uint8_t(108), // 484
std::uint8_t(109), // 485
std::uint8_t(109), // 486
std::uint8_t(109), // 487
std::uint8_t(109), // 488
std::uint8_t(109), // 489
std::uint8_t(109), // 490
std::uint8_t(109), // 491
std::uint8_t(109), // 492
std::uint8_t(109), // 493
std::uint8_t(109), // 494
std::uint8_t(110), // 495
std::uint8_t(110), // 496
std::uint8_t(110), // 497
std::uint8_t(110), // 498
std::uint8_t(110), // 499
std::uint8_t(110), // 500
std::uint8_t(110), // 501
std::uint8_t(110), // 502
std::uint8_t(110), // 503
std::uint8_t(111), // 504
std::uint8_t(111), // 505
std::uint8_t(111), // 506
std::uint8_t(111), // 507
std::uint8_t(111), // 508
std::uint8_t(111), // 509
std::uint8_t(111), // 510
std::uint8_t(111), // 511
std::uint8_t(111), // 512
std::uint8_t(111), // 513
std::uint8_t(112), // 514
std::uint8_t(112), // 515
std::uint8_t(112), // 516
std::uint8_t(112), // 517
std::uint8_t(112), // 518
std::uint8_t(112), // 519
std::uint8_t(112), // 520
std::uint8_t(112), // 521
std::uint8_t(112), // 522
std::uint8_t(112), // 523
std::uint8_t(113), // 524
std::uint8_t(113), // 525
std::uint8_t(113), // 526
std::uint8_t(113), // 527
std::uint8_t(113), // 528
std::uint8_t(113), // 529
std::uint8_t(113), // 530
std::uint8_t(113), // 531
std::uint8_t(113), // 532
std::uint8_t(113), // 533
std::uint8_t(114), // 534
std::uint8_t(114), // 535
std::uint8_t(114), // 536
std::uint8_t(114), // 537
std::uint8_t(114), // 538
std::uint8_t(114), // 539
std::uint8_t(114), // 540
std::uint8_t(114), // 541
std::uint8_t(114), // 542
std::uint8_t(114), // 543
std::uint8_t(115), // 544
std::uint8_t(115), // 545
std::uint8_t(115), // 546
std::uint8_t(115), // 547
std::uint8_t(115), // 548
std::uint8_t(115), // 549
std::uint8_t(115), // 550
std::uint8_t(115), // 551
std::uint8_t(115), // 552
std::uint8_t(115), // 553
std::uint8_t(116), // 554
std::uint8_t(116), // 555
std::uint8_t(116), // 556
std::uint8_t(116), // 557
std::uint8_t(116), // 558
std::uint8_t(116), // 559
std::uint8_t(116), // 560
std::uint8_t(116), // 561
std::uint8_t(116), // 562
std::uint8_t(116), // 563
std::uint8_t(117), // 564
std::uint8_t(117), // 565
std::uint8_t(117), // 566
std::uint8_t(117), // 567
std::uint8_t(117), // 568
std::uint8_t(117), // 569
std::uint8_t(117), // 570
std::uint8_t(117), // 571
std::uint8_t(117), // 572
std::uint8_t(117), // 573
std::uint8_t(117), // 574
std::uint8_t(118), // 575
std::uint8_t(118), // 576
std::uint8_t(118), // 577
std::uint8_t(118), // 578
std::uint8_t(118), // 579
std::uint8_t(118), // 580
std::uint8_t(118), // 581
std::uint8_t(118), // 582
std::uint8_t(118), // 583
std::uint8_t(118), // 584
std::uint8_t(119), // 585
std::uint8_t(119), // 586
std::uint8_t(119), // 587
std::uint8_t(119), // 588
std::uint8_t(119), // 589
std::uint8_t(119), // 590
std::uint8_t(119), // 591
std::uint8_t(119), // 592
std::uint8_t(119), // 593
std::uint8_t(119), // 594
std::uint8_t(119), // 595
std::uint8_t(120), // 596
std::uint8_t(120), // 597
std::uint8_t(120), // 598
std::uint8_t(120), // 599
std::uint8_t(120), // 600
std::uint8_t(120), // 601
std::uint8_t(120), // 602
std::uint8_t(120), // 603
std::uint8_t(120), // 604
std::uint8_t(120), // 605
std::uint8_t(120), // 606
std::uint8_t(121), // 607
std::uint8_t(121), // 608
std::uint8_t(121), // 609
std::uint8_t(121), // 610
std::uint8_t(121), // 611
std::uint8_t(121), // 612
std::uint8_t(121), // 613
std::uint8_t(121), // 614
std::uint8_t(121), // 615
std::uint8_t(121), // 616
std::uint8_t(121), // 617
std::uint8_t(122), // 618
std::uint8_t(122), // 619
std::uint8_t(122), // 620
std::uint8_t(122), // 621
std::uint8_t(122), // 622
std::uint8_t(122), // 623
std::uint8_t(122), // 624
std::uint8_t(122), // 625
std::uint8_t(122), // 626
std::uint8_t(122), // 627
std::uint8_t(122), // 628
std::uint8_t(123), // 629
std::uint8_t(123), // 630
std::uint8_t(123), // 631
std::uint8_t(123), // 632
std::uint8_t(123), // 633
std::uint8_t(123), // 634
std::uint8_t(123), // 635
std::uint8_t(123), // 636
std::uint8_t(123), // 637
std::uint8_t(123), // 638
std::uint8_t(123), // 639
std::uint8_t(124), // 640
std::uint8_t(124), // 641
std::uint8_t(124), // 642
std::uint8_t(124), // 643
std::uint8_t(124), // 644
std::uint8_t(124), // 645
std::uint8_t(124), // 646
std::uint8_t(124), // 647
std::uint8_t(124), // 648
std::uint8_t(124), // 649
std::uint8_t(124), // 650
std::uint8_t(125), // 651
std::uint8_t(125), // 652
std::uint8_t(125), // 653
std::uint8_t(125), // 654
std::uint8_t(125), // 655
std::uint8_t(125), // 656
std::uint8_t(125), // 657
std::uint8_t(125), // 658
std::uint8_t(125), // 659
std::uint8_t(125), // 660
std::uint8_t(125), // 661
std::uint8_t(126), // 662
std::uint8_t(126), // 663
std::uint8_t(126), // 664
std::uint8_t(126), // 665
std::uint8_t(126), // 666
std::uint8_t(126), // 667
std::uint8_t(126), // 668
std::uint8_t(126), // 669
std::uint8_t(126), // 670
std::uint8_t(126), // 671
std::uint8_t(126), // 672
std::uint8_t(126), // 673
std::uint8_t(127), // 674
std::uint8_t(127), // 675
std::uint8_t(127), // 676
std::uint8_t(127), // 677
std::uint8_t(127), // 678
std::uint8_t(127), // 679
std::uint8_t(127), // 680
std::uint8_t(127), // 681
std::uint8_t(127), // 682
std::uint8_t(127), // 683
std::uint8_t(127), // 684
std::uint8_t(128), // 685
std::uint8_t(128), // 686
std::uint8_t(128), // 687
std::uint8_t(128), // 688
std::uint8_t(128), // 689
std::uint8_t(128), // 690
std::uint8_t(128), // 691
std::uint8_t(128), // 692
std::uint8_t(128), // 693
std::uint8_t(128), // 694
std::uint8_t(128), // 695
std::uint8_t(128), // 696
std::uint8_t(129), // 697
std::uint8_t(129), // 698
std::uint8_t(129), // 699
std::uint8_t(129), // 700
std::uint8_t(129), // 701
std::uint8_t(129), // 702
std::uint8_t(129), // 703
std::uint8_t(129), // 704
std::uint8_t(129), // 705
std::uint8_t(129), // 706
std::uint8_t(129), // 707
std::uint8_t(129), // 708
std::uint8_t(130), // 709
std::uint8_t(130), // 710
std::uint8_t(130), // 711
std::uint8_t(130), // 712
std::uint8_t(130), // 713
std::uint8_t(130), // 714
std::uint8_t(130), // 715
std::uint8_t(130), // 716
std::uint8_t(130), // 717
std::uint8_t(130), // 718
std::uint8_t(130), // 719
std::uint8_t(130), // 720
std::uint8_t(131), // 721
std::uint8_t(131), // 722
std::uint8_t(131), // 723
std::uint8_t(131), // 724
std::uint8_t(131), // 725
std::uint8_t(131), // 726
std::uint8_t(131), // 727
std::uint8_t(131), // 728
std::uint8_t(131), // 729
std::uint8_t(131), // 730
std::uint8_t(131), // 731
std::uint8_t(131), // 732
std::uint8_t(132), // 733
std::uint8_t(132), // 734
std::uint8_t(132), // 735
std::uint8_t(132), // 736
std::uint8_t(132), // 737
std::uint8_t(132), // 738
std::uint8_t(132), // 739
std::uint8_t(132), // 740
std::uint8_t(132), // 741
std::uint8_t(132), // 742
std::uint8_t(132), // 743
std::uint8_t(132), // 744
std::uint8_t(133), // 745
std::uint8_t(133), // 746
std::uint8_t(133), // 747
std::uint8_t(133), // 748
std::uint8_t(133), // 749
std::uint8_t(133), // 750
std::uint8_t(133), // 751
std::uint8_t(133), // 752
std::uint8_t(133), // 753
std::uint8_t(133), // 754
std::uint8_t(133), // 755
std::uint8_t(133), // 756
std::uint8_t(134), // 757
std::uint8_t(134), // 758
std::uint8_t(134), // 759
std::uint8_t(134), // 760
std::uint8_t(134), // 761
std::uint8_t(134), // 762
std::uint8_t(134), // 763
std::uint8_t(134), // 764
std::uint8_t(134), // 765
std::uint8_t(134), // 766
std::uint8_t(134), // 767
std::uint8_t(134), // 768
std::uint8_t(135), // 769
std::uint8_t(135), // 770
std::uint8_t(135), // 771
std::uint8_t(135), // 772
std::uint8_t(135), // 773
std::uint8_t(135), // 774
std::uint8_t(135), // 775
std::uint8_t(135), // 776
std::uint8_t(135), // 777
std::uint8_t(135), // 778
std::uint8_t(135), // 779
std::uint8_t(135), // 780
std::uint8_t(135), // 781
std::uint8_t(136), // 782
std::uint8_t(136), // 783
std::uint8_t(136), // 784
std::uint8_t(136), // 785
std::uint8_t(136), // 786
std::uint8_t(136), // 787
std::uint8_t(136), // 788
std::uint8_t(136), // 789
std::uint8_t(136), // 790
std::uint8_t(136), // 791
std::uint8_t(136), // 792
std::uint8_t(136), // 793
std::uint8_t(137), // 794
std::uint8_t(137), // 795
std::uint8_t(137), // 796
std::uint8_t(137), // 797
std::uint8_t(137), // 798
std::uint8_t(137), // 799
std::uint8_t(137), // 800
std::uint8_t(137), // 801
std::uint8_t(137), // 802
std::uint8_t(137), // 803
std::uint8_t(137), // 804
std::uint8_t(137), // 805
std::uint8_t(137), // 806
std::uint8_t(138), // 807
std::uint8_t(138), // 808
std::uint8_t(138), // 809
std::uint8_t(138), // 810
std::uint8_t(138), // 811
std::uint8_t(138), // 812
std::uint8_t(138), // 813
std::uint8_t(138), // 814
std::uint8_t(138), // 815
std::uint8_t(138), // 816
std::uint8_t(138), // 817
std::uint8_t(138), // 818
std::uint8_t(138), // 819
std::uint8_t(139), // 820
std::uint8_t(139), // 821
std::uint8_t(139), // 822
std::uint8_t(139), // 823
std::uint8_t(139), // 824
std::uint8_t(139), // 825
std::uint8_t(139), // 826
std::uint8_t(139), // 827
std::uint8_t(139), // 828
std::uint8_t(139), // 829
std::uint8_t(139), // 830
std::uint8_t(139), // 831
std::uint8_t(139), // 832
std::uint8_t(140), // 833
std::uint8_t(140), // 834
std::uint8_t(140), // 835
std::uint8_t(140), // 836
std::uint8_t(140), // 837
std::uint8_t(140), // 838
std::uint8_t(140), // 839
std::uint8_t(140), // 840
std::uint8_t(140), // 841
std::uint8_t(140), // 842
std::uint8_t(140), // 843
std::uint8_t(140), // 844
std::uint8_t(140), // 845
std::uint8_t(141), // 846
std::uint8_t(141), // 847
std::uint8_t(141), // 848
std::uint8_t(141), // 849
std::uint8_t(141), // 850
std::uint8_t(141), // 851
std::uint8_t(141), // 852
std::uint8_t(141), // 853
std::uint8_t(141), // 854
std::uint8_t(141), // 855
std::uint8_t(141), // 856
std::uint8_t(141), // 857
std::uint8_t(141), // 858
std::uint8_t(142), // 859
std::uint8_t(142), // 860
std::uint8_t(142), // 861
std::uint8_t(142), // 862
std::uint8_t(142), // 863
std::uint8_t(142), // 864
std::uint8_t(142), // 865
std::uint8_t(142), // 866
std::uint8_t(142), // 867
std::uint8_t(142), // 868
std::uint8_t(142), // 869
std::uint8_t(142), // 870
std::uint8_t(142), // 871
std::uint8_t(143), // 872
std::uint8_t(143), // 873
std::uint8_t(143), // 874
std::uint8_t(143), // 875
std::uint8_t(143), // 876
std::uint8_t(143), // 877
std::uint8_t(143), // 878
std::uint8_t(143), // 879
std::uint8_t(143), // 880
std::uint8_t(143), // 881
std::uint8_t(143), // 882
std::uint8_t(143), // 883
std::uint8_t(143), // 884
std::uint8_t(143), // 885
std::uint8_t(144), // 886
std::uint8_t(144), // 887
std::uint8_t(144), // 888
std::uint8_t(144), // 889
std::uint8_t(144), // 890
std::uint8_t(144), // 891
std::uint8_t(144), // 892
std::uint8_t(144), // 893
std::uint8_t(144), // 894
std::uint8_t(144), // 895
std::uint8_t(144), // 896
std::uint8_t(144), // 897
std::uint8_t(144), // 898
std::uint8_t(145), // 899
std::uint8_t(145), // 900
std::uint8_t(145), // 901
std::uint8_t(145), // 902
std::uint8_t(145), // 903
std::uint8_t(145), // 904
std::uint8_t(145), // 905
std::uint8_t(145), // 906
std::uint8_t(145), // 907
std::uint8_t(145), // 908
std::uint8_t(145), // 909
std::uint8_t(145), // 910
std::uint8_t(145), // 911
std::uint8_t(145), // 912
std::uint8_t(146), // 913
std::uint8_t(146), // 914
std::uint8_t(146), // 915
std::uint8_t(146), // 916
std::uint8_t(146), // 917
std::uint8_t(146), // 918
std::uint8_t(146), // 919
std::uint8_t(146), // 920
std::uint8_t(146), // 921
std::uint8_t(146), // 922
std::uint8_t(146), // 923
std::uint8_t(146), // 924
std::uint8_t(146), // 925
std::uint8_t(146), // 926
std::uint8_t(147), // 927
std::uint8_t(147), // 928
std::uint8_t(147), // 929
std::uint8_t(147), // 930
std::uint8_t(147), // 931
std::uint8_t(147), // 932
std::uint8_t(147), // 933
std::uint8_t(147), // 934
std::uint8_t(147), // 935
std::uint8_t(147), // 936
std::uint8_t(147), // 937
std::uint8_t(147), // 938
std::uint8_t(147), // 939
std::uint8_t(147), // 940
std::uint8_t(148), // 941
std::uint8_t(148), // 942
std::uint8_t(148), // 943
std::uint8_t(148), // 944
std::uint8_t(148), // 945
std::uint8_t(148), // 946
std::uint8_t(148), // 947
std::uint8_t(148), // 948
std::uint8_t(148), // 949
std::uint8_t(148), // 950
std::uint8_t(148), // 951
std::uint8_t(148), // 952
std::uint8_t(148), // 953
std::uint8_t(148), // 954
std::uint8_t(149), // 955
std::uint8_t(149), // 956
std::uint8_t(149), // 957
std::uint8_t(149), // 958
std::uint8_t(149), // 959
std::uint8_t(149), // 960
std::uint8_t(149), // 961
std::uint8_t(149), // 962
std::uint8_t(149), // 963
std::uint8_t(149), // 964
std::uint8_t(149), // 965
std::uint8_t(149), // 966
std::uint8_t(149), // 967
std::uint8_t(149), // 968
std::uint8_t(150), // 969
std::uint8_t(150), // 970
std::uint8_t(150), // 971
std::uint8_t(150), // 972
std::uint8_t(150), // 973
std::uint8_t(150), // 974
std::uint8_t(150), // 975
std::uint8_t(150), // 976
std::uint8_t(150), // 977
std::uint8_t(150), // 978
std::uint8_t(150), // 979
std::uint8_t(150), // 980
std::uint8_t(150), // 981
std::uint8_t(150), // 982
std::uint8_t(151), // 983
std::uint8_t(151), // 984
std::uint8_t(151), // 985
std::uint8_t(151), // 986
std::uint8_t(151), // 987
std::uint8_t(151), // 988
std::uint8_t(151), // 989
std::uint8_t(151), // 990
std::uint8_t(151), // 991
std::uint8_t(151), // 992
std::uint8_t(151), // 993
std::uint8_t(151), // 994
std::uint8_t(151), // 995
std::uint8_t(151), // 996
std::uint8_t(151), // 997
std::uint8_t(152), // 998
std::uint8_t(152), // 999
std::uint8_t(152), // 1000
std::uint8_t(152), // 1001
std::uint8_t(152), // 1002
std::uint8_t(152), // 1003
std::uint8_t(152), // 1004
std::uint8_t(152), // 1005
std::uint8_t(152), // 1006
std::uint8_t(152), // 1007
std::uint8_t(152), // 1008
std::uint8_t(152), // 1009
std::uint8_t(152), // 1010
std::uint8_t(152), // 1011
std::uint8_t(153), // 1012
std::uint8_t(153), // 1013
std::uint8_t(153), // 1014
std::uint8_t(153), // 1015
std::uint8_t(153), // 1016
std::uint8_t(153), // 1017
std::uint8_t(153), // 1018
std::uint8_t(153), // 1019
std::uint8_t(153), // 1020
std::uint8_t(153), // 1021
std::uint8_t(153), // 1022
std::uint8_t(153), // 1023
std::uint8_t(153), // 1024
std::uint8_t(153), // 1025
std::uint8_t(153), // 1026
std::uint8_t(154), // 1027
std::uint8_t(154), // 1028
std::uint8_t(154), // 1029
std::uint8_t(154), // 1030
std::uint8_t(154), // 1031
std::uint8_t(154), // 1032
std::uint8_t(154), // 1033
std::uint8_t(154), // 1034
std::uint8_t(154), // 1035
std::uint8_t(154), // 1036
std::uint8_t(154), // 1037
std::uint8_t(154), // 1038
std::uint8_t(154), // 1039
std::uint8_t(154), // 1040
std::uint8_t(154), // 1041
std::uint8_t(155), // 1042
std::uint8_t(155), // 1043
std::uint8_t(155), // 1044
std::uint8_t(155), // 1045
std::uint8_t(155), // 1046
std::uint8_t(155), // 1047
std::uint8_t(155), // 1048
std::uint8_t(155), // 1049
std::uint8_t(155), // 1050
std::uint8_t(155), // 1051
std::uint8_t(155), // 1052
std::uint8_t(155), // 1053
std::uint8_t(155), // 1054
std::uint8_t(155), // 1055
std::uint8_t(155), // 1056
std::uint8_t(156), // 1057
std::uint8_t(156), // 1058
std::uint8_t(156), // 1059
std::uint8_t(156), // 1060
std::uint8_t(156), // 1061
std::uint8_t(156), // 1062
std::uint8_t(156), // 1063
std::uint8_t(156), // 1064
std::uint8_t(156), // 1065
std::uint8_t(156), // 1066
std::uint8_t(156), // 1067
std::uint8_t(156), // 1068
std::uint8_t(156), // 1069
std::uint8_t(156), // 1070
std::uint8_t(156), // 1071
std::uint8_t(157), // 1072
std::uint8_t(157), // 1073
std::uint8_t(157), // 1074
std::uint8_t(157), // 1075
std::uint8_t(157), // 1076
std::uint8_t(157), // 1077
std::uint8_t(157), // 1078
std::uint8_t(157), // 1079
std::uint8_t(157), // 1080
std::uint8_t(157), // 1081
std::uint8_t(157), // 1082
std::uint8_t(157), // 1083
std::uint8_t(157), // 1084
std::uint8_t(157), // 1085
std::uint8_t(157), // 1086
std::uint8_t(158), // 1087
std::uint8_t(158), // 1088
std::uint8_t(158), // 1089
std::uint8_t(158), // 1090
std::uint8_t(158), // 1091
std::uint8_t(158), // 1092
std::uint8_t(158), // 1093
std::uint8_t(158), // 1094
std::uint8_t(158), // 1095
std::uint8_t(158), // 1096
std::uint8_t(158), // 1097
std::uint8_t(158), // 1098
std::uint8_t(158), // 1099
std::uint8_t(158), // 1100
std::uint8_t(158), // 1101
std::uint8_t(159), // 1102
std::uint8_t(159), // 1103
std::uint8_t(159), // 1104
std::uint8_t(159), // 1105
std::uint8_t(159), // 1106
std::uint8_t(159), // 1107
std::uint8_t(159), // 1108
std::uint8_t(159), // 1109
std::uint8_t(159), // 1110
std::uint8_t(159), // 1111
std::uint8_t(159), // 1112
std::uint8_t(159), // 1113
std::uint8_t(159), // 1114
std::uint8_t(159), // 1115
std::uint8_t(159), // 1116
std::uint8_t(160), // 1117
std::uint8_t(160), // 1118
std::uint8_t(160), // 1119
std::uint8_t(160), // 1120
std::uint8_t(160), // 1121
std::uint8_t(160), // 1122
std::uint8_t(160), // 1123
std::uint8_t(160), // 1124
std::uint8_t(160), // 1125
std::uint8_t(160), // 1126
std::uint8_t(160), // 1127
std::uint8_t(160), // 1128
std::uint8_t(160), // 1129
std::uint8_t(160), // 1130
std::uint8_t(160), // 1131
std::uint8_t(160), // 1132
std::uint8_t(161), // 1133
std::uint8_t(161), // 1134
std::uint8_t(161), // 1135
std::uint8_t(161), // 1136
std::uint8_t(161), // 1137
std::uint8_t(161), // 1138
std::uint8_t(161), // 1139
std::uint8_t(161), // 1140
std::uint8_t(161), // 1141
std::uint8_t(161), // 1142
std::uint8_t(161), // 1143
std::uint8_t(161), // 1144
std::uint8_t(161), // 1145
std::uint8_t(161), // 1146
std::uint8_t(161), // 1147
std::uint8_t(162), // 1148
std::uint8_t(162), // 1149
std::uint8_t(162), // 1150
std::uint8_t(162), // 1151
std::uint8_t(162), // 1152
std::uint8_t(162), // 1153
std::uint8_t(162), // 1154
std::uint8_t(162), // 1155
std::uint8_t(162), // 1156
std::uint8_t(162), // 1157
std::uint8_t(162), // 1158
std::uint8_t(162), // 1159
std::uint8_t(162), // 1160
std::uint8_t(162), // 1161
std::uint8_t(162), // 1162
std::uint8_t(162), // 1163
std::uint8_t(163), // 1164
std::uint8_t(163), // 1165
std::uint8_t(163), // 1166
std::uint8_t(163), // 1167
std::uint8_t(163), // 1168
std::uint8_t(163), // 1169
std::uint8_t(163), // 1170
std::uint8_t(163), // 1171
std::uint8_t(163), // 1172
std::uint8_t(163), // 1173
std::uint8_t(163), // 1174
std::uint8_t(163), // 1175
std::uint8_t(163), // 1176
std::uint8_t(163), // 1177
std::uint8_t(163), // 1178
std::uint8_t(163), // 1179
std::uint8_t(164), // 1180
std::uint8_t(164), // 1181
std::uint8_t(164), // 1182
std::uint8_t(164), // 1183
std::uint8_t(164), // 1184
std::uint8_t(164), // 1185
std::uint8_t(164), // 1186
std::uint8_t(164), // 1187
std::uint8_t(164), // 1188
std::uint8_t(164), // 1189
std::uint8_t(164), // 1190
std::uint8_t(164), // 1191
std::uint8_t(164), // 1192
std::uint8_t(164), // 1193
std::uint8_t(164), // 1194
std::uint8_t(164), // 1195
std::uint8_t(165), // 1196
std::uint8_t(165), // 1197
std::uint8_t(165), // 1198
std::uint8_t(165), // 1199
std::uint8_t(165), // 1200
std::uint8_t(165), // 1201
std::uint8_t(165), // 1202
std::uint8_t(165), // 1203
std::uint8_t(165), // 1204
std::uint8_t(165), // 1205
std::uint8_t(165), // 1206
std::uint8_t(165), // 1207
std::uint8_t(165), // 1208
std::uint8_t(165), // 1209
std::uint8_t(165), // 1210
std::uint8_t(165), // 1211
std::uint8_t(166), // 1212
std::uint8_t(166), // 1213
std::uint8_t(166), // 1214
std::uint8_t(166), // 1215
std::uint8_t(166), // 1216
std::uint8_t(166), // 1217
std::uint8_t(166), // 1218
std::uint8_t(166), // 1219
std::uint8_t(166), // 1220
std::uint8_t(166), // 1221
std::uint8_t(166), // 1222
std::uint8_t(166), // 1223
std::uint8_t(166), // 1224
std::uint8_t(166), // 1225
std::uint8_t(166), // 1226
std::uint8_t(166), // 1227
std::uint8_t(166), // 1228
std::uint8_t(167), // 1229
std::uint8_t(167), // 1230
std::uint8_t(167), // 1231
std::uint8_t(167), // 1232
std::uint8_t(167), // 1233
std::uint8_t(167), // 1234
std::uint8_t(167), // 1235
std::uint8_t(167), // 1236
std::uint8_t(167), // 1237
std::uint8_t(167), // 1238
std::uint8_t(167), // 1239
std::uint8_t(167), // 1240
std::uint8_t(167), // 1241
std::uint8_t(167), // 1242
std::uint8_t(167), // 1243
std::uint8_t(167), // 1244
std::uint8_t(168), // 1245
std::uint8_t(168), // 1246
std::uint8_t(168), // 1247
std::uint8_t(168), // 1248
std::uint8_t(168), // 1249
std::uint8_t(168), // 1250
std::uint8_t(168), // 1251
std::uint8_t(168), // 1252
std::uint8_t(168), // 1253
std::uint8_t(168), // 1254
std::uint8_t(168), // 1255
std::uint8_t(168), // 1256
std::uint8_t(168), // 1257
std::uint8_t(168), // 1258
std::uint8_t(168), // 1259
std::uint8_t(168), // 1260
std::uint8_t(169), // 1261
std::uint8_t(169), // 1262
std::uint8_t(169), // 1263
std::uint8_t(169), // 1264
std::uint8_t(169), // 1265
std::uint8_t(169), // 1266
std::uint8_t(169), // 1267
std::uint8_t(169), // 1268
std::uint8_t(169), // 1269
std::uint8_t(169), // 1270
std::uint8_t(169), // 1271
std::uint8_t(169), // 1272
std::uint8_t(169), // 1273
std::uint8_t(169), // 1274
std::uint8_t(169), // 1275
std::uint8_t(169), // 1276
std::uint8_t(169), // 1277
std::uint8_t(170), // 1278
std::uint8_t(170), // 1279
std::uint8_t(170), // 1280
std::uint8_t(170), // 1281
std::uint8_t(170), // 1282
std::uint8_t(170), // 1283
std::uint8_t(170), // 1284
std::uint8_t(170), // 1285
std::uint8_t(170), // 1286
std::uint8_t(170), // 1287
std::uint8_t(170), // 1288
std::uint8_t(170), // 1289
std::uint8_t(170), // 1290
std::uint8_t(170), // 1291
std::uint8_t(170), // 1292
std::uint8_t(170), // 1293
std::uint8_t(170), // 1294
std::uint8_t(171), // 1295
std::uint8_t(171), // 1296
std::uint8_t(171), // 1297
std::uint8_t(171), // 1298
std::uint8_t(171), // 1299
std::uint8_t(171), // 1300
std::uint8_t(171), // 1301
std::uint8_t(171), // 1302
std::uint8_t(171), // 1303
std::uint8_t(171), // 1304
std::uint8_t(171), // 1305
std::uint8_t(171), // 1306
std::uint8_t(171), // 1307
std::uint8_t(171), // 1308
std::uint8_t(171), // 1309
std::uint8_t(171), // 1310
std::uint8_t(171), // 1311
std::uint8_t(172), // 1312
std::uint8_t(172), // 1313
std::uint8_t(172), // 1314
std::uint8_t(172), // 1315
std::uint8_t(172), // 1316
std::uint8_t(172), // 1317
std::uint8_t(172), // 1318
std::uint8_t(172), // 1319
std::uint8_t(172), // 1320
std::uint8_t(172), // 1321
std::uint8_t(172), // 1322
std::uint8_t(172), // 1323
std::uint8_t(172), // 1324
std::uint8_t(172), // 1325
std::uint8_t(172), // 1326
std::uint8_t(172), // 1327
std::uint8_t(172), // 1328
std::uint8_t(173), // 1329
std::uint8_t(173), // 1330
std::uint8_t(173), // 1331
std::uint8_t(173), // 1332
std::uint8_t(173), // 1333
std::uint8_t(173), // 1334
std::uint8_t(173), // 1335
std::uint8_t(173), // 1336
std::uint8_t(173), // 1337
std::uint8_t(173), // 1338
std::uint8_t(173), // 1339
std::uint8_t(173), // 1340
std::uint8_t(173), // 1341
std::uint8_t(173), // 1342
std::uint8_t(173), // 1343
std::uint8_t(173), // 1344
std::uint8_t(173), // 1345
std::uint8_t(174), // 1346
std::uint8_t(174), // 1347
std::uint8_t(174), // 1348
std::uint8_t(174), // 1349
std::uint8_t(174), // 1350
std::uint8_t(174), // 1351
std::uint8_t(174), // 1352
std::uint8_t(174), // 1353
std::uint8_t(174), // 1354
std::uint8_t(174), // 1355
std::uint8_t(174), // 1356
std::uint8_t(174), // 1357
std::uint8_t(174), // 1358
std::uint8_t(174), // 1359
std::uint8_t(174), // 1360
std::uint8_t(174), // 1361
std::uint8_t(174), // 1362
std::uint8_t(175), // 1363
std::uint8_t(175), // 1364
std::uint8_t(175), // 1365
std::uint8_t(175), // 1366
std::uint8_t(175), // 1367
std::uint8_t(175), // 1368
std::uint8_t(175), // 1369
std::uint8_t(175), // 1370
std::uint8_t(175), // 1371
std::uint8_t(175), // 1372
std::uint8_t(175), // 1373
std::uint8_t(175), // 1374
std::uint8_t(175), // 1375
std::uint8_t(175), // 1376
std::uint8_t(175), // 1377
std::uint8_t(175), // 1378
std::uint8_t(175), // 1379
std::uint8_t(175), // 1380
std::uint8_t(176), // 1381
std::uint8_t(176), // 1382
std::uint8_t(176), // 1383
std::uint8_t(176), // 1384
std::uint8_t(176), // 1385
std::uint8_t(176), // 1386
std::uint8_t(176), // 1387
std::uint8_t(176), // 1388
std::uint8_t(176), // 1389
std::uint8_t(176), // 1390
std::uint8_t(176), // 1391
std::uint8_t(176), // 1392
std::uint8_t(176), // 1393
std::uint8_t(176), // 1394
std::uint8_t(176), // 1395
std::uint8_t(176), // 1396
std::uint8_t(176), // 1397
std::uint8_t(177), // 1398
std::uint8_t(177), // 1399
std::uint8_t(177), // 1400
std::uint8_t(177), // 1401
std::uint8_t(177), // 1402
std::uint8_t(177), // 1403
std::uint8_t(177), // 1404
std::uint8_t(177), // 1405
std::uint8_t(177), // 1406
std::uint8_t(177), // 1407
std::uint8_t(177), // 1408
std::uint8_t(177), // 1409
std::uint8_t(177), // 1410
std::uint8_t(177), // 1411
std::uint8_t(177), // 1412
std::uint8_t(177), // 1413
std::uint8_t(177), // 1414
std::uint8_t(177), // 1415
std::uint8_t(178), // 1416
std::uint8_t(178), // 1417
std::uint8_t(178), // 1418
std::uint8_t(178), // 1419
std::uint8_t(178), // 1420
std::uint8_t(178), // 1421
std::uint8_t(178), // 1422
std::uint8_t(178), // 1423
std::uint8_t(178), // 1424
std::uint8_t(178), // 1425
std::uint8_t(178), // 1426
std::uint8_t(178), // 1427
std::uint8_t(178), // 1428
std::uint8_t(178), // 1429
std::uint8_t(178), // 1430
std::uint8_t(178), // 1431
std::uint8_t(178), // 1432
std::uint8_t(178), // 1433
std::uint8_t(179), // 1434
std::uint8_t(179), // 1435
std::uint8_t(179), // 1436
std::uint8_t(179), // 1437
std::uint8_t(179), // 1438
std::uint8_t(179), // 1439
std::uint8_t(179), // 1440
std::uint8_t(179), // 1441
std::uint8_t(179), // 1442
std::uint8_t(179), // 1443
std::uint8_t(179), // 1444
std::uint8_t(179), // 1445
std::uint8_t(179), // 1446
std::uint8_t(179), // 1447
std::uint8_t(179), // 1448
std::uint8_t(179), // 1449
std::uint8_t(179), // 1450
std::uint8_t(179), // 1451
std::uint8_t(180), // 1452
std::uint8_t(180), // 1453
std::uint8_t(180), // 1454
std::uint8_t(180), // 1455
std::uint8_t(180), // 1456
std::uint8_t(180), // 1457
std::uint8_t(180), // 1458
std::uint8_t(180), // 1459
std::uint8_t(180), // 1460
std::uint8_t(180), // 1461
std::uint8_t(180), // 1462
std::uint8_t(180), // 1463
std::uint8_t(180), // 1464
std::uint8_t(180), // 1465
std::uint8_t(180), // 1466
std::uint8_t(180), // 1467
std::uint8_t(180), // 1468
std::uint8_t(180), // 1469
std::uint8_t(181), // 1470
std::uint8_t(181), // 1471
std::uint8_t(181), // 1472
std::uint8_t(181), // 1473
std::uint8_t(181), // 1474
std::uint8_t(181), // 1475
std::uint8_t(181), // 1476
std::uint8_t(181), // 1477
std::uint8_t(181), // 1478
std::uint8_t(181), // 1479
std::uint8_t(181), // 1480
std::uint8_t(181), // 1481
std::uint8_t(181), // 1482
std::uint8_t(181), // 1483
std::uint8_t(181), // 1484
std::uint8_t(181), // 1485
std::uint8_t(181), // 1486
std::uint8_t(181), // 1487
std::uint8_t(182), // 1488
std::uint8_t(182), // 1489
std::uint8_t(182), // 1490
std::uint8_t(182), // 1491
std::uint8_t(182), // 1492
std::uint8_t(182), // 1493
std::uint8_t(182), // 1494
std::uint8_t(182), // 1495
std::uint8_t(182), // 1496
std::uint8_t(182), // 1497
std::uint8_t(182), // 1498
std::uint8_t(182), // 1499
std::uint8_t(182), // 1500
std::uint8_t(182), // 1501
std::uint8_t(182), // 1502
std::uint8_t(182), // 1503
std::uint8_t(182), // 1504
std::uint8_t(182), // 1505
std::uint8_t(183), // 1506
std::uint8_t(183), // 1507
std::uint8_t(183), // 1508
std::uint8_t(183), // 1509
std::uint8_t(183), // 1510
std::uint8_t(183), // 1511
std::uint8_t(183), // 1512
std::uint8_t(183), // 1513
std::uint8_t(183), // 1514
std::uint8_t(183), // 1515
std::uint8_t(183), // 1516
std::uint8_t(183), // 1517
std::uint8_t(183), // 1518
std::uint8_t(183), // 1519
std::uint8_t(183), // 1520
std::uint8_t(183), // 1521
std::uint8_t(183), // 1522
std::uint8_t(183), // 1523
std::uint8_t(183), // 1524
std::uint8_t(184), // 1525
std::uint8_t(184), // 1526
std::uint8_t(184), // 1527
std::uint8_t(184), // 1528
std::uint8_t(184), // 1529
std::uint8_t(184), // 1530
std::uint8_t(184), // 1531
std::uint8_t(184), // 1532
std::uint8_t(184), // 1533
std::uint8_t(184), // 1534
std::uint8_t(184), // 1535
std::uint8_t(184), // 1536
std::uint8_t(184), // 1537
std::uint8_t(184), // 1538
std::uint8_t(184), // 1539
std::uint8_t(184), // 1540
std::uint8_t(184), // 1541
std::uint8_t(184), // 1542
std::uint8_t(185), // 1543
std::uint8_t(185), // 1544
std::uint8_t(185), // 1545
std::uint8_t(185), // 1546
std::uint8_t(185), // 1547
std::uint8_t(185), // 1548
std::uint8_t(185), // 1549
std::uint8_t(185), // 1550
std::uint8_t(185), // 1551
std::uint8_t(185), // 1552
std::uint8_t(185), // 1553
std::uint8_t(185), // 1554
std::uint8_t(185), // 1555
std::uint8_t(185), // 1556
std::uint8_t(185), // 1557
std::uint8_t(185), // 1558
std::uint8_t(185), // 1559
std::uint8_t(185), // 1560
std::uint8_t(185), // 1561
std::uint8_t(186), // 1562
std::uint8_t(186), // 1563
std::uint8_t(186), // 1564
std::uint8_t(186), // 1565
std::uint8_t(186), // 1566
std::uint8_t(186), // 1567
std::uint8_t(186), // 1568
std::uint8_t(186), // 1569
std::uint8_t(186), // 1570
std::uint8_t(186), // 1571
std::uint8_t(186), // 1572
std::uint8_t(186), // 1573
std::uint8_t(186), // 1574
std::uint8_t(186), // 1575
std::uint8_t(186), // 1576
std::uint8_t(186), // 1577
std::uint8_t(186), // 1578
std::uint8_t(186), // 1579
std::uint8_t(186), // 1580
std::uint8_t(187), // 1581
std::uint8_t(187), // 1582
std::uint8_t(187), // 1583
std::uint8_t(187), // 1584
std::uint8_t(187), // 1585
std::uint8_t(187), // 1586
std::uint8_t(187), // 1587
std::uint8_t(187), // 1588
std::uint8_t(187), // 1589
std::uint8_t(187), // 1590
std::uint8_t(187), // 1591
std::uint8_t(187), // 1592
std::uint8_t(187), // 1593
std::uint8_t(187), // 1594
std::uint8_t(187), // 1595
std::uint8_t(187), // 1596
std::uint8_t(187), // 1597
std::uint8_t(187), // 1598
std::uint8_t(187), // 1599
std::uint8_t(188), // 1600
std::uint8_t(188), // 1601
std::uint8_t(188), // 1602
std::uint8_t(188), // 1603
std::uint8_t(188), // 1604
std::uint8_t(188), // 1605
std::uint8_t(188), // 1606
std::uint8_t(188), // 1607
std::uint8_t(188), // 1608
std::uint8_t(188), // 1609
std::uint8_t(188), // 1610
std::uint8_t(188), // 1611
std::uint8_t(188), // 1612
std::uint8_t(188), // 1613
std::uint8_t(188), // 1614
std::uint8_t(188), // 1615
std::uint8_t(188), // 1616
std::uint8_t(188), // 1617
std::uint8_t(188), // 1618
std::uint8_t(189), // 1619
std::uint8_t(189), // 1620
std::uint8_t(189), // 1621
std::uint8_t(189), // 1622
std::uint8_t(189), // 1623
std::uint8_t(189), // 1624
std::uint8_t(189), // 1625
std::uint8_t(189), // 1626
std::uint8_t(189), // 1627
std::uint8_t(189), // 1628
std::uint8_t(189), // 1629
std::uint8_t(189), // 1630
std::uint8_t(189), // 1631
std::uint8_t(189), // 1632
std::uint8_t(189), // 1633
std::uint8_t(189), // 1634
std::uint8_t(189), // 1635
std::uint8_t(189), // 1636
std::uint8_t(189), // 1637
std::uint8_t(190), // 1638
std::uint8_t(190), // 1639
std::uint8_t(190), // 1640
std::uint8_t(190), // 1641
std::uint8_t(190), // 1642
std::uint8_t(190), // 1643
std::uint8_t(190), // 1644
std::uint8_t(190), // 1645
std::uint8_t(190), // 1646
std::uint8_t(190), // 1647
std::uint8_t(190), // 1648
std::uint8_t(190), // 1649
std::uint8_t(190), // 1650
std::uint8_t(190), // 1651
std::uint8_t(190), // 1652
std::uint8_t(190), // 1653
std::uint8_t(190), // 1654
std::uint8_t(190), // 1655
std::uint8_t(190), // 1656
std::uint8_t(191), // 1657
std::uint8_t(191), // 1658
std::uint8_t(191), // 1659
std::uint8_t(191), // 1660
std::uint8_t(191), // 1661
std::uint8_t(191), // 1662
std::uint8_t(191), // 1663
std::uint8_t(191), // 1664
std::uint8_t(191), // 1665
std::uint8_t(191), // 1666
std::uint8_t(191), // 1667
std::uint8_t(191), // 1668
std::uint8_t(191), // 1669
std::uint8_t(191), // 1670
std::uint8_t(191), // 1671
std::uint8_t(191), // 1672
std::uint8_t(191), // 1673
std::uint8_t(191), // 1674
std::uint8_t(191), // 1675
std::uint8_t(191), // 1676
std::uint8_t(192), // 1677
std::uint8_t(192), // 1678
std::uint8_t(192), // 1679
std::uint8_t(192), // 1680
std::uint8_t(192), // 1681
std::uint8_t(192), // 1682
std::uint8_t(192), // 1683
std::uint8_t(192), // 1684
std::uint8_t(192), // 1685
std::uint8_t(192), // 1686
std::uint8_t(192), // 1687
std::uint8_t(192), // 1688
std::uint8_t(192), // 1689
std::uint8_t(192), // 1690
std::uint8_t(192), // 1691
std::uint8_t(192), // 1692
std::uint8_t(192), // 1693
std::uint8_t(192), // 1694
std::uint8_t(192), // 1695
std::uint8_t(192), // 1696
std::uint8_t(193), // 1697
std::uint8_t(193), // 1698
std::uint8_t(193), // 1699
std::uint8_t(193), // 1700
std::uint8_t(193), // 1701
std::uint8_t(193), // 1702
std::uint8_t(193), // 1703
std::uint8_t(193), // 1704
std::uint8_t(193), // 1705
std::uint8_t(193), // 1706
std::uint8_t(193), // 1707
std::uint8_t(193), // 1708
std::uint8_t(193), // 1709
std::uint8_t(193), // 1710
std::uint8_t(193), // 1711
std::uint8_t(193), // 1712
std::uint8_t(193), // 1713
std::uint8_t(193), // 1714
std::uint8_t(193), // 1715
std::uint8_t(194), // 1716
std::uint8_t(194), // 1717
std::uint8_t(194), // 1718
std::uint8_t(194), // 1719
std::uint8_t(194), // 1720
std::uint8_t(194), // 1721
std::uint8_t(194), // 1722
std::uint8_t(194), // 1723
std::uint8_t(194), // 1724
std::uint8_t(194), // 1725
std::uint8_t(194), // 1726
std::uint8_t(194), // 1727
std::uint8_t(194), // 1728
std::uint8_t(194), // 1729
std::uint8_t(194), // 1730
std::uint8_t(194), // 1731
std::uint8_t(194), // 1732
std::uint8_t(194), // 1733
std::uint8_t(194), // 1734
std::uint8_t(194), // 1735
std::uint8_t(195), // 1736
std::uint8_t(195), // 1737
std::uint8_t(195), // 1738
std::uint8_t(195), // 1739
std::uint8_t(195), // 1740
std::uint8_t(195), // 1741
std::uint8_t(195), // 1742
std::uint8_t(195), // 1743
std::uint8_t(195), // 1744
std::uint8_t(195), // 1745
std::uint8_t(195), // 1746
std::uint8_t(195), // 1747
std::uint8_t(195), // 1748
std::uint8_t(195), // 1749
std::uint8_t(195), // 1750
std::uint8_t(195), // 1751
std::uint8_t(195), // 1752
std::uint8_t(195), // 1753
std::uint8_t(195), // 1754
std::uint8_t(195), // 1755
std::uint8_t(196), // 1756
std::uint8_t(196), // 1757
std::uint8_t(196), // 1758
std::uint8_t(196), // 1759
std::uint8_t(196), // 1760
std::uint8_t(196), // 1761
std::uint8_t(196), // 1762
std::uint8_t(196), // 1763
std::uint8_t(196), // 1764
std::uint8_t(196), // 1765
std::uint8_t(196), // 1766
std::uint8_t(196), // 1767
std::uint8_t(196), // 1768
std::uint8_t(196), // 1769
std::uint8_t(196), // 1770
std::uint8_t(196), // 1771
std::uint8_t(196), // 1772
std::uint8_t(196), // 1773
std::uint8_t(196), // 1774
std::uint8_t(196), // 1775
std::uint8_t(196), // 1776
std::uint8_t(197), // 1777
std::uint8_t(197), // 1778
std::uint8_t(197), // 1779
std::uint8_t(197), // 1780
std::uint8_t(197), // 1781
std::uint8_t(197), // 1782
std::uint8_t(197), // 1783
std::uint8_t(197), // 1784
std::uint8_t(197), // 1785
std::uint8_t(197), // 1786
std::uint8_t(197), // 1787
std::uint8_t(197), // 1788
std::uint8_t(197), // 1789
std::uint8_t(197), // 1790
std::uint8_t(197), // 1791
std::uint8_t(197), // 1792
std::uint8_t(197), // 1793
std::uint8_t(197), // 1794
std::uint8_t(197), // 1795
std::uint8_t(197), // 1796
std::uint8_t(198), // 1797
std::uint8_t(198), // 1798
std::uint8_t(198), // 1799
std::uint8_t(198), // 1800
std::uint8_t(198), // 1801
std::uint8_t(198), // 1802
std::uint8_t(198), // 1803
std::uint8_t(198), // 1804
std::uint8_t(198), // 1805
std::uint8_t(198), // 1806
std::uint8_t(198), // 1807
std::uint8_t(198), // 1808
std::uint8_t(198), // 1809
std::uint8_t(198), // 1810
std::uint8_t(198), // 1811
std::uint8_t(198), // 1812
std::uint8_t(198), // 1813
std::uint8_t(198), // 1814
std::uint8_t(198), // 1815
std::uint8_t(198), // 1816
std::uint8_t(199), // 1817
std::uint8_t(199), // 1818
std::uint8_t(199), // 1819
std::uint8_t(199), // 1820
std::uint8_t(199), // 1821
std::uint8_t(199), // 1822
std::uint8_t(199), // 1823
std::uint8_t(199), // 1824
std::uint8_t(199), // 1825
std::uint8_t(199), // 1826
std::uint8_t(199), // 1827
std::uint8_t(199), // 1828
std::uint8_t(199), // 1829
std::uint8_t(199), // 1830
std::uint8_t(199), // 1831
std::uint8_t(199), // 1832
std::uint8_t(199), // 1833
std::uint8_t(199), // 1834
std::uint8_t(199), // 1835
std::uint8_t(199), // 1836
std::uint8_t(199), // 1837
std::uint8_t(200), // 1838
std::uint8_t(200), // 1839
std::uint8_t(200), // 1840
std::uint8_t(200), // 1841
std::uint8_t(200), // 1842
std::uint8_t(200), // 1843
std::uint8_t(200), // 1844
std::uint8_t(200), // 1845
std::uint8_t(200), // 1846
std::uint8_t(200), // 1847
std::uint8_t(200), // 1848
std::uint8_t(200), // 1849
std::uint8_t(200), // 1850
std::uint8_t(200), // 1851
std::uint8_t(200), // 1852
std::uint8_t(200), // 1853
std::uint8_t(200), // 1854
std::uint8_t(200), // 1855
std::uint8_t(200), // 1856
std::uint8_t(200), // 1857
std::uint8_t(200), // 1858
std::uint8_t(201), // 1859
std::uint8_t(201), // 1860
std::uint8_t(201), // 1861
std::uint8_t(201), // 1862
std::uint8_t(201), // 1863
std::uint8_t(201), // 1864
std::uint8_t(201), // 1865
std::uint8_t(201), // 1866
std::uint8_t(201), // 1867
std::uint8_t(201), // 1868
std::uint8_t(201), // 1869
std::uint8_t(201), // 1870
std::uint8_t(201), // 1871
std::uint8_t(201), // 1872
std::uint8_t(201), // 1873
std::uint8_t(201), // 1874
std::uint8_t(201), // 1875
std::uint8_t(201), // 1876
std::uint8_t(201), // 1877
std::uint8_t(201), // 1878
std::uint8_t(202), // 1879
std::uint8_t(202), // 1880
std::uint8_t(202), // 1881
std::uint8_t(202), // 1882
std::uint8_t(202), // 1883
std::uint8_t(202), // 1884
std::uint8_t(202), // 1885
std::uint8_t(202), // 1886
std::uint8_t(202), // 1887
std::uint8_t(202), // 1888
std::uint8_t(202), // 1889
std::uint8_t(202), // 1890
std::uint8_t(202), // 1891
std::uint8_t(202), // 1892
std::uint8_t(202), // 1893
std::uint8_t(202), // 1894
std::uint8_t(202), // 1895
std::uint8_t(202), // 1896
std::uint8_t(202), // 1897
std::uint8_t(202), // 1898
std::uint8_t(202), // 1899
std::uint8_t(203), // 1900
std::uint8_t(203), // 1901
std::uint8_t(203), // 1902
std::uint8_t(203), // 1903
std::uint8_t(203), // 1904
std::uint8_t(203), // 1905
std::uint8_t(203), // 1906
std::uint8_t(203), // 1907
std::uint8_t(203), // 1908
std::uint8_t(203), // 1909
std::uint8_t(203), // 1910
std::uint8_t(203), // 1911
std::uint8_t(203), // 1912
std::uint8_t(203), // 1913
std::uint8_t(203), // 1914
std::uint8_t(203), // 1915
std::uint8_t(203), // 1916
std::uint8_t(203), // 1917
std::uint8_t(203), // 1918
std::uint8_t(203), // 1919
std::uint8_t(203), // 1920
std::uint8_t(203), // 1921
std::uint8_t(204), // 1922
std::uint8_t(204), // 1923
std::uint8_t(204), // 1924
std::uint8_t(204), // 1925
std::uint8_t(204), // 1926
std::uint8_t(204), // 1927
std::uint8_t(204), // 1928
std::uint8_t(204), // 1929
std::uint8_t(204), // 1930
std::uint8_t(204), // 1931
std::uint8_t(204), // 1932
std::uint8_t(204), // 1933
std::uint8_t(204), // 1934
std::uint8_t(204), // 1935
std::uint8_t(204), // 1936
std::uint8_t(204), // 1937
std::uint8_t(204), // 1938
std::uint8_t(204), // 1939
std::uint8_t(204), // 1940
std::uint8_t(204), // 1941
std::uint8_t(204), // 1942
std::uint8_t(205), // 1943
std::uint8_t(205), // 1944
std::uint8_t(205), // 1945
std::uint8_t(205), // 1946
std::uint8_t(205), // 1947
std::uint8_t(205), // 1948
std::uint8_t(205), // 1949
std::uint8_t(205), // 1950
std::uint8_t(205), // 1951
std::uint8_t(205), // 1952
std::uint8_t(205), // 1953
std::uint8_t(205), // 1954
std::uint8_t(205), // 1955
std::uint8_t(205), // 1956
std::uint8_t(205), // 1957
std::uint8_t(205), // 1958
std::uint8_t(205), // 1959
std::uint8_t(205), // 1960
std::uint8_t(205), // 1961
std::uint8_t(205), // 1962
std::uint8_t(205), // 1963
std::uint8_t(206), // 1964
std::uint8_t(206), // 1965
std::uint8_t(206), // 1966
std::uint8_t(206), // 1967
std::uint8_t(206), // 1968
std::uint8_t(206), // 1969
std::uint8_t(206), // 1970
std::uint8_t(206), // 1971
std::uint8_t(206), // 1972
std::uint8_t(206), // 1973
std::uint8_t(206), // 1974
std::uint8_t(206), // 1975
std::uint8_t(206), // 1976
std::uint8_t(206), // 1977
std::uint8_t(206), // 1978
std::uint8_t(206), // 1979
std::uint8_t(206), // 1980
std::uint8_t(206), // 1981
std::uint8_t(206), // 1982
std::uint8_t(206), // 1983
std::uint8_t(206), // 1984
std::uint8_t(206), // 1985
std::uint8_t(207), // 1986
std::uint8_t(207), // 1987
std::uint8_t(207), // 1988
std::uint8_t(207), // 1989
std::uint8_t(207), // 1990
std::uint8_t(207), // 1991
std::uint8_t(207), // 1992
std::uint8_t(207), // 1993
std::uint8_t(207), // 1994
std::uint8_t(207), // 1995
std::uint8_t(207), // 1996
std::uint8_t(207), // 1997
std::uint8_t(207), // 1998
std::uint8_t(207), // 1999
std::uint8_t(207), // 2000
std::uint8_t(207), // 2001
std::uint8_t(207), // 2002
std::uint8_t(207), // 2003
std::uint8_t(207), // 2004
std::uint8_t(207), // 2005
std::uint8_t(207), // 2006
std::uint8_t(208), // 2007
std::uint8_t(208), // 2008
std::uint8_t(208), // 2009
std::uint8_t(208), // 2010
std::uint8_t(208), // 2011
std::uint8_t(208), // 2012
std::uint8_t(208), // 2013
std::uint8_t(208), // 2014
std::uint8_t(208), // 2015
std::uint8_t(208), // 2016
std::uint8_t(208), // 2017
std::uint8_t(208), // 2018
std::uint8_t(208), // 2019
std::uint8_t(208), // 2020
std::uint8_t(208), // 2021
std::uint8_t(208), // 2022
std::uint8_t(208), // 2023
std::uint8_t(208), // 2024
std::uint8_t(208), // 2025
std::uint8_t(208), // 2026
std::uint8_t(208), // 2027
std::uint8_t(208), // 2028
std::uint8_t(209), // 2029
std::uint8_t(209), // 2030
std::uint8_t(209), // 2031
std::uint8_t(209), // 2032
std::uint8_t(209), // 2033
std::uint8_t(209), // 2034
std::uint8_t(209), // 2035
std::uint8_t(209), // 2036
std::uint8_t(209), // 2037
std::uint8_t(209), // 2038
std::uint8_t(209), // 2039
std::uint8_t(209), // 2040
std::uint8_t(209), // 2041
std::uint8_t(209), // 2042
std::uint8_t(209), // 2043
std::uint8_t(209), // 2044
std::uint8_t(209), // 2045
std::uint8_t(209), // 2046
std::uint8_t(209), // 2047
std::uint8_t(209), // 2048
std::uint8_t(209), // 2049
std::uint8_t(209), // 2050
std::uint8_t(210), // 2051
std::uint8_t(210), // 2052
std::uint8_t(210), // 2053
std::uint8_t(210), // 2054
std::uint8_t(210), // 2055
std::uint8_t(210), // 2056
std::uint8_t(210), // 2057
std::uint8_t(210), // 2058
std::uint8_t(210), // 2059
std::uint8_t(210), // 2060
std::uint8_t(210), // 2061
std::uint8_t(210), // 2062
std::uint8_t(210), // 2063
std::uint8_t(210), // 2064
std::uint8_t(210), // 2065
std::uint8_t(210), // 2066
std::uint8_t(210), // 2067
std::uint8_t(210), // 2068
std::uint8_t(210), // 2069
std::uint8_t(210), // 2070
std::uint8_t(210), // 2071
std::uint8_t(210), // 2072
std::uint8_t(211), // 2073
std::uint8_t(211), // 2074
std::uint8_t(211), // 2075
std::uint8_t(211), // 2076
std::uint8_t(211), // 2077
std::uint8_t(211), // 2078
std::uint8_t(211), // 2079
std::uint8_t(211), // 2080
std::uint8_t(211), // 2081
std::uint8_t(211), // 2082
std::uint8_t(211), // 2083
std::uint8_t(211), // 2084
std::uint8_t(211), // 2085
std::uint8_t(211), // 2086
std::uint8_t(211), // 2087
std::uint8_t(211), // 2088
std::uint8_t(211), // 2089
std::uint8_t(211), // 2090
std::uint8_t(211), // 2091
std::uint8_t(211), // 2092
std::uint8_t(211), // 2093
std::uint8_t(211), // 2094
std::uint8_t(212), // 2095
std::uint8_t(212), // 2096
std::uint8_t(212), // 2097
std::uint8_t(212), // 2098
std::uint8_t(212), // 2099
std::uint8_t(212), // 2100
std::uint8_t(212), // 2101
std::uint8_t(212), // 2102
std::uint8_t(212), // 2103
std::uint8_t(212), // 2104
std::uint8_t(212), // 2105
std::uint8_t(212), // 2106
std::uint8_t(212), // 2107
std::uint8_t(212), // 2108
std::uint8_t(212), // 2109
std::uint8_t(212), // 2110
std::uint8_t(212), // 2111
std::uint8_t(212), // 2112
std::uint8_t(212), // 2113
std::uint8_t(212), // 2114
std::uint8_t(212), // 2115
std::uint8_t(212), // 2116
std::uint8_t(212), // 2117
std::uint8_t(213), // 2118
std::uint8_t(213), // 2119
std::uint8_t(213), // 2120
std::uint8_t(213), // 2121
std::uint8_t(213), // 2122
std::uint8_t(213), // 2123
std::uint8_t(213), // 2124
std::uint8_t(213), // 2125
std::uint8_t(213), // 2126
std::uint8_t(213), // 2127
std::uint8_t(213), // 2128
std::uint8_t(213), // 2129
std::uint8_t(213), // 2130
std::uint8_t(213), // 2131
std::uint8_t(213), // 2132
std::uint8_t(213), // 2133
std::uint8_t(213), // 2134
std::uint8_t(213), // 2135
std::uint8_t(213), // 2136
std::uint8_t(213), // 2137
std::uint8_t(213), // 2138
std::uint8_t(213), // 2139
std::uint8_t(214), // 2140
std::uint8_t(214), // 2141
std::uint8_t(214), // 2142
std::uint8_t(214), // 2143
std::uint8_t(214), // 2144
std::uint8_t(214), // 2145
std::uint8_t(214), // 2146
std::uint8_t(214), // 2147
std::uint8_t(214), // 2148
std::uint8_t(214), // 2149
std::uint8_t(214), // 2150
std::uint8_t(214), // 2151
std::uint8_t(214), // 2152
std::uint8_t(214), // 2153
std::uint8_t(214), // 2154
std::uint8_t(214), // 2155
std::uint8_t(214), // 2156
std::uint8_t(214), // 2157
std::uint8_t(214), // 2158
std::uint8_t(214), // 2159
std::uint8_t(214), // 2160
std::uint8_t(214), // 2161
std::uint8_t(214), // 2162
std::uint8_t(215), // 2163
std::uint8_t(215), // 2164
std::uint8_t(215), // 2165
std::uint8_t(215), // 2166
std::uint8_t(215), // 2167
std::uint8_t(215), // 2168
std::uint8_t(215), // 2169
std::uint8_t(215), // 2170
std::uint8_t(215), // 2171
std::uint8_t(215), // 2172
std::uint8_t(215), // 2173
std::uint8_t(215), // 2174
std::uint8_t(215), // 2175
std::uint8_t(215), // 2176
std::uint8_t(215), // 2177
std::uint8_t(215), // 2178
std::uint8_t(215), // 2179
std::uint8_t(215), // 2180
std::uint8_t(215), // 2181
std::uint8_t(215), // 2182
std::uint8_t(215), // 2183
std::uint8_t(215), // 2184
std::uint8_t(215), // 2185
std::uint8_t(216), // 2186
std::uint8_t(216), // 2187
std::uint8_t(216), // 2188
std::uint8_t(216), // 2189
std::uint8_t(216), // 2190
std::uint8_t(216), // 2191
std::uint8_t(216), // 2192
std::uint8_t(216), // 2193
std::uint8_t(216), // 2194
std::uint8_t(216), // 2195
std::uint8_t(216), // 2196
std::uint8_t(216), // 2197
std::uint8_t(216), // 2198
std::uint8_t(216), // 2199
std::uint8_t(216), // 2200
std::uint8_t(216), // 2201
std::uint8_t(216), // 2202
std::uint8_t(216), // 2203
std::uint8_t(216), // 2204
std::uint8_t(216), // 2205
std::uint8_t(216), // 2206
std::uint8_t(216), // 2207
std::uint8_t(216), // 2208
std::uint8_t(217), // 2209
std::uint8_t(217), // 2210
std::uint8_t(217), // 2211
std::uint8_t(217), // 2212
std::uint8_t(217), // 2213
std::uint8_t(217), // 2214
std::uint8_t(217), // 2215
std::uint8_t(217), // 2216
std::uint8_t(217), // 2217
std::uint8_t(217), // 2218
std::uint8_t(217), // 2219
std::uint8_t(217), // 2220
std::uint8_t(217), // 2221
std::uint8_t(217), // 2222
std::uint8_t(217), // 2223
std::uint8_t(217), // 2224
std::uint8_t(217), // 2225
std::uint8_t(217), // 2226
std::uint8_t(217), // 2227
std::uint8_t(217), // 2228
std::uint8_t(217), // 2229
std::uint8_t(217), // 2230
std::uint8_t(217), // 2231
std::uint8_t(218), // 2232
std::uint8_t(218), // 2233
std::uint8_t(218), // 2234
std::uint8_t(218), // 2235
std::uint8_t(218), // 2236
std::uint8_t(218), // 2237
std::uint8_t(218), // 2238
std::uint8_t(218), // 2239
std::uint8_t(218), // 2240
std::uint8_t(218), // 2241
std::uint8_t(218), // 2242
std::uint8_t(218), // 2243
std::uint8_t(218), // 2244
std::uint8_t(218), // 2245
std::uint8_t(218), // 2246
std::uint8_t(218), // 2247
std::uint8_t(218), // 2248
std::uint8_t(218), // 2249
std::uint8_t(218), // 2250
std::uint8_t(218), // 2251
std::uint8_t(218), // 2252
std::uint8_t(218), // 2253
std::uint8_t(218), // 2254
std::uint8_t(219), // 2255
std::uint8_t(219), // 2256
std::uint8_t(219), // 2257
std::uint8_t(219), // 2258
std::uint8_t(219), // 2259
std::uint8_t(219), // 2260
std::uint8_t(219), // 2261
std::uint8_t(219), // 2262
std::uint8_t(219), // 2263
std::uint8_t(219), // 2264
std::uint8_t(219), // 2265
std::uint8_t(219), // 2266
std::uint8_t(219), // 2267
std::uint8_t(219), // 2268
std::uint8_t(219), // 2269
std::uint8_t(219), // 2270
std::uint8_t(219), // 2271
std::uint8_t(219), // 2272
std::uint8_t(219), // 2273
std::uint8_t(219), // 2274
std::uint8_t(219), // 2275
std::uint8_t(219), // 2276
std::uint8_t(219), // 2277
std::uint8_t(220), // 2278
std::uint8_t(220), // 2279
std::uint8_t(220), // 2280
std::uint8_t(220), // 2281
std::uint8_t(220), // 2282
std::uint8_t(220), // 2283
std::uint8_t(220), // 2284
std::uint8_t(220), // 2285
std::uint8_t(220), // 2286
std::uint8_t(220), // 2287
std::uint8_t(220), // 2288
std::uint8_t(220), // 2289
std::uint8_t(220), // 2290
std::uint8_t(220), // 2291
std::uint8_t(220), // 2292
std::uint8_t(220), // 2293
std::uint8_t(220), // 2294
std::uint8_t(220), // 2295
std::uint8_t(220), // 2296
std::uint8_t(220), // 2297
std::uint8_t(220), // 2298
std::uint8_t(220), // 2299
std::uint8_t(220), // 2300
std::uint8_t(220), // 2301
std::uint8_t(221), // 2302
std::uint8_t(221), // 2303
std::uint8_t(221), // 2304
std::uint8_t(221), // 2305
std::uint8_t(221), // 2306
std::uint8_t(221), // 2307
std::uint8_t(221), // 2308
std::uint8_t(221), // 2309
std::uint8_t(221), // 2310
std::uint8_t(221), // 2311
std::uint8_t(221), // 2312
std::uint8_t(221), // 2313
std::uint8_t(221), // 2314
std::uint8_t(221), // 2315
std::uint8_t(221), // 2316
std::uint8_t(221), // 2317
std::uint8_t(221), // 2318
std::uint8_t(221), // 2319
std::uint8_t(221), // 2320
std::uint8_t(221), // 2321
std::uint8_t(221), // 2322
std::uint8_t(221), // 2323
std::uint8_t(221), // 2324
std::uint8_t(222), // 2325
std::uint8_t(222), // 2326
std::uint8_t(222), // 2327
std::uint8_t(222), // 2328
std::uint8_t(222), // 2329
std::uint8_t(222), // 2330
std::uint8_t(222), // 2331
std::uint8_t(222), // 2332
std::uint8_t(222), // 2333
std::uint8_t(222), // 2334
std::uint8_t(222), // 2335
std::uint8_t(222), // 2336
std::uint8_t(222), // 2337
std::uint8_t(222), // 2338
std::uint8_t(222), // 2339
std::uint8_t(222), // 2340
std::uint8_t(222), // 2341
std::uint8_t(222), // 2342
std::uint8_t(222), // 2343
std::uint8_t(222), // 2344
std::uint8_t(222), // 2345
std::uint8_t(222), // 2346
std::uint8_t(222), // 2347
std::uint8_t(222), // 2348
std::uint8_t(223), // 2349
std::uint8_t(223), // 2350
std::uint8_t(223), // 2351
std::uint8_t(223), // 2352
std::uint8_t(223), // 2353
std::uint8_t(223), // 2354
std::uint8_t(223), // 2355
std::uint8_t(223), // 2356
std::uint8_t(223), // 2357
std::uint8_t(223), // 2358
std::uint8_t(223), // 2359
std::uint8_t(223), // 2360
std::uint8_t(223), // 2361
std::uint8_t(223), // 2362
std::uint8_t(223), // 2363
std::uint8_t(223), // 2364
std::uint8_t(223), // 2365
std::uint8_t(223), // 2366
std::uint8_t(223), // 2367
std::uint8_t(223), // 2368
std::uint8_t(223), // 2369
std::uint8_t(223), // 2370
std::uint8_t(223), // 2371
std::uint8_t(223), // 2372
std::uint8_t(224), // 2373
std::uint8_t(224), // 2374
std::uint8_t(224), // 2375
std::uint8_t(224), // 2376
std::uint8_t(224), // 2377
std::uint8_t(224), // 2378
std::uint8_t(224), // 2379
std::uint8_t(224), // 2380
std::uint8_t(224), // 2381
std::uint8_t(224), // 2382
std::uint8_t(224), // 2383
std::uint8_t(224), // 2384
std::uint8_t(224), // 2385
std::uint8_t(224), // 2386
std::uint8_t(224), // 2387
std::uint8_t(224), // 2388
std::uint8_t(224), // 2389
std::uint8_t(224), // 2390
std::uint8_t(224), // 2391
std::uint8_t(224), // 2392
std::uint8_t(224), // 2393
std::uint8_t(224), // 2394
std::uint8_t(224), // 2395
std::uint8_t(224), // 2396
std::uint8_t(225), // 2397
std::uint8_t(225), // 2398
std::uint8_t(225), // 2399
std::uint8_t(225), // 2400
std::uint8_t(225), // 2401
std::uint8_t(225), // 2402
std::uint8_t(225), // 2403
std::uint8_t(225), // 2404
std::uint8_t(225), // 2405
std::uint8_t(225), // 2406
std::uint8_t(225), // 2407
std::uint8_t(225), // 2408
std::uint8_t(225), // 2409
std::uint8_t(225), // 2410
std::uint8_t(225), // 2411
std::uint8_t(225), // 2412
std::uint8_t(225), // 2413
std::uint8_t(225), // 2414
std::uint8_t(225), // 2415
std::uint8_t(225), // 2416
std::uint8_t(225), // 2417
std::uint8_t(225), // 2418
std::uint8_t(225), // 2419
std::uint8_t(225), // 2420
std::uint8_t(226), // 2421
std::uint8_t(226), // 2422
std::uint8_t(226), // 2423
std::uint8_t(226), // 2424
std::uint8_t(226), // 2425
std::uint8_t(226), // 2426
std::uint8_t(226), // 2427
std::uint8_t(226), // 2428
std::uint8_t(226), // 2429
std::uint8_t(226), // 2430
std::uint8_t(226), // 2431
std::uint8_t(226), // 2432
std::uint8_t(226), // 2433
std::uint8_t(226), // 2434
std::uint8_t(226), // 2435
std::uint8_t(226), // 2436
std::uint8_t(226), // 2437
std::uint8_t(226), // 2438
std::uint8_t(226), // 2439
std::uint8_t(226), // 2440
std::uint8_t(226), // 2441
std::uint8_t(226), // 2442
std::uint8_t(226), // 2443
std::uint8_t(226), // 2444
std::uint8_t(226), // 2445
std::uint8_t(227), // 2446
std::uint8_t(227), // 2447
std::uint8_t(227), // 2448
std::uint8_t(227), // 2449
std::uint8_t(227), // 2450
std::uint8_t(227), // 2451
std::uint8_t(227), // 2452
std::uint8_t(227), // 2453
std::uint8_t(227), // 2454
std::uint8_t(227), // 2455
std::uint8_t(227), // 2456
std::uint8_t(227), // 2457
std::uint8_t(227), // 2458
std::uint8_t(227), // 2459
std::uint8_t(227), // 2460
std::uint8_t(227), // 2461
std::uint8_t(227), // 2462
std::uint8_t(227), // 2463
std::uint8_t(227), // 2464
std::uint8_t(227), // 2465
std::uint8_t(227), // 2466
std::uint8_t(227), // 2467
std::uint8_t(227), // 2468
std::uint8_t(227), // 2469
std::uint8_t(228), // 2470
std::uint8_t(228), // 2471
std::uint8_t(228), // 2472
std::uint8_t(228), // 2473
std::uint8_t(228), // 2474
std::uint8_t(228), // 2475
std::uint8_t(228), // 2476
std::uint8_t(228), // 2477
std::uint8_t(228), // 2478
std::uint8_t(228), // 2479
std::uint8_t(228), // 2480
std::uint8_t(228), // 2481
std::uint8_t(228), // 2482
std::uint8_t(228), // 2483
std::uint8_t(228), // 2484
std::uint8_t(228), // 2485
std::uint8_t(228), // 2486
std::uint8_t(228), // 2487
std::uint8_t(228), // 2488
std::uint8_t(228), // 2489
std::uint8_t(228), // 2490
std::uint8_t(228), // 2491
std::uint8_t(228), // 2492
std::uint8_t(228), // 2493
std::uint8_t(228), // 2494
std::uint8_t(229), // 2495
std::uint8_t(229), // 2496
std::uint8_t(229), // 2497
std::uint8_t(229), // 2498
std::uint8_t(229), // 2499
std::uint8_t(229), // 2500
std::uint8_t(229), // 2501
std::uint8_t(229), // 2502
std::uint8_t(229), // 2503
std::uint8_t(229), // 2504
std::uint8_t(229), // 2505
std::uint8_t(229), // 2506
std::uint8_t(229), // 2507
std::uint8_t(229), // 2508
std::uint8_t(229), // 2509
std::uint8_t(229), // 2510
std::uint8_t(229), // 2511
std::uint8_t(229), // 2512
std::uint8_t(229), // 2513
std::uint8_t(229), // 2514
std::uint8_t(229), // 2515
std::uint8_t(229), // 2516
std::uint8_t(229), // 2517
std::uint8_t(229), // 2518
std::uint8_t(230), // 2519
std::uint8_t(230), // 2520
std::uint8_t(230), // 2521
std::uint8_t(230), // 2522
std::uint8_t(230), // 2523
std::uint8_t(230), // 2524
std::uint8_t(230), // 2525
std::uint8_t(230), // 2526
std::uint8_t(230), // 2527
std::uint8_t(230), // 2528
std::uint8_t(230), // 2529
std::uint8_t(230), // 2530
std::uint8_t(230), // 2531
std::uint8_t(230), // 2532
std::uint8_t(230), // 2533
std::uint8_t(230), // 2534
std::uint8_t(230), // 2535
std::uint8_t(230), // 2536
std::uint8_t(230), // 2537
std::uint8_t(230), // 2538
std::uint8_t(230), // 2539
std::uint8_t(230), // 2540
std::uint8_t(230), // 2541
std::uint8_t(230), // 2542
std::uint8_t(230), // 2543
std::uint8_t(231), // 2544
std::uint8_t(231), // 2545
std::uint8_t(231), // 2546
std::uint8_t(231), // 2547
std::uint8_t(231), // 2548
std::uint8_t(231), // 2549
std::uint8_t(231), // 2550
std::uint8_t(231), // 2551
std::uint8_t(231), // 2552
std::uint8_t(231), // 2553
std::uint8_t(231), // 2554
std::uint8_t(231), // 2555
std::uint8_t(231), // 2556
std::uint8_t(231), // 2557
std::uint8_t(231), // 2558
std::uint8_t(231), // 2559
std::uint8_t(231), // 2560
std::uint8_t(231), // 2561
std::uint8_t(231), // 2562
std::uint8_t(231), // 2563
std::uint8_t(231), // 2564
std::uint8_t(231), // 2565
std::uint8_t(231), // 2566
std::uint8_t(231), // 2567
std::uint8_t(231), // 2568
std::uint8_t(232), // 2569
std::uint8_t(232), // 2570
std::uint8_t(232), // 2571
std::uint8_t(232), // 2572
std::uint8_t(232), // 2573
std::uint8_t(232), // 2574
std::uint8_t(232), // 2575
std::uint8_t(232), // 2576
std::uint8_t(232), // 2577
std::uint8_t(232), // 2578
std::uint8_t(232), // 2579
std::uint8_t(232), // 2580
std::uint8_t(232), // 2581
std::uint8_t(232), // 2582
std::uint8_t(232), // 2583
std::uint8_t(232), // 2584
std::uint8_t(232), // 2585
std::uint8_t(232), // 2586
std::uint8_t(232), // 2587
std::uint8_t(232), // 2588
std::uint8_t(232), // 2589
std::uint8_t(232), // 2590
std::uint8_t(232), // 2591
std::uint8_t(232), // 2592
std::uint8_t(232), // 2593
std::uint8_t(232), // 2594
std::uint8_t(233), // 2595
std::uint8_t(233), // 2596
std::uint8_t(233), // 2597
std::uint8_t(233), // 2598
std::uint8_t(233), // 2599
std::uint8_t(233), // 2600
std::uint8_t(233), // 2601
std::uint8_t(233), // 2602
std::uint8_t(233), // 2603
std::uint8_t(233), // 2604
std::uint8_t(233), // 2605
std::uint8_t(233), // 2606
std::uint8_t(233), // 2607
std::uint8_t(233), // 2608
std::uint8_t(233), // 2609
std::uint8_t(233), // 2610
std::uint8_t(233), // 2611
std::uint8_t(233), // 2612
std::uint8_t(233), // 2613
std::uint8_t(233), // 2614
std::uint8_t(233), // 2615
std::uint8_t(233), // 2616
std::uint8_t(233), // 2617
std::uint8_t(233), // 2618
std::uint8_t(233), // 2619
std::uint8_t(234), // 2620
std::uint8_t(234), // 2621
std::uint8_t(234), // 2622
std::uint8_t(234), // 2623
std::uint8_t(234), // 2624
std::uint8_t(234), // 2625
std::uint8_t(234), // 2626
std::uint8_t(234), // 2627
std::uint8_t(234), // 2628
std::uint8_t(234), // 2629
std::uint8_t(234), // 2630
std::uint8_t(234), // 2631
std::uint8_t(234), // 2632
std::uint8_t(234), // 2633
std::uint8_t(234), // 2634
std::uint8_t(234), // 2635
std::uint8_t(234), // 2636
std::uint8_t(234), // 2637
std::uint8_t(234), // 2638
std::uint8_t(234), // 2639
std::uint8_t(234), // 2640
std::uint8_t(234), // 2641
std::uint8_t(234), // 2642
std::uint8_t(234), // 2643
std::uint8_t(234), // 2644
std::uint8_t(235), // 2645
std::uint8_t(235), // 2646
std::uint8_t(235), // 2647
std::uint8_t(235), // 2648
std::uint8_t(235), // 2649
std::uint8_t(235), // 2650
std::uint8_t(235), // 2651
std::uint8_t(235), // 2652
std::uint8_t(235), // 2653
std::uint8_t(235), // 2654
std::uint8_t(235), // 2655
std::uint8_t(235), // 2656
std::uint8_t(235), // 2657
std::uint8_t(235), // 2658
std::uint8_t(235), // 2659
std::uint8_t(235), // 2660
std::uint8_t(235), // 2661
std::uint8_t(235), // 2662
std::uint8_t(235), // 2663
std::uint8_t(235), // 2664
std::uint8_t(235), // 2665
std::uint8_t(235), // 2666
std::uint8_t(235), // 2667
std::uint8_t(235), // 2668
std::uint8_t(235), // 2669
std::uint8_t(235), // 2670
std::uint8_t(236), // 2671
std::uint8_t(236), // 2672
std::uint8_t(236), // 2673
std::uint8_t(236), // 2674
std::uint8_t(236), // 2675
std::uint8_t(236), // 2676
std::uint8_t(236), // 2677
std::uint8_t(236), // 2678
std::uint8_t(236), // 2679
std::uint8_t(236), // 2680
std::uint8_t(236), // 2681
std::uint8_t(236), // 2682
std::uint8_t(236), // 2683
std::uint8_t(236), // 2684
std::uint8_t(236), // 2685
std::uint8_t(236), // 2686
std::uint8_t(236), // 2687
std::uint8_t(236), // 2688
std::uint8_t(236), // 2689
std::uint8_t(236), // 2690
std::uint8_t(236), // 2691
std::uint8_t(236), // 2692
std::uint8_t(236), // 2693
std::uint8_t(236), // 2694
std::uint8_t(236), // 2695
std::uint8_t(236), // 2696
std::uint8_t(237), // 2697
std::uint8_t(237), // 2698
std::uint8_t(237), // 2699
std::uint8_t(237), // 2700
std::uint8_t(237), // 2701
std::uint8_t(237), // 2702
std::uint8_t(237), // 2703
std::uint8_t(237), // 2704
std::uint8_t(237), // 2705
std::uint8_t(237), // 2706
std::uint8_t(237), // 2707
std::uint8_t(237), // 2708
std::uint8_t(237), // 2709
std::uint8_t(237), // 2710
std::uint8_t(237), // 2711
std::uint8_t(237), // 2712
std::uint8_t(237), // 2713
std::uint8_t(237), // 2714
std::uint8_t(237), // 2715
std::uint8_t(237), // 2716
std::uint8_t(237), // 2717
std::uint8_t(237), // 2718
std::uint8_t(237), // 2719
std::uint8_t(237), // 2720
std::uint8_t(237), // 2721
std::uint8_t(237), // 2722
std::uint8_t(238), // 2723
std::uint8_t(238), // 2724
std::uint8_t(238), // 2725
std::uint8_t(238), // 2726
std::uint8_t(238), // 2727
std::uint8_t(238), // 2728
std::uint8_t(238), // 2729
std::uint8_t(238), // 2730
std::uint8_t(238), // 2731
std::uint8_t(238), // 2732
std::uint8_t(238), // 2733
std::uint8_t(238), // 2734
std::uint8_t(238), // 2735
std::uint8_t(238), // 2736
std::uint8_t(238), // 2737
std::uint8_t(238), // 2738
std::uint8_t(238), // 2739
std::uint8_t(238), // 2740
std::uint8_t(238), // 2741
std::uint8_t(238), // 2742
std::uint8_t(238), // 2743
std::uint8_t(238), // 2744
std::uint8_t(238), // 2745
std::uint8_t(238), // 2746
std::uint8_t(238), // 2747
std::uint8_t(238), // 2748
std::uint8_t(239), // 2749
std::uint8_t(239), // 2750
std::uint8_t(239), // 2751
std::uint8_t(239), // 2752
std::uint8_t(239), // 2753
std::uint8_t(239), // 2754
std::uint8_t(239), // 2755
std::uint8_t(239), // 2756
std::uint8_t(239), // 2757
std::uint8_t(239), // 2758
std::uint8_t(239), // 2759
std::uint8_t(239), // 2760
std::uint8_t(239), // 2761
std::uint8_t(239), // 2762
std::uint8_t(239), // 2763
std::uint8_t(239), // 2764
std::uint8_t(239), // 2765
std::uint8_t(239), // 2766
std::uint8_t(239), // 2767
std::uint8_t(239), // 2768
std::uint8_t(239), // 2769
std::uint8_t(239), // 2770
std::uint8_t(239), // 2771
std::uint8_t(239), // 2772
std::uint8_t(239), // 2773
std::uint8_t(239), // 2774
std::uint8_t(240), // 2775
std::uint8_t(240), // 2776
std::uint8_t(240), // 2777
std::uint8_t(240), // 2778
std::uint8_t(240), // 2779
std::uint8_t(240), // 2780
std::uint8_t(240), // 2781
std::uint8_t(240), // 2782
std::uint8_t(240), // 2783
std::uint8_t(240), // 2784
std::uint8_t(240), // 2785
std::uint8_t(240), // 2786
std::uint8_t(240), // 2787
std::uint8_t(240), // 2788
std::uint8_t(240), // 2789
std::uint8_t(240), // 2790
std::uint8_t(240), // 2791
std::uint8_t(240), // 2792
std::uint8_t(240), // 2793
std::uint8_t(240), // 2794
std::uint8_t(240), // 2795
std::uint8_t(240), // 2796
std::uint8_t(240), // 2797
std::uint8_t(240), // 2798
std::uint8_t(240), // 2799
std::uint8_t(240), // 2800
std::uint8_t(241), // 2801
std::uint8_t(241), // 2802
std::uint8_t(241), // 2803
std::uint8_t(241), // 2804
std::uint8_t(241), // 2805
std::uint8_t(241), // 2806
std::uint8_t(241), // 2807
std::uint8_t(241), // 2808
std::uint8_t(241), // 2809
std::uint8_t(241), // 2810
std::uint8_t(241), // 2811
std::uint8_t(241), // 2812
std::uint8_t(241), // 2813
std::uint8_t(241), // 2814
std::uint8_t(241), // 2815
std::uint8_t(241), // 2816
std::uint8_t(241), // 2817
std::uint8_t(241), // 2818
std::uint8_t(241), // 2819
std::uint8_t(241), // 2820
std::uint8_t(241), // 2821
std::uint8_t(241), // 2822
std::uint8_t(241), // 2823
std::uint8_t(241), // 2824
std::uint8_t(241), // 2825
std::uint8_t(241), // 2826
std::uint8_t(241), // 2827
std::uint8_t(242), // 2828
std::uint8_t(242), // 2829
std::uint8_t(242), // 2830
std::uint8_t(242), // 2831
std::uint8_t(242), // 2832
std::uint8_t(242), // 2833
std::uint8_t(242), // 2834
std::uint8_t(242), // 2835
std::uint8_t(242), // 2836
std::uint8_t(242), // 2837
std::uint8_t(242), // 2838
std::uint8_t(242), // 2839
std::uint8_t(242), // 2840
std::uint8_t(242), // 2841
std::uint8_t(242), // 2842
std::uint8_t(242), // 2843
std::uint8_t(242), // 2844
std::uint8_t(242), // 2845
std::uint8_t(242), // 2846
std::uint8_t(242), // 2847
std::uint8_t(242), // 2848
std::uint8_t(242), // 2849
std::uint8_t(242), // 2850
std::uint8_t(242), // 2851
std::uint8_t(242), // 2852
std::uint8_t(242), // 2853
std::uint8_t(243), // 2854
std::uint8_t(243), // 2855
std::uint8_t(243), // 2856
std::uint8_t(243), // 2857
std::uint8_t(243), // 2858
std::uint8_t(243), // 2859
std::uint8_t(243), // 2860
std::uint8_t(243), // 2861
std::uint8_t(243), // 2862
std::uint8_t(243), // 2863
std::uint8_t(243), // 2864
std::uint8_t(243), // 2865
std::uint8_t(243), // 2866
std::uint8_t(243), // 2867
std::uint8_t(243), // 2868
std::uint8_t(243), // 2869
std::uint8_t(243), // 2870
std::uint8_t(243), // 2871
std::uint8_t(243), // 2872
std::uint8_t(243), // 2873
std::uint8_t(243), // 2874
std::uint8_t(243), // 2875
std::uint8_t(243), // 2876
std::uint8_t(243), // 2877
std::uint8_t(243), // 2878
std::uint8_t(243), // 2879
std::uint8_t(243), // 2880
std::uint8_t(244), // 2881
std::uint8_t(244), // 2882
std::uint8_t(244), // 2883
std::uint8_t(244), // 2884
std::uint8_t(244), // 2885
std::uint8_t(244), // 2886
std::uint8_t(244), // 2887
std::uint8_t(244), // 2888
std::uint8_t(244), // 2889
std::uint8_t(244), // 2890
std::uint8_t(244), // 2891
std::uint8_t(244), // 2892
std::uint8_t(244), // 2893
std::uint8_t(244), // 2894
std::uint8_t(244), // 2895
std::uint8_t(244), // 2896
std::uint8_t(244), // 2897
std::uint8_t(244), // 2898
std::uint8_t(244), // 2899
std::uint8_t(244), // 2900
std::uint8_t(244), // 2901
std::uint8_t(244), // 2902
std::uint8_t(244), // 2903
std::uint8_t(244), // 2904
std::uint8_t(244), // 2905
std::uint8_t(244), // 2906
std::uint8_t(244), // 2907
std::uint8_t(245), // 2908
std::uint8_t(245), // 2909
std::uint8_t(245), // 2910
std::uint8_t(245), // 2911
std::uint8_t(245), // 2912
std::uint8_t(245), // 2913
std::uint8_t(245), // 2914
std::uint8_t(245), // 2915
std::uint8_t(245), // 2916
std::uint8_t(245), // 2917
std::uint8_t(245), // 2918
std::uint8_t(245), // 2919
std::uint8_t(245), // 2920
std::uint8_t(245), // 2921
std::uint8_t(245), // 2922
std::uint8_t(245), // 2923
std::uint8_t(245), // 2924
std::uint8_t(245), // 2925
std::uint8_t(245), // 2926
std::uint8_t(245), // 2927
std::uint8_t(245), // 2928
std::uint8_t(245), // 2929
std::uint8_t(245), // 2930
std::uint8_t(245), // 2931
std::uint8_t(245), // 2932
std::uint8_t(245), // 2933
std::uint8_t(245), // 2934
std::uint8_t(246), // 2935
std::uint8_t(246), // 2936
std::uint8_t(246), // 2937
std::uint8_t(246), // 2938
std::uint8_t(246), // 2939
std::uint8_t(246), // 2940
std::uint8_t(246), // 2941
std::uint8_t(246), // 2942
std::uint8_t(246), // 2943
std::uint8_t(246), // 2944
std::uint8_t(246), // 2945
std::uint8_t(246), // 2946
std::uint8_t(246), // 2947
std::uint8_t(246), // 2948
std::uint8_t(246), // 2949
std::uint8_t(246), // 2950
std::uint8_t(246), // 2951
std::uint8_t(246), // 2952
std::uint8_t(246), // 2953
std::uint8_t(246), // 2954
std::uint8_t(246), // 2955
std::uint8_t(246), // 2956
std::uint8_t(246), // 2957
std::uint8_t(246), // 2958
std::uint8_t(246), // 2959
std::uint8_t(246), // 2960
std::uint8_t(246), // 2961
std::uint8_t(247), // 2962
std::uint8_t(247), // 2963
std::uint8_t(247), // 2964
std::uint8_t(247), // 2965
std::uint8_t(247), // 2966
std::uint8_t(247), // 2967
std::uint8_t(247), // 2968
std::uint8_t(247), // 2969
std::uint8_t(247), // 2970
std::uint8_t(247), // 2971
std::uint8_t(247), // 2972
std::uint8_t(247), // 2973
std::uint8_t(247), // 2974
std::uint8_t(247), // 2975
std::uint8_t(247), // 2976
std::uint8_t(247), // 2977
std::uint8_t(247), // 2978
std::uint8_t(247), // 2979
std::uint8_t(247), // 2980
std::uint8_t(247), // 2981
std::uint8_t(247), // 2982
std::uint8_t(247), // 2983
std::uint8_t(247), // 2984
std::uint8_t(247), // 2985
std::uint8_t(247), // 2986
std::uint8_t(247), // 2987
std::uint8_t(247), // 2988
std::uint8_t(247), // 2989
std::uint8_t(248), // 2990
std::uint8_t(248), // 2991
std::uint8_t(248), // 2992
std::uint8_t(248), // 2993
std::uint8_t(248), // 2994
std::uint8_t(248), // 2995
std::uint8_t(248), // 2996
std::uint8_t(248), // 2997
std::uint8_t(248), // 2998
std::uint8_t(248), // 2999
std::uint8_t(248), // 3000
std::uint8_t(248), // 3001
std::uint8_t(248), // 3002
std::uint8_t(248), // 3003
std::uint8_t(248), // 3004
std::uint8_t(248), // 3005
std::uint8_t(248), // 3006
std::uint8_t(248), // 3007
std::uint8_t(248), // 3008
std::uint8_t(248), // 3009
std::uint8_t(248), // 3010
std::uint8_t(248), // 3011
std::uint8_t(248), // 3012
std::uint8_t(248), // 3013
std::uint8_t(248), // 3014
std::uint8_t(248), // 3015
std::uint8_t(248), // 3016
std::uint8_t(249), // 3017
std::uint8_t(249), // 3018
std::uint8_t(249), // 3019
std::uint8_t(249), // 3020
std::uint8_t(249), // 3021
std::uint8_t(249), // 3022
std::uint8_t(249), // 3023
std::uint8_t(249), // 3024
std::uint8_t(249), // 3025
std::uint8_t(249), // 3026
std::uint8_t(249), // 3027
std::uint8_t(249), // 3028
std::uint8_t(249), // 3029
std::uint8_t(249), // 3030
std::uint8_t(249), // 3031
std::uint8_t(249), // 3032
std::uint8_t(249), // 3033
std::uint8_t(249), // 3034
std::uint8_t(249), // 3035
std::uint8_t(249), // 3036
std::uint8_t(249), // 3037
std::uint8_t(249), // 3038
std::uint8_t(249), // 3039
std::uint8_t(249), // 3040
std::uint8_t(249), // 3041
std::uint8_t(249), // 3042
std::uint8_t(249), // 3043
std::uint8_t(249), // 3044
std::uint8_t(250), // 3045
std::uint8_t(250), // 3046
std::uint8_t(250), // 3047
std::uint8_t(250), // 3048
std::uint8_t(250), // 3049
std::uint8_t(250), // 3050
std::uint8_t(250), // 3051
std::uint8_t(250), // 3052
std::uint8_t(250), // 3053
std::uint8_t(250), // 3054
std::uint8_t(250), // 3055
std::uint8_t(250), // 3056
std::uint8_t(250), // 3057
std::uint8_t(250), // 3058
std::uint8_t(250), // 3059
std::uint8_t(250), // 3060
std::uint8_t(250), // 3061
std::uint8_t(250), // 3062
std::uint8_t(250), // 3063
std::uint8_t(250), // 3064
std::uint8_t(250), // 3065
std::uint8_t(250), // 3066
std::uint8_t(250), // 3067
std::uint8_t(250), // 3068
std::uint8_t(250), // 3069
std::uint8_t(250), // 3070
std::uint8_t(250), // 3071
std::uint8_t(250), // 3072
std::uint8_t(251), // 3073
std::uint8_t(251), // 3074
std::uint8_t(251), // 3075
std::uint8_t(251), // 3076
std::uint8_t(251), // 3077
std::uint8_t(251), // 3078
std::uint8_t(251), // 3079
std::uint8_t(251), // 3080
std::uint8_t(251), // 3081
std::uint8_t(251), // 3082
std::uint8_t(251), // 3083
std::uint8_t(251), // 3084
std::uint8_t(251), // 3085
std::uint8_t(251), // 3086
std::uint8_t(251), // 3087
std::uint8_t(251), // 3088
std::uint8_t(251), // 3089
std::uint8_t(251), // 3090
std::uint8_t(251), // 3091
std::uint8_t(251), // 3092
std::uint8_t(251), // 3093
std::uint8_t(251), // 3094
std::uint8_t(251), // 3095
std::uint8_t(251), // 3096
std::uint8_t(251), // 3097
std::uint8_t(251), // 3098
std::uint8_t(251), // 3099
std::uint8_t(251), // 3100
std::uint8_t(252), // 3101
std::uint8_t(252), // 3102
std::uint8_t(252), // 3103
std::uint8_t(252), // 3104
std::uint8_t(252), // 3105
std::uint8_t(252), // 3106
std::uint8_t(252), // 3107
std::uint8_t(252), // 3108
std::uint8_t(252), // 3109
std::uint8_t(252), // 3110
std::uint8_t(252), // 3111
std::uint8_t(252), // 3112
std::uint8_t(252), // 3113
std::uint8_t(252), // 3114
std::uint8_t(252), // 3115
std::uint8_t(252), // 3116
std::uint8_t(252), // 3117
std::uint8_t(252), // 3118
std::uint8_t(252), // 3119
std::uint8_t(252), // 3120
std::uint8_t(252), // 3121
std::uint8_t(252), // 3122
std::uint8_t(252), // 3123
std::uint8_t(252), // 3124
std::uint8_t(252), // 3125
std::uint8_t(252), // 3126
std::uint8_t(252), // 3127
std::uint8_t(252), // 3128
std::uint8_t(253), // 3129
std::uint8_t(253), // 3130
std::uint8_t(253), // 3131
std::uint8_t(253), // 3132
std::uint8_t(253), // 3133
std::uint8_t(253), // 3134
std::uint8_t(253), // 3135
std::uint8_t(253), // 3136
std::uint8_t(253), // 3137
std::uint8_t(253), // 3138
std::uint8_t(253), // 3139
std::uint8_t(253), // 3140
std::uint8_t(253), // 3141
std::uint8_t(253), // 3142
std::uint8_t(253), // 3143
std::uint8_t(253), // 3144
std::uint8_t(253), // 3145
std::uint8_t(253), // 3146
std::uint8_t(253), // 3147
std::uint8_t(253), // 3148
std::uint8_t(253), // 3149
std::uint8_t(253), // 3150
std::uint8_t(253), // 3151
std::uint8_t(253), // 3152
std::uint8_t(253), // 3153
std::uint8_t(253), // 3154
std::uint8_t(253), // 3155
std::uint8_t(253), // 3156
std::uint8_t(254), // 3157
std::uint8_t(254), // 3158
std::uint8_t(254), // 3159
std::uint8_t(254), // 3160
std::uint8_t(254), // 3161
std::uint8_t(254), // 3162
std::uint8_t(254), // 3163
std::uint8_t(254), // 3164
std::uint8_t(254), // 3165
std::uint8_t(254), // 3166
std::uint8_t(254), // 3167
std::uint8_t(254), // 3168
std::uint8_t(254), // 3169
std::uint8_t(254), // 3170
std::uint8_t(254), // 3171
std::uint8_t(254), // 3172
std::uint8_t(254), // 3173
std::uint8_t(254), // 3174
std::uint8_t(254), // 3175
std::uint8_t(254), // 3176
std::uint8_t(254), // 3177
std::uint8_t(254), // 3178
std::uint8_t(254), // 3179
std::uint8_t(254), // 3180
std::uint8_t(254), // 3181
std::uint8_t(254), // 3182
std::uint8_t(254), // 3183
std::uint8_t(254), // 3184
std::uint8_t(255), // 3185
std::uint8_t(255), // 3186
std::uint8_t(255), // 3187
std::uint8_t(255), // 3188
std::uint8_t(255), // 3189
std::uint8_t(255), // 3190
std::uint8_t(255), // 3191
std::uint8_t(255), // 3192
std::uint8_t(255), // 3193
std::uint8_t(255), // 3194
std::uint8_t(255), // 3195
std::uint8_t(255), // 3196
std::uint8_t(255), // 3197
std::uint8_t(255), // 3198
std::uint8_t(255), // 3199
